data/16.vcd
$date 2021-07-30 17:56:13 $end
$version piscope V1 $end
$timescale 1 us $end
$scope module top $end
$var wire 1 A 0 $end
$var wire 1 B 1 $end
$var wire 1 C 2 $end
$var wire 1 D 3 $end
$var wire 1 E 4 $end
$var wire 1 F 5 $end
$var wire 1 G 6 $end
$var wire 1 H 7 $end
$var wire 1 I 8 $end
$var wire 1 J 9 $end
$var wire 1 K 10 $end
$var wire 1 L 11 $end
$var wire 1 M 12 $end
$var wire 1 N 13 $end
$var wire 1 O 14 $end
$var wire 1 P 15 $end
$var wire 1 Q 16 $end
$var wire 1 R 17 $end
$var wire 1 S 18 $end
$var wire 1 T 19 $end
$var wire 1 U 20 $end
$var wire 1 V 21 $end
$var wire 1 W 22 $end
$var wire 1 X 23 $end
$var wire 1 Y 24 $end
$var wire 1 Z 25 $end
$var wire 1 a 26 $end
$var wire 1 b 27 $end
$var wire 1 c 28 $end
$var wire 1 d 29 $end
$var wire 1 e 30 $end
$var wire 1 f 31 $end
$upscope $end
$enddefinitions $end
#1569206096
1A
1B
0C
1D
0E
1F
1G
1H
1I
0J
0K
0L
0M
0N
0O
1P
0Q
0R
0S
0T
0U
0V
0W
0X
0Y
0Z
0a
0b
1c
0d
0e
0f
#1569209442
1C
#1569211107
0C
#1569211542
1C
#1569212772
0C
#1569213202
1C
#1569213712
0C
#1569214142
1C
#1569214647
0C
#1569215052
1C
#1569215582
0C
#1569216012
1C
#1569216517
0C
#1569216947
1C
#1569217457
0C
#1569217882
1C
#1569218392
0C
#1569218797
1C
#1569219327
0C
#1569219757
1C
#1569220262
0C
#1569220692
1C
#1569221197
0C
#1569221627
1C
#1569222137
0C
#1569222557
1C
#1569223072
0C
#1569223502
1C
#1569224732
0C
#1569225167
1C
#1569225672
0C
#1569226077
1C
#1569226607
0C
#1569227037
1C
#1569227542
0C
#1569227972
1C
#1569228477
0C
#1569228907
1C
#1569229417
0C
#1569229847
1C
#1569230352
0C
#1569230782
1C
#1569231287
0C
#1569231717
1C
#1569232227
0C
#1569232657
1C
#1569233162
0C
#1569233567
1C
#1569234097
0C
#1569234502
1C
#1569235032
0C
#1569235462
1C
#1569235967
0C
#1569236397
1C
#1569236902
0C
#1569237332
1C
#1569237842
0C
#1569238247
1C
#1569238777
0C
#1569239187
1C
#1569239712
0C
#1569240142
1C
#1569240647
0C
#1569241077
1C
#1569242312
0C
#1569242717
1C
#1569243247
0C
#1569243682
1C
#1569244912
0C
#1569245342
1C
#1569246577
0C
#1569247007
1C
#1569248242
0C
#1569248672
1C
#1569249907
0C
#1569250337
1C
#1569251572
0C
#1569252002
1C
#1569253232
0C
#1569253667
1C
#1569254172
0C
#1569254602
1C
#1569255837
0C
#1569256242
1C
#1569257497
0C
#1569257932
1C
#1569259162
0C
#1569259597
1C
#1569260827
0C
#1569261237
1C
#1569262492
0C
#1569262927
1C
#1569264157
0C
#1569264587
1C
#1569265822
0C
#1569266252
1C
#1569267487
0C
#1569267917
1C
#1569269147
0C
#1569269577
1C
#1569270087
0C
#1569270492
1C
#1569271022
0C
#1569271452
1C
#1569271957
0C
#1569272367
1C
#1569272897
0C
#1569273302
1C
#1569273832
0C
#1569274262
1C
#1569274767
0C
#1569275197
1C
#1569275702
0C
#1569276132
1C
#1569276642
0C
#1569277047
1C
#1569277577
0C
#1569277997
1C
#1569278512
0C
#1569278942
1C
#1569280177
0C
#1569280607
1C
#1569281842
0C
#1569282247
1C
#1569282777
0C
#1569283207
1C
#1569283712
0C
#1569284142
1C
#1569285377
0C
#1569285807
1C
#1569287042
0C
#1569287472
1C
#1569288702
0C
#1569289137
1C
#1569290372
0C
#1569290802
1C
#1569291307
0C
#1569291737
1C
#1569292242
0C
#1569292672
1C
#1569293907
0C
#1569294337
1C
#1569295572
0C
#1569296002
1C
#1569296512
0C
#1569296937
1C
#1569297447
0C
#1569297852
1C
#1569298382
0C
#1569298812
1C
#1569300042
0C
#1569300477
1C
#1569300982
0C
#1569301412
1C
#1569301922
0C
#1569302347
1C
#1569303582
0C
#1569304007
1C
#1569304522
0C
#1569304952
1C
#1569305457
0C
#1569305887
1C
#1569307122
0C
#1569307532
1C
#1569308787
0C
#1569309217
1C
#1569309722
0C
#1569310152
1C
#1569311387
0C
#1569311817
1C
#1569313052
0C
#1569313467
1C
#1569313987
0C
#1569314422
1C
#1569315652
0C
#1569316082
1C
#1569317317
0C
#1569317747
1C
#1569318257
0C
#1569318662
1C
#1569319917
0C
#1569320347
1C
#1569321582
0C
#1569322012
1C
#1569322522
0C
#1569322952
1C
#1569323457
0C
#1569323887
1C
#1569324392
0C
#1569324822
1C
#1569325327
0C
#1569325757
1C
#1569326992
0C
#1569327422
1C
#1569327932
0C
#1569328362
1C
#1569328867
0C
#1569329297
1C
#1569329802
0C
#1569330232
1C
#1569331467
0C
#1569331897
1C
#1569333132
0C
#1569333562
1C
#1569334797
0C
#1569335227
1C
#1569336462
0C
#1569336892
1C
#1569337397
0C
#1569337827
1C
#1569339062
0C
#1569339492
1C
#1569339997
0C
#1569340427
1C
#1569340932
0C
#1569341367
1C
#1569341872
0C
#1569342302
1C
#1569342807
0C
#1569343237
1C
#1569343742
0C
#1569344172
1C
#1569344677
0C
#1569345107
1C
#1569346342
0C
#1569346772
1C
#1569347282
0C
#1569347712
1C
#1569348942
0C
#1569349372
1C
#1569350607
0C
#1569351037
1C
#1569352272
0C
#1569352702
1C
#1569353937
0C
#1569354372
1C
#1569355602
0C
#1569356032
1C
#1569357267
0C
#1569357697
1C
#1569358207
0C
#1569358637
1C
#1569359867
0C
#1569360297
1C
#1569360807
0C
#1569361237
1C
#1569361742
0C
#1569362162
1C
#1569362677
0C
#1569363107
1C
#1569363617
0C
#1569364042
1C
#1569364552
0C
#1569364982
1C
#1569365487
0C
#1569365917
1C
#1569366422
0C
#1569366852
1C
#1569367362
0C
#1569367767
1C
#1569369022
0C
#1569369452
1C
#1569370687
0C
#1569371117
1C
#1569372352
0C
#1569372782
1C
#1569374017
0C
#1569374447
1C
#1569375682
0C
#1569376112
1C
#1569377347
0C
#1569377777
1C
#1569379012
0C
#1569379442
1C
#1569380672
0C
#1569381107
1C
#1569381612
0C
#1569382042
1C
#1569382547
0C
#1569382977
1C
#1569383482
0C
#1569383912
1C
#1569384422
0C
#1569384852
1C
#1569385357
0C
#1569385762
1C
#1569386292
0C
#1569386697
1C
#1569387227
0C
#1569387637
1C
#1569388167
0C
#1569388597
1C
#1569389827
0C
#1569390257
1C
#1569391492
0C
#1569391927
1C
#1569393157
0C
#1569393587
1C
#1569394822
0C
#1569395252
1C
#1569396487
0C
#1569396917
1C
#1569398152
0C
#1569398557
1C
#1569399817
0C
#1569400222
1C
#1569401482
0C
#1569401912
1C
#1569402417
0C
#1569402822
1C
#1569403352
0C
#1569403762
1C
#1569404292
0C
#1569404707
1C
#1569405227
0C
#1569405657
1C
#1569406162
0C
#1569406567
1C
#1569407102
0C
#1569407507
1C
#1569408037
0C
#1569408442
1C
#1569408972
0C
#1569409397
1C
#1569410637
0C
#1569411042
1C
#1569412302
0C
#1569412732
1C
#1569413967
0C
#1569414397
1C
#1569415632
0C
#1569416062
1C
#1569417297
0C
#1569417727
1C
#1569418957
0C
#1569419367
1C
#1569420627
0C
#1569421032
1C
#1569422292
0C
#1569422697
1C
#1569423227
0C
#1569423652
1C
#1569424162
0C
#1569424572
1C
#1569425102
0C
#1569425507
1C
#1569426037
0C
#1569426442
1C
#1569426972
0C
#1569427402
1C
#1569427912
0C
#1569428317
1C
#1569428847
0C
#1569429277
1C
#1569429782
0C
#1569430212
1C
#1569431447
0C
#1569431872
1C
#1569433112
0C
#1569433517
1C
#1569434777
0C
#1569435182
1C
#1569436442
0C
#1569436847
1C
#1569438107
0C
#1569438537
1C
#1569439772
0C
#1569440177
1C
#1569441437
0C
#1569441842
1C
#1569443102
0C
#1569443532
1C
#1569444042
0C
#1569444442
1C
#1569444977
0C
#1569445382
1C
#1569445912
0C
#1569446317
1C
#1569446847
0C
#1569447262
1C
#1569447782
0C
#1569448187
1C
#1569448722
0C
#1569449147
1C
#1569449657
0C
#1569450062
1C
#1569450592
0C
#1569450997
1C
#1569452257
0C
#1569452667
1C
#1569453922
0C
#1569454327
1C
#1569455587
0C
#1569455992
1C
#1569457252
0C
#1569457657
1C
#1569458917
0C
#1569459347
1C
#1569460582
0C
#1569460987
1C
#1569462242
0C
#1569462652
1C
#1569463912
0C
#1569464317
1C
#1569465572
0C
#1569465982
1C
#1569467237
0C
#1569467647
1C
#1569468177
0C
#1569468582
1C
#1569469112
0C
#1569469517
1C
#1569470777
0C
#1569471182
1C
#1569471712
0C
#1569472117
1C
#1569473377
0C
#1569473782
1C
#1569474312
0C
#1569474717
1C
#1569475247
0C
#1569475657
1C
#1569476187
0C
#1569476592
1C
#1569477852
0C
#1569478257
1C
#1569479517
0C
#1569479922
1C
#1569480452
0C
#1569480857
1C
#1569482117
0C
#1569482522
1C
#1569483052
0C
#1569483457
1C
#1569484717
0C
#1569485147
1C
#1569486382
0C
#1569486787
1C
#1569487322
0C
#1569487727
1C
#1569488257
0C
#1569488662
1C
#1569489192
0C
#1569489597
1C
#1569490857
0C
#1569491262
1C
#1569492522
0C
#1569492927
1C
#1569494187
0C
#1569494592
1C
#1569495852
0C
#1569496257
1C
#1569496787
0C
#1569497192
1C
#1569498452
0C
#1569498857
1C
#1569500117
0C
#1569500522
1C
#1569501782
0C
#1569502187
1C
#1569502717
0C
#1569503122
1C
#1569503657
0C
#1569504062
1C
#1569504592
0C
#1569504997
1C
#1569505527
0C
#1569505932
1C
#1569506467
0C
#1569506867
1C
#1569508127
0C
#1569508532
1C
#1569509067
0C
#1569509472
1C
#1569510002
0C
#1569510407
1C
#1569510937
0C
#1569511342
1C
#1569511877
0C
#1569512277
1C
#1569512812
0C
#1569513217
1C
#1569513752
0C
#1569514152
1C
#1569515412
0C
#1569515817
1C
#1569516377
0C
#1569516757
1C
#1569518012
0C
#1569518417
1C
#1569519677
0C
#1569520082
1C
#1569521342
0C
#1569521747
1C
#1569523007
0C
#1569523412
1C
#1569524672
0C
#1569525077
1C
#1569526362
0C
#1569526742
1C
#1569527302
0C
#1569527712
1C
#1569528237
0C
#1569528617
1C
#1569529172
0C
#1569529557
1C
#1569530837
0C
#1569531222
1C
#1569531772
0C
#1569532182
1C
#1569532712
0C
#1569533122
1C
#1569533647
0C
#1569534057
1C
#1569534582
0C
#1569534992
1C
#1569536247
0C
#1569536662
1C
#1569537912
0C
#1569538322
1C
#1569539577
0C
#1569539992
1C
#1569540517
0C
#1569540927
1C
#1569542177
0C
#1569542592
1C
#1569543842
0C
#1569544257
1C
#1569545482
0C
#1569545922
1C
#1569547147
0C
#1569547587
1C
#1569548112
0C
#1569548522
1C
#1569549047
0C
#1569549462
1C
#1569549982
0C
#1569550397
1C
#1569550922
0C
#1569551332
1C
#1569551857
0C
#1569552272
1C
#1569552792
0C
#1569553207
1C
#1569553727
0C
#1569554142
1C
#1569555367
0C
#1569555807
1C
#1569557027
0C
#1569557472
1C
#1569558692
0C
#1569559137
1C
#1569560357
0C
#1569560802
1C
#1569562022
0C
#1569562467
1C
#1569563687
0C
#1569564132
1C
#1569565352
0C
#1569565797
1C
#1569567017
0C
#1569567457
1C
#1569567977
0C
#1569568397
1C
#1569569617
0C
#1569570058
1C
#1569571282
0C
#1569571727
1C
#1569572247
0C
#1569572662
1C
#1569573183
0C
#1569573597
1C
#1569574117
0C
#1569574532
1C
#1569575057
0C
#1569575472
1C
#1569575992
0C
#1569576408
1C
#1569576928
0C
#1569577343
1C
#1569577862
0C
#1569578278
1C
#1569578803
0C
#1569579212
1C
#1569580433
0C
#1569580878
1C
#1569582098
0C
#1569582543
1C
#1569583762
0C
#1569584208
1C
#1569585428
0C
#1569585873
1C
#1569587092
0C
#1569587533
1C
#1569588758
0C
#1569589198
1C
#1569589722
0C
#1569590133
1C
#1569590657
0C
#1569591067
1C
#1569591598
0C
#1569592008
1C
#1569592532
0C
#1569592942
1C
#1569593468
0C
#1569593878
1C
#1569594403
0C
#1569594813
1C
#1569595343
0C
#1569595748
1C
#1569596253
0C
#1569596688
1C
#1569597913
0C
#1569598348
1C
#1569599577
0C
#1569600012
1C
#1569601243
0C
#1569601678
1C
#1569602908
0C
#1569603343
1C
#1569604573
0C
#1569605007
1C
#1569606233
0C
#1569606673
1C
#1569607898
0C
#1569608333
1C
#1569609563
0C
#1569610003
1C
#1569610503
0C
#1569610938
1C
#1569612168
0C
#1569612603
1C
#1569613103
0C
#1569613538
1C
#1569614038
0C
#1569614473
1C
#1569614978
0C
#1569615408
1C
#1569615913
0C
#1569616348
1C
#1569616848
0C
#1569617283
1C
#1569617788
0C
#1569618218
1C
#1569619448
0C
#1569619883
1C
#1569620383
0C
#1569620818
1C
#1569622048
0C
#1569622483
1C
#1569623713
0C
#1569624143
1C
#1569625378
0C
#1569625813
1C
#1569627043
0C
#1569627473
1C
#1569628708
0C
#1569629138
1C
#1569630368
0C
#1569630803
1C
#1569632033
0C
#1569632468
1C
#1569633698
0C
#1569634133
1C
#1569635363
0C
#1569635798
1C
#1569637028
0C
#1569637458
1C
#1569638693
0C
#1569639123
1C
#1569639628
0C
#1569640063
1C
#1569640563
0C
#1569640998
1C
#1569642228
0C
#1569642663
1C
#1569643168
0C
#1569643598
1C
#1569644103
0C
#1569644533
1C
#1569645038
0C
#1569645468
1C
#1569645973
0C
#1569646408
1C
#1569646913
0C
#1569647343
1C
#1569648573
0C
#1569649008
1C
#1569650238
0C
#1569650673
1C
#1569651178
0C
#1569651608
1C
