data/16e.vcd
$date 2021-07-29 18:36:59 $end
$version piscope V1 $end
$timescale 1 us $end
$scope module top $end
$var wire 1 A 0 $end
$var wire 1 B 1 $end
$var wire 1 C 2 $end
$var wire 1 D 3 $end
$var wire 1 E 4 $end
$var wire 1 F 5 $end
$var wire 1 G 6 $end
$var wire 1 H 7 $end
$var wire 1 I 8 $end
$var wire 1 J 9 $end
$var wire 1 K 10 $end
$var wire 1 L 11 $end
$var wire 1 M 12 $end
$var wire 1 N 13 $end
$var wire 1 O 14 $end
$var wire 1 P 15 $end
$var wire 1 Q 16 $end
$var wire 1 R 17 $end
$var wire 1 S 18 $end
$var wire 1 T 19 $end
$var wire 1 U 20 $end
$var wire 1 V 21 $end
$var wire 1 W 22 $end
$var wire 1 X 23 $end
$var wire 1 Y 24 $end
$var wire 1 Z 25 $end
$var wire 1 a 26 $end
$var wire 1 b 27 $end
$var wire 1 c 28 $end
$var wire 1 d 29 $end
$var wire 1 e 30 $end
$var wire 1 f 31 $end
$upscope $end
$enddefinitions $end
#57473100
1A
1B
0C
0E
1F
1G
1H
1I
0J
0K
0L
0M
0N
0O
1P
0Q
0R
0S
0T
0U
0V
0W
0X
0Y
0Z
0a
0b
1c
0d
0e
0f
#57476610
1C
0D
#57478470
0C
1D
#57478955
1C
0D
1E
#57480265
0C
1D
0E
#57480775
1C
0D
1E
#57481440
0C
1D
#57482090
1C
0D
#57482870
0C
1D
0E
#57483375
1C
0D
#57484000
0C
1D
#57484480
1C
0D
#57485135
0C
1D
#57485640
1C
0D
1E
#57486265
0C
1D
0E
#57486770
1C
0D
#57487395
0C
1D
#57487875
1C
0D
#57488500
0C
1D
#57488985
1C
0D
1E
#57489605
0C
1D
0E
#57490220
1C
0D
1E
#57490840
0C
1D
0E
#57491325
1C
0D
1E
#57491995
0C
1D
0E
#57492455
1C
0D
1E
#57493080
0C
1D
0E
#57493560
1C
0D
1E
#57494895
0C
1D
0E
#57495405
1C
0D
1E
#57496045
0C
1D
#57496485
1C
0D
#57497100
0C
1D
0E
#57497535
1C
0D
1E
#57498150
0C
1D
#57498585
1C
0D
0E
#57499185
0C
1D
#57499640
1C
0D
1E
#57500235
0C
1D
0E
#57500690
1C
0D
#57501290
0C
1D
#57501770
1C
0D
#57502345
0C
1D
#57502825
1C
0D
1E
#57503400
0C
1D
0E
#57503875
1C
0D
#57504450
0C
1D
#57504930
1C
0D
1E
#57505545
0C
1D
#57505980
1C
0D
0E
#57506580
0C
1D
#57507035
1C
0D
1E
#57507630
0C
1D
0E
#57508115
1C
0D
1E
#57508730
0C
1D
#57509170
1C
0D
#57509760
0C
1D
0E
#57510215
1C
0D
#57510815
0C
1D
#57511300
1C
0D
1E
#57511895
0C
1D
0E
#57512350
1C
0D
1E
#57512995
0C
1D
0E
#57513430
1C
0D
1E
#57514685
0C
1D
0E
#57515140
1C
0D
1E
#57515760
0C
1D
0E
#57516220
1C
0D
1E
#57517470
0C
1D
0E
#57517930
1C
0D
1E
#57519160
0C
1D
0E
#57519695
1C
0D
1E
#57520920
0C
1D
0E
#57521375
1C
0D
#57522605
0C
1D
#57523085
1C
0D
#57524420
0C
1D
#57524875
1C
0D
#57526130
0C
1D
#57526585
1C
0D
#57527185
0C
1D
#57527640
1C
0D
1E
#57528895
0C
1D
0E
#57529350
1C
0D
1E
#57532630
0C
1D
0E
#57533115
1C
0D
1E
#57534395
0C
1D
0E
#57534875
1C
0D
#57536130
0C
1D
#57536610
1C
0D
#57537840
0C
1D
#57538295
1C
0D
#57539555
0C
1D
#57540035
1C
0D
1E
#57541265
0C
1D
0E
#57541745
1C
0D
1E
#57542975
0C
1D
0E
#57543455
1C
0D
1E
#57544710
0C
1D
0E
#57545165
1C
0D
1E
#57545790
0C
1D
0E
#57546270
1C
0D
#57546890
0C
1D
#57547325
1C
0D
1E
#57547940
0C
1D
#57548375
1C
0D
0E
#57548950
0C
1D
#57549430
1C
0D
1E
#57550000
0C
1D
0E
#57550480
1C
0D
#57551050
0C
1D
#57551505
1C
0D
#57552105
0C
1D
#57552560
1C
0D
1E
#57553180
0C
1D
0E
#57553615
1C
0D
1E
#57554230
0C
1D
#57554670
1C
0D
#57555260
0C
1D
0E
#57555715
1C
0D
#57557000
0C
1D
#57557480
1C
0D
#57558710
0C
1D
#57559190
1C
0D
#57559810
0C
1D
#57560245
1C
0D
1E
#57560840
0C
1D
0E
#57561295
1C
0D
#57562575
0C
1D
#57563035
1C
0D
1E
#57564290
0C
1D
0E
#57564745
1C
0D
1E
#57566020
0C
1D
#57566455
1C
0D
#57567730
0C
1D
#57568165
1C
0D
#57568765
0C
1D
0E
#57569215
1C
0D
#57569840
0C
1D
#57570295
1C
0D
#57571550
0C
1D
#57572005
1C
0D
#57573260
0C
1D
#57573690
1C
0D
#57574310
0C
1D
#57574745
1C
0D
1E
#57575365
0C
1D
0E
#57575825
1C
0D
1E
#57576445
0C
1D
0E
#57576875
1C
0D
#57578155
0C
1D
#57578665
1C
0D
1E
#57579285
0C
1D
0E
#57579715
1C
0D
#57580335
0C
1D
1E
#57580795
1C
0D
0E
#57582285
0C
1D
#57582850
1C
0D
1E
#57583470
0C
1D
0E
#57583925
1C
0D
#57585235
0C
1D
#57585690
1C
0D
#57587020
0C
1D
1E
#57587455
1C
0D
#57588735
0C
1D
0E
#57589165
1C
0D
1E
#57589785
0C
1D
0E
#57590295
1C
0D
#57591655
0C
1D
#57592110
1C
0D
#57593370
0C
1D
#57593820
1C
0D
#57594445
0C
1D
#57594875
1C
0D
#57596235
0C
1D
#57596690
1C
0D
#57597945
0C
1D
#57598375
1C
0D
#57598995
0C
1D
#57599425
1C
0D
#57600685
0C
1D
#57601140
1C
0D
1E
#57602445
0C
1D
0E
#57602875
1C
0D
#57603495
0C
1D
#57603930
1C
0D
1E
#57604525
0C
1D
0E
#57604980
1C
0D
#57605575
0C
1D
#57606035
1C
0D
1E
#57606655
0C
1D
0E
#57607085
1C
0D
#57608365
0C
1D
#57608795
1C
0D
#57609420
0C
1D
#57609850
1C
0D
1E
#57610475
0C
1D
0E
#57610930
1C
0D
1E
#57611550
0C
1D
0E
#57612005
1C
0D
#57613261
0C
1D
#57613690
1C
0D
#57614970
0C
1D
#57615430
1C
0D
1E
#57616710
0C
1D
0E
#57617140
1C
0D
1E
#57618420
0C
1D
0E
#57618850
1C
0D
1E
#57619470
0C
1D
0E
#57619900
1C
0D
#57621155
0C
1D
#57621585
1C
0D
#57622210
0C
1D
#57622640
1C
0D
1E
#57623260
0C
1D
0E
#57623690
1C
0D
#57624340
0C
1D
#57624770
1C
0D
#57625395
0C
1D
#57625850
1C
0D
1E
#57626500
0C
1D
0E
#57626925
1C
0D
#57627550
0C
1D
#57627980
1C
0D
#57629265
0C
1D
#57629690
1C
0D
#57630340
0C
1D
#57630770
1C
0D
#57632075
0C
1D
#57633295
1C
0D
#57634656
0C
1D
#57635101
1C
0D
#57637130
0C
1D
#57637561
1C
0D
1E
#57638865
0C
1D
0E
#57639270
1C
0D
#57640630
0C
1D
#57641061
1C
0D
1E
#57642365
0C
1D
0E
#57642770
1C
0D
#57643420
0C
1D
#57643851
1C
0D
1E
#57645155
0C
1D
0E
#57645560
1C
0D
1E
#57646235
0C
1D
0E
#57646640
1C
0D
1E
#57647316
0C
1D
0E
#57647690
1C
0D
#57648395
0C
1D
#57648795
1C
0D
#57649445
0C
1D
#57649850
1C
0D
1E
#57650526
0C
1D
0E
#57650905
1C
0D
1E
#57651605
0C
1D
0E
#57651985
1C
0D
1E
#57652660
0C
1D
0E
#57653060
1C
0D
1E
#57653740
0C
1D
0E
#57654115
1C
0D
1E
#57655475
0C
1D
0E
#57655850
1C
0D
1E
#57657210
0C
1D
0E
#57657560
1C
0D
1E
#57658920
0C
1D
0E
#57659296
1C
0D
#57660660
0C
1D
#57661005
1C
0D
#57662371
0C
1D
#57662745
1C
0D
1E
#57664130
0C
1D
0E
#57664430
1C
0D
1E
#57665846
0C
1D
0E
#57666215
1C
0D
#57667605
0C
1D
#57667875
1C
0D
#57668636
0C
1D
#57668901
1C
0D
#57669685
0C
1D
#57669925
1C
0D
#57670685
0C
1D
#57670900
1C
0D
#57671731
0C
1D
1E
#57671956
1C
0D
