data/16off.vcd
$date 2021-07-27 18:37:14 $end
$version piscope V1 $end
$timescale 1 us $end
$scope module top $end
$var wire 1 A 0 $end
$var wire 1 B 1 $end
$var wire 1 C 2 $end
$var wire 1 D 3 $end
$var wire 1 E 4 $end
$var wire 1 F 5 $end
$var wire 1 G 6 $end
$var wire 1 H 7 $end
$var wire 1 I 8 $end
$var wire 1 J 9 $end
$var wire 1 K 10 $end
$var wire 1 L 11 $end
$var wire 1 M 12 $end
$var wire 1 N 13 $end
$var wire 1 O 14 $end
$var wire 1 P 15 $end
$var wire 1 Q 16 $end
$var wire 1 R 17 $end
$var wire 1 S 18 $end
$var wire 1 T 19 $end
$var wire 1 U 20 $end
$var wire 1 V 21 $end
$var wire 1 W 22 $end
$var wire 1 X 23 $end
$var wire 1 Y 24 $end
$var wire 1 Z 25 $end
$var wire 1 a 26 $end
$var wire 1 b 27 $end
$var wire 1 c 28 $end
$var wire 1 d 29 $end
$var wire 1 e 30 $end
$var wire 1 f 31 $end
$upscope $end
$enddefinitions $end
#116623725
1A
1B
0C
1D
1E
1F
1G
1H
1I
0J
0K
0L
0M
0N
0O
1P
0Q
0R
0S
0T
0U
0V
0W
0X
0Y
0Z
0a
0b
1c
0d
0e
0f
#116627081
1C
#116628745
0C
#116629156
1C
#116630411
0C
#116630821
1C
#116631346
0C
#116631785
1C
#116632281
0C
#116632721
1C
#116633216
0C
#116633656
1C
#116634156
0C
#116634596
1C
#116635091
0C
#116635531
1C
#116636026
0C
#116636471
1C
#116636965
0C
#116637406
1C
#116637901
0C
#116638346
1C
#116638836
0C
#116639281
1C
#116639771
0C
#116640221
1C
#116640711
0C
#116641156
1C
#116642376
0C
#116642821
1C
#116643311
0C
#116643761
1C
#116644251
0C
#116644696
1C
#116645186
0C
#116645631
1C
#116646126
0C
#116646571
1C
#116647061
0C
#116647506
1C
#116647996
0C
#116648441
1C
#116648931
0C
#116649381
1C
#116649871
0C
#116650316
1C
#116650806
0C
#116651251
1C
#116651746
0C
#116652191
1C
#116652686
0C
#116653126
1C
#116653621
0C
#116654066
1C
#116654556
0C
#116655001
1C
#116655496
0C
#116655941
1C
#116656431
0C
#116656876
1C
#116657366
0C
#116657811
1C
#116658301
0C
#116658746
1C
#116659971
0C
#116660411
1C
#116660906
0C
#116661351
1C
#116662571
0C
#116663016
1C
#116664236
0C
#116664681
1C
#116665901
0C
#116666346
1C
#116667566
0C
#116668011
1C
#116669231
0C
#116669676
1C
#116670896
0C
#116671341
1C
#116671836
0C
#116672281
1C
#116673501
0C
#116673941
1C
#116675166
0C
#116675606
1C
#116676831
0C
#116677271
1C
#116678496
0C
#116678936
1C
#116680161
0C
#116680576
1C
#116681851
0C
#116682241
1C
#116683516
0C
#116683906
1C
#116685161
0C
#116685571
1C
#116686826
0C
#116687236
1C
#116687761
0C
#116688201
1C
#116688696
0C
#116689136
1C
#116689631
0C
#116690071
1C
#116690571
0C
#116691011
1C
#116691506
0C
#116691946
1C
#116692441
0C
#116692881
1C
#116693381
0C
#116693821
1C
#116694316
0C
#116694756
1C
#116695251
0C
#116695696
1C
#116696191
0C
#116696631
1C
#116697861
0C
#116698271
1C
#116699526
0C
#116699961
1C
#116700456
0C
#116700901
1C
#116701396
0C
#116701836
1C
#116703061
0C
#116703501
1C
#116704731
0C
#116705141
1C
#116706391
0C
#116706806
1C
#116708061
0C
#116708496
1C
#116708991
0C
#116709431
1C
#116709931
0C
#116710371
1C
#116711596
0C
#116712031
1C
#116713266
0C
#116713701
1C
#116714196
0C
#116714636
1C
#116715136
0C
#116715556
1C
#116716071
0C
#116716511
1C
#116717741
0C
#116718151
1C
#116718676
0C
#116719116
1C
#116719611
0C
#116720056
1C
#116721281
0C
#116721721
1C
#116722216
0C
#116722656
1C
#116723151
0C
#116723581
1C
#116724841
0C
#116725261
1C
#116726506
0C
#116726901
1C
#116727421
0C
#116727861
1C
#116729091
0C
#116729526
1C
#116730756
0C
#116731191
1C
#116731686
0C
#116732131
1C
#116733356
0C
#116733766
1C
#116735046
0C
#116735461
1C
#116735951
0C
#116736371
1C
#116737646
0C
#116738061
1C
#116739311
0C
#116739726
1C
#116740221
0C
#116740661
1C
#116741156
0C
#116741596
1C
#116742846
0C
#116743266
1C
#116743761
0C
#116744201
1C
#116744696
0C
#116745136
1C
#116745636
0C
#116746076
1C
#116746571
0C
#116747011
1C
#116747506
0C
#116747946
1C
#116749196
0C
#116749586
1C
#116750861
0C
#116751281
1C
#116751776
0C
#116752216
1C
#116753466
0C
#116753856
1C
#116755131
0C
#116755546
1C
#116756796
0C
#116757186
1C
#116757706
0C
#116758151
1C
#116758646
0C
#116759086
1C
#116759581
0C
#116760021
1C
#116760516
0C
#116760961
1C
#116761456
0C
#116761896
1C
#116762391
0C
#116762836
1C
#116764081
0C
#116764471
1C
#116764996
0C
#116765436
1C
#116766686
0C
#116767101
1C
#116768351
0C
#116768766
1C
#116770016
0C
#116770431
1C
#116771681
0C
#116772071
1C
#116773346
0C
#116773766
1C
#116775016
0C
#116775431
1C
#116775926
0C
#116776366
1C
#116777616
0C
#116778031
1C
#116778531
0C
#116778971
1C
#116779466
0C
#116779906
1C
#116780406
0C
#116780846
1C
#116781341
0C
#116781781
1C
#116782276
0C
#116782721
1C
#116783216
0C
#116783656
1C
#116784151
0C
#116784591
1C
#116785086
0C
#116785526
1C
#116786776
0C
#116787196
1C
#116788441
0C
#116788856
1C
#116790106
0C
#116790501
1C
#116791771
0C
#116792186
1C
#116793436
0C
#116793831
1C
#116795106
0C
#116795496
1C
#116796771
0C
#116797186
1C
#116798436
0C
#116798851
1C
#116799376
0C
#116799791
1C
#116800311
0C
#116800726
1C
#116801246
0C
#116801661
1C
#116802186
0C
#116802601
1C
#116803121
0C
#116803536
1C
#116804056
0C
#116804471
1C
#116804996
0C
#116805406
1C
#116805931
0C
#116806346
1C
#116807596
0C
#116807986
1C
#116809261
0C
#116809676
1C
#116810926
0C
#116811341
1C
#116812596
0C
#116812986
1C
#116814261
0C
#116814651
1C
#116815901
0C
#116816316
1C
#116817571
0C
#116817981
1C
#116819231
0C
#116819646
1C
#116820196
0C
#116820611
1C
#116821131
0C
#116821521
1C
#116822066
0C
#116822456
1C
#116823006
0C
#116823396
1C
#116823941
0C
#116824331
1C
#116824876
0C
#116825296
1C
#116825816
0C
#116826206
1C
#116826751
0C
#116827171
1C
#116828391
0C
#116828836
1C
#116830056
0C
#116830506
1C
#116831721
0C
#116832171
1C
#116833386
0C
#116833836
1C
#116835051
0C
#116835501
1C
#116836721
0C
#116837171
1C
#116838386
0C
#116838836
1C
#116840051
0C
#116840501
1C
#116841016
0C
#116841441
1C
#116841951
0C
#116842381
1C
#116842891
0C
#116843316
1C
#116843826
0C
#116844251
1C
#116844761
0C
#116845211
1C
#116845701
0C
#116846151
1C
#116846636
0C
#116847061
1C
#116847571
0C
#116848021
1C
#116849211
0C
#116849691
1C
#116850876
0C
#116851331
1C
#116852546
0C
#116853016
1C
#116854206
0C
#116854686
1C
#116855876
0C
#116856351
1C
#116857541
0C
#116857991
1C
#116859206
0C
#116859656
1C
#116860871
0C
#116861321
1C
#116861836
0C
#116862256
1C
#116862751
0C
#116863191
1C
#116863686
0C
#116864131
1C
#116864621
0C
#116865066
1C
#116865561
0C
#116866006
1C
#116866496
0C
#116866941
1C
#116867436
0C
#116867876
1C
#116868371
0C
#116868816
1C
#116870036
0C
#116870481
1C
#116871696
0C
#116872146
1C
#116873366
0C
#116873811
1C
#116875031
0C
#116875471
1C
#116876696
0C
#116877141
1C
#116878361
0C
#116878806
1C
#116880026
0C
#116880471
1C
#116881696
0C
#116882141
1C
#116883361
0C
#116883806
1C
#116885026
0C
#116885471
1C
#116885966
0C
#116886411
1C
#116886901
0C
#116887346
1C
#116888566
0C
#116889011
1C
#116889506
0C
#116889946
1C
#116891171
0C
#116891611
1C
#116892106
0C
#116892551
1C
#116893046
0C
#116893486
1C
#116893981
0C
#116894426
1C
#116895651
0C
#116896091
1C
#116897316
0C
#116897756
1C
#116898251
0C
#116898691
1C
#116899916
0C
#116900356
1C
#116900851
0C
#116901291
1C
#116902521
0C
#116902961
1C
#116904186
0C
#116904626
1C
#116905121
0C
#116905561
1C
#116906061
0C
#116906501
1C
#116906996
0C
#116907436
1C
#116907931
0C
#116908371
1C
#116909601
0C
#116910041
1C
#116911266
0C
#116911706
1C
#116912931
0C
#116913371
1C
#116913866
0C
#116914306
1C
#116915536
0C
#116915971
1C
#116917201
0C
#116917641
1C
#116918866
0C
#116919306
1C
#116920531
0C
#116920971
1C
#116921471
0C
#116921911
1C
#116922406
0C
#116922846
1C
#116923346
0C
#116923781
1C
#116924281
0C
#116924721
1C
#116925216
0C
#116925656
1C
#116926156
0C
#116926591
1C
#116927091
0C
#116927531
1C
#116928026
0C
#116928466
1C
#116928966
0C
#116929401
1C
#116929901
0C
#116930341
1C
#116930836
0C
#116931276
1C
#116932501
0C
#116932941
1C
#116934166
0C
#116934606
1C
#116935836
0C
#116936276
1C
#116937501
0C
#116937941
1C
#116939166
0C
#116939606
1C
#116940831
0C
#116941271
1C
#116942501
0C
#116942936
1C
#116944166
0C
#116944606
1C
#116945101
0C
#116945541
1C
#116946041
0C
#116946481
1C
#116946976
0C
#116947416
1C
#116947916
0C
#116948356
1C
#116948851
0C
#116949291
1C
#116949786
0C
#116950226
1C
#116950726
0C
#116951161
1C
#116951661
0C
#116952101
1C
#116953326
0C
#116953766
1C
#116954996
0C
#116955406
1C
#116956661
0C
#116957071
1C
#116958326
0C
#116958736
1C
#116959991
0C
#116960401
1C
#116961656
0C
#116962066
1C
#116963321
0C
#116963731
1C
#116964991
0C
#116965401
1C
#116965926
0C
#116966336
1C
#116966866
0C
#116967276
1C
#116967801
0C
#116968211
1C
#116968736
0C
#116969146
1C
#116969676
0C
#116970086
1C
#116970611
0C
#116971021
1C
#116971551
0C
#116971961
1C
#116973216
0C
#116973626
1C
#116974881
0C
#116975291
1C
#116976546
0C
#116976956
1C
#116978211
0C
#116978621
1C
#116979881
0C
#116980286
1C
#116981547
0C
#116981951
1C
#116983231
0C
#116983616
1C
#116984896
0C
#116985286
1C
#116985811
0C
#116986221
1C
#116987501
0C
#116987886
1C
#116989166
0C
#116989551
1C
#116990081
0C
#116990492
1C
#116991021
0C
#116991426
1C
#116991956
0C
#116992361
1C
#116992891
0C
#116993301
1C
#116993832
0C
#116994236
1C
#116994766
0C
#116995171
1C
#116995701
0C
#116996111
1C
#116996637
0C
#116997046
1C
#116998326
0C
#116998711
1C
#116999991
0C
#117000377
1C
#117001662
0C
#117002047
1C
#117003326
0C
#117003711
1C
#117004992
0C
#117005377
1C
#117006662
0C
#117007047
1C
#117007597
0C
#117007981
1C
#117008537
0C
#117008922
1C
#117009472
0C
#117009856
1C
#117010412
0C
#117010797
1C
#117011347
0C
#117011732
1C
#117012282
0C
#117012667
1C
#117013222
0C
#117013607
1C
#117014156
0C
#117014541
1C
#117015821
0C
#117016207
1C
#117017486
0C
#117017871
1C
#117019152
0C
#117019537
1C
#117020821
0C
#117021202
1C
#117022482
0C
#117022867
1C
#117024152
0C
#117024532
1C
#117025817
0C
#117026202
1C
#117027482
0C
#117027867
1C
#117028421
0C
#117028802
1C
#117029357
0C
#117029742
1C
#117030292
0C
#117030677
1C
#117031232
0C
#117031612
1C
#117032167
0C
#117032552
1C
#117033107
0C
#117033487
1C
#117034042
0C
#117034427
1C
#117034981
0C
#117035361
1C
#117036647
0C
#117037027
1C
#117038312
0C
#117038692
1C
#117039977
0C
#117040361
1C
#117041641
0C
#117042027
1C
#117043312
0C
#117043692
1C
#117044977
0C
#117045357
1C
#117046642
0C
#117047022
1C
#117048307
0C
#117048687
1C
#117049247
0C
#117049627
1C
#117050182
0C
#117050562
1C
#117051117
0C
#117051497
1C
#117052057
0C
#117052437
1C
#117052992
0C
#117053372
1C
#117053932
0C
#117054312
1C
#117054867
0C
#117055247
1C
#117055807
0C
#117056187
1C
#117057472
0C
#117057852
1C
#117059137
0C
#117059517
1C
#117060802
0C
#117061182
1C
#117062467
0C
#117062847
1C
#117064137
0C
#117064512
1C
#117065802
0C
#117066182
1C
#117067467
0C
#117067847
1C
#117069137
0C
#117069512
1C
