data/16on.vcd
$date 2021-07-27 18:37:14 $end
$version piscope V1 $end
$timescale 1 us $end
$scope module top $end
$var wire 1 A 0 $end
$var wire 1 B 1 $end
$var wire 1 C 2 $end
$var wire 1 D 3 $end
$var wire 1 E 4 $end
$var wire 1 F 5 $end
$var wire 1 G 6 $end
$var wire 1 H 7 $end
$var wire 1 I 8 $end
$var wire 1 J 9 $end
$var wire 1 K 10 $end
$var wire 1 L 11 $end
$var wire 1 M 12 $end
$var wire 1 N 13 $end
$var wire 1 O 14 $end
$var wire 1 P 15 $end
$var wire 1 Q 16 $end
$var wire 1 R 17 $end
$var wire 1 S 18 $end
$var wire 1 T 19 $end
$var wire 1 U 20 $end
$var wire 1 V 21 $end
$var wire 1 W 22 $end
$var wire 1 X 23 $end
$var wire 1 Y 24 $end
$var wire 1 Z 25 $end
$var wire 1 a 26 $end
$var wire 1 b 27 $end
$var wire 1 c 28 $end
$var wire 1 d 29 $end
$var wire 1 e 30 $end
$var wire 1 f 31 $end
$upscope $end
$enddefinitions $end
#119441273
1A
1B
0C
1D
1E
1F
1G
1H
1I
0J
0K
0L
0M
0N
0O
1P
0Q
0R
0S
0T
0U
0V
0W
0X
0Y
0Z
0a
0b
1c
0d
0e
0f
#119444633
1C
#119446293
0C
#119446733
1C
#119447953
0C
#119448398
1C
#119448893
0C
#119449338
1C
#119449828
0C
#119450273
1C
#119450768
0C
#119451208
1C
#119451698
0C
#119452148
1C
#119452638
0C
#119453083
1C
#119453573
0C
#119454018
1C
#119454513
0C
#119454958
1C
#119455448
0C
#119455893
1C
#119456383
0C
#119456828
1C
#119457318
0C
#119457768
1C
#119458258
0C
#119458703
1C
#119459928
0C
#119460368
1C
#119460863
0C
#119461308
1C
#119461798
0C
#119462243
1C
#119462733
0C
#119463178
1C
#119463668
0C
#119464118
1C
#119464608
0C
#119465053
1C
#119465548
0C
#119465993
1C
#119466483
0C
#119466928
1C
#119467418
0C
#119467863
1C
#119468353
0C
#119468798
1C
#119469293
0C
#119469738
1C
#119470228
0C
#119470673
1C
#119471163
0C
#119471613
1C
#119472103
0C
#119472548
1C
#119473038
0C
#119473483
1C
#119473978
0C
#119474423
1C
#119474913
0C
#119475358
1C
#119475853
0C
#119476298
1C
#119477518
0C
#119477963
1C
#119478453
0C
#119478898
1C
#119480123
0C
#119480568
1C
#119481788
0C
#119482228
1C
#119483453
0C
#119483898
1C
#119485118
0C
#119485563
1C
#119486783
0C
#119487223
1C
#119488448
0C
#119488893
1C
#119489383
0C
#119489828
1C
#119491048
0C
#119491493
1C
#119492713
0C
#119493158
1C
#119494378
0C
#119494823
1C
#119496043
0C
#119496488
1C
#119497708
0C
#119498153
1C
#119499378
0C
#119499818
1C
#119501043
0C
#119501483
1C
#119502708
0C
#119503148
1C
#119504373
0C
#119504818
1C
#119505308
0C
#119505753
1C
#119506243
0C
#119506688
1C
#119507183
0C
#119507628
1C
#119508118
0C
#119508563
1C
#119509058
0C
#119509503
1C
#119509993
0C
#119510438
1C
#119510928
0C
#119511378
1C
#119511868
0C
#119512313
1C
#119512803
0C
#119513253
1C
#119513743
0C
#119514188
1C
#119515413
0C
#119515853
1C
#119517078
0C
#119517518
1C
#119518013
0C
#119518458
1C
#119518948
0C
#119519393
1C
#119520613
0C
#119521058
1C
#119522278
0C
#119522723
1C
#119523943
0C
#119524388
1C
#119525608
0C
#119526053
1C
#119526543
0C
#119526993
1C
#119527483
0C
#119527928
1C
#119529148
0C
#119529593
1C
#119530813
0C
#119531258
1C
#119531753
0C
#119532198
1C
#119532683
0C
#119533133
1C
#119533623
0C
#119534068
1C
#119535293
0C
#119535733
1C
#119536228
0C
#119536673
1C
#119537163
0C
#119537608
1C
#119538833
0C
#119539273
1C
#119539768
0C
#119540213
1C
#119540703
0C
#119541148
1C
#119542368
0C
#119542813
1C
#119544038
0C
#119544478
1C
#119544973
0C
#119545413
1C
#119546638
0C
#119547083
1C
#119548308
0C
#119548748
1C
#119549243
0C
#119549688
1C
#119550908
0C
#119551348
1C
#119552573
0C
#119553013
1C
#119553513
0C
#119553953
1C
#119555178
0C
#119555618
1C
#119556843
0C
#119557283
1C
#119557778
0C
#119558223
1C
#119558718
0C
#119559158
1C
#119560408
0C
#119560823
1C
#119561343
0C
#119561758
1C
#119562258
0C
#119562698
1C
#119563193
0C
#119563633
1C
#119564128
0C
#119564568
1C
#119565093
0C
#119565508
1C
#119566738
0C
#119567148
1C
#119568403
0C
#119568838
1C
#119569363
0C
#119569778
1C
#119571003
0C
#119571443
1C
#119572693
0C
#119573108
1C
#119574363
0C
#119574773
1C
#119575298
0C
#119575718
1C
#119576238
0C
#119576658
1C
#119577173
0C
#119577593
1C
#119578108
0C
#119578533
1C
#119579048
0C
#119579493
1C
#119579983
0C
#119580433
1C
#119581648
0C
#119582103
1C
#119582588
0C
#119583038
1C
#119584253
0C
#119584708
1C
#119585918
0C
#119586373
1C
#119587583
0C
#119588038
1C
#119589248
0C
#119589708
1C
#119590913
0C
#119591373
1C
#119592558
0C
#119593038
1C
#119593523
0C
#119593978
1C
#119595158
0C
#119595643
1C
#119596123
0C
#119596578
1C
#119597063
0C
#119597513
1C
#119597998
0C
#119598448
1C
#119598933
0C
#119599388
1C
#119599873
0C
#119600323
1C
#119600808
0C
#119601258
1C
#119601743
0C
#119602193
1C
#119602683
0C
#119603133
1C
#119604318
0C
#119604798
1C
#119605988
0C
#119606468
1C
#119607653
0C
#119608133
1C
#119609318
0C
#119609798
1C
#119610983
0C
#119611463
1C
#119612648
0C
#119613128
1C
#119614318
0C
#119614788
1C
#119615978
0C
#119616458
1C
#119616943
0C
#119617398
1C
#119617883
0C
#119618333
1C
#119618818
0C
#119619268
1C
#119619758
0C
#119620208
1C
#119620693
0C
#119621143
1C
#119621633
0C
#119622078
1C
#119622568
0C
#119622983
1C
#119623503
0C
#119623953
1C
#119625143
0C
#119625623
1C
#119626813
0C
#119627288
1C
#119628473
0C
#119628953
1C
#119630143
0C
#119630618
1C
#119631808
0C
#119632283
1C
#119633473
0C
#119633948
1C
#119635138
0C
#119635613
1C
#119636803
0C
#119637283
1C
#119637768
0C
#119638218
1C
#119638708
0C
#119639158
1C
#119639643
0C
#119640088
1C
#119640578
0C
#119641028
1C
#119641518
0C
#119641963
1C
#119642453
0C
#119642898
1C
#119643393
0C
#119643838
1C
#119644328
0C
#119644773
1C
#119645968
0C
#119646443
1C
#119647633
0C
#119648103
1C
#119649298
0C
#119649768
1C
#119650963
0C
#119651433
1C
#119652633
0C
#119653103
1C
#119654298
0C
#119654743
1C
#119655963
0C
#119656408
1C
#119657628
0C
#119658073
1C
#119658593
0C
#119659008
1C
#119659528
0C
#119659943
1C
#119660463
0C
#119660878
1C
#119661403
0C
#119661818
1C
#119662343
0C
#119662758
1C
#119663278
0C
#119663693
1C
#119664213
0C
#119664628
1C
#119665153
0C
#119665568
1C
#119666788
0C
#119667233
1C
#119668458
0C
#119668898
1C
#119670123
0C
#119670563
1C
#119671788
0C
#119672228
1C
#119673459
0C
#119673893
1C
#119675123
0C
#119675563
1C
#119676788
0C
#119677228
1C
#119678453
0C
#119678893
1C
#119679393
0C
#119679833
1C
#119680328
0C
#119680768
1C
#119681268
0C
#119681703
1C
#119682203
0C
#119682643
1C
#119683138
0C
#119683578
1C
#119684078
0C
#119684518
1C
#119685013
0C
#119685453
1C
#119685953
0C
#119686388
1C
#119687613
0C
#119688053
1C
#119689283
0C
#119689723
1C
#119690948
0C
#119691388
1C
#119692613
0C
#119693053
1C
#119694278
0C
#119694718
1C
#119695948
0C
#119696388
1C
#119697613
0C
#119698053
1C
#119699278
0C
#119699718
1C
#119700948
0C
#119701383
1C
#119702613
0C
#119703048
1C
#119703548
0C
#119703988
1C
#119704488
0C
#119704923
1C
#119706153
0C
#119706593
1C
#119707093
0C
#119707503
1C
#119708758
0C
#119709193
1C
#119709693
0C
#119710133
1C
#119710628
0C
#119711063
1C
#119711568
0C
#119712003
1C
#119713233
0C
#119713668
1C
#119714898
0C
#119715338
1C
#119715838
0C
#119716273
1C
#119717503
0C
#119717938
1C
#119718438
0C
#119718873
1C
#119720103
0C
#119720518
1C
#119721768
0C
#119722208
1C
#119722708
0C
#119723143
1C
#119723643
0C
#119724058
1C
#119724583
0C
#119724993
1C
#119726248
0C
#119726658
1C
#119727913
0C
#119728353
1C
#119729578
0C
#119729993
1C
#119731248
0C
#119731683
1C
#119732183
0C
#119732593
1C
#119733848
0C
#119734288
1C
#119735518
0C
#119735953
1C
#119737183
0C
#119737618
1C
#119738118
0C
#119738553
1C
#119739058
0C
#119739493
1C
#119739993
0C
#119740428
1C
#119740928
0C
#119741343
1C
#119741868
0C
#119742303
1C
#119742803
0C
#119743238
1C
#119743738
0C
#119744178
1C
#119744678
0C
#119745103
1C
#119745613
0C
#119746023
1C
#119746553
0C
#119746963
1C
#119747488
0C
#119747923
1C
#119748428
0C
#119748838
1C
#119750093
0C
#119750498
1C
#119751758
0C
#119752168
1C
#119753423
0C
#119753833
1C
#119755093
0C
#119755503
1C
#119756758
0C
#119757163
1C
#119758423
0C
#119758833
1C
#119760088
0C
#119760498
1C
#119761759
0C
#119762163
1C
#119762698
0C
#119763103
1C
#119763653
0C
#119764038
1C
#119764593
0C
#119764979
1C
#119765508
0C
#119765913
1C
#119766468
0C
#119766853
1C
#119767403
0C
#119767789
1C
#119768343
0C
#119768723
1C
#119769279
0C
#119769658
1C
#119770944
0C
#119771328
1C
#119772614
0C
#119772994
1C
#119774279
0C
#119774658
1C
#119775944
0C
#119776323
1C
#119777613
0C
#119777993
1C
#119779278
0C
#119779658
1C
#119780943
0C
#119781323
1C
#119782609
0C
#119782989
1C
#119783549
0C
#119783928
1C
#119784484
0C
#119784864
1C
#119785423
0C
#119785803
1C
#119786359
0C
#119786739
1C
#119787299
0C
#119787674
1C
#119788234
0C
#119788614
1C
#119789174
0C
#119789549
1C
#119790839
0C
#119791219
1C
#119792509
0C
#119792884
1C
#119794169
0C
#119794549
1C
#119795839
0C
#119796214
1C
#119797504
0C
#119797879
1C
#119799169
0C
#119799549
1C
#119800834
0C
#119801214
1C
#119802499
0C
#119802879
1C
#119803439
0C
#119803814
1C
#119805104
0C
#119805479
1C
#119806769
0C
#119807149
1C
#119807709
0C
#119808084
1C
#119808644
0C
#119809024
1C
#119809579
0C
#119809959
1C
#119810519
0C
#119810894
1C
#119811454
0C
#119811834
1C
#119812394
0C
#119812769
1C
#119813329
0C
#119813709
1C
#119814269
0C
#119814644
1C
#119815934
0C
#119816309
1C
#119817599
0C
#119817979
1C
#119819264
0C
#119819644
1C
#119820929
0C
#119821309
1C
#119822594
0C
#119822974
1C
#119824264
0C
#119824639
1C
#119825199
0C
#119825579
1C
#119826139
0C
#119826514
1C
#119827074
0C
#119827454
1C
#119828009
0C
#119828389
1C
#119828949
0C
#119829324
1C
#119829884
0C
#119830264
1C
#119830819
0C
#119831199
1C
#119831759
0C
#119832134
1C
#119833424
0C
#119833804
1C
#119835089
0C
#119835469
1C
#119836754
0C
#119837134
1C
#119838419
0C
#119838799
1C
#119840089
0C
#119840464
1C
#119841754
0C
#119842134
1C
#119843419
0C
#119843799
1C
#119845084
0C
#119845464
1C
#119846024
0C
#119846399
1C
#119846959
0C
#119847339
1C
#119847899
0C
#119848274
1C
#119848834
0C
#119849214
1C
#119849769
0C
#119850149
1C
#119850709
0C
#119851084
1C
#119851644
0C
#119852024
1C
#119852584
0C
#119852959
1C
#119854249
0C
#119854629
1C
#119855914
0C
#119856289
1C
#119857579
0C
#119857959
1C
#119859249
0C
#119859624
1C
#119860914
0C
#119861289
1C
#119862579
0C
#119862954
1C
#119864249
0C
#119864624
1C
#119865914
0C
#119866289
1C
#119866849
0C
#119867224
1C
#119867789
0C
#119868164
1C
#119868724
0C
#119869099
1C
#119869664
0C
#119870039
1C
#119870599
0C
#119870974
1C
#119871539
0C
#119871914
1C
#119872474
0C
#119872849
1C
#119873434
0C
#119873789
1C
#119875099
0C
#119875454
1C
#119876769
0C
#119877119
1C
#119878434
0C
#119878784
1C
#119880099
0C
#119880449
1C
#119881764
0C
#119882089
1C
#119883429
0C
#119883759
1C
#119885099
0C
#119885419
1C
#119886764
0C
#119887089
1C
