data/17.vcd
$date 2021-07-27 16:57:07 $end
$version piscope V1 $end
$timescale 1 us $end
$scope module top $end
$var wire 1 A 0 $end
$var wire 1 B 1 $end
$var wire 1 C 2 $end
$var wire 1 D 3 $end
$var wire 1 E 4 $end
$var wire 1 F 5 $end
$var wire 1 G 6 $end
$var wire 1 H 7 $end
$var wire 1 I 8 $end
$var wire 1 J 9 $end
$var wire 1 K 10 $end
$var wire 1 L 11 $end
$var wire 1 M 12 $end
$var wire 1 N 13 $end
$var wire 1 O 14 $end
$var wire 1 P 15 $end
$var wire 1 Q 16 $end
$var wire 1 R 17 $end
$var wire 1 S 18 $end
$var wire 1 T 19 $end
$var wire 1 U 20 $end
$var wire 1 V 21 $end
$var wire 1 W 22 $end
$var wire 1 X 23 $end
$var wire 1 Y 24 $end
$var wire 1 Z 25 $end
$var wire 1 a 26 $end
$var wire 1 b 27 $end
$var wire 1 c 28 $end
$var wire 1 d 29 $end
$var wire 1 e 30 $end
$var wire 1 f 31 $end
$upscope $end
$enddefinitions $end
#2995788903
1A
1B
0C
1D
1E
1F
1G
1H
1I
0J
0K
0L
0M
0N
0O
1P
0Q
0R
0S
0T
0U
0V
0W
0X
0Y
0Z
0a
0b
1c
0d
0e
0f
#2995792258
1C
#2995793918
0C
#2995794358
1C
#2995795583
0C
#2995795998
1C
#2995796518
0C
#2995796958
1C
#2995797458
0C
#2995797898
1C
#2995798393
0C
#2995798808
1C
#2995799328
0C
#2995799743
1C
#2995800268
0C
#2995800708
1C
#2995801203
0C
#2995801643
1C
#2995802138
0C
#2995802578
1C
#2995803078
0C
#2995803513
1C
#2995804013
0C
#2995804428
1C
#2995804948
0C
#2995805388
1C
#2995805888
0C
#2995806328
1C
#2995807553
0C
#2995807993
1C
#2995808488
0C
#2995808928
1C
#2995809423
0C
#2995809863
1C
#2995810363
0C
#2995810803
1C
#2995811298
0C
#2995811713
1C
#2995812233
0C
#2995812673
1C
#2995813168
0C
#2995813608
1C
#2995814108
0C
#2995814548
1C
#2995815043
0C
#2995815483
1C
#2995815978
0C
#2995816418
1C
#2995816918
0C
#2995817358
1C
#2995817853
0C
#2995818293
1C
#2995818788
0C
#2995819228
1C
#2995819728
0C
#2995820148
1C
#2995820663
0C
#2995821078
1C
#2995821598
0C
#2995822038
1C
#2995822538
0C
#2995822978
1C
#2995823473
0C
#2995823913
1C
#2995825138
0C
#2995825553
1C
#2995826073
0C
#2995826513
1C
#2995827743
0C
#2995828153
1C
#2995829403
0C
#2995829818
1C
#2995831073
0C
#2995831483
1C
#2995832738
0C
#2995833148
1C
#2995834398
0C
#2995834838
1C
#2995836068
0C
#2995836508
1C
#2995836998
0C
#2995837443
1C
#2995838668
0C
#2995839108
1C
#2995840333
0C
#2995840748
1C
#2995841998
0C
#2995842413
1C
#2995843663
0C
#2995844103
1C
#2995845328
0C
#2995845743
1C
#2995846993
0C
#2995847408
1C
#2995848658
0C
#2995849098
1C
#2995850318
0C
#2995850748
1C
#2995851988
0C
#2995852398
1C
#2995852923
0C
#2995853363
1C
#2995853858
0C
#2995854298
1C
#2995854793
0C
#2995855233
1C
#2995855733
0C
#2995856173
1C
#2995856668
0C
#2995857083
1C
#2995857603
0C
#2995858043
1C
#2995858543
0C
#2995858983
1C
#2995859478
0C
#2995859918
1C
#2995860413
0C
#2995860858
1C
#2995861353
0C
#2995861793
1C
#2995863018
0C
#2995863433
1C
#2995864683
0C
#2995865098
1C
#2995865618
0C
#2995866058
1C
#2995866558
0C
#2995866993
1C
#2995868223
0C
#2995868663
1C
#2995869888
0C
#2995870298
1C
#2995871553
0C
#2995871983
1C
#2995873218
0C
#2995873658
1C
#2995874153
0C
#2995874593
1C
#2995875088
0C
#2995875533
1C
#2995876758
0C
#2995877173
1C
#2995878423
0C
#2995878863
1C
#2995879358
0C
#2995879798
1C
#2995880293
0C
#2995880733
1C
#2995881233
0C
#2995881673
1C
#2995882898
0C
#2995883313
1C
#2995883833
0C
#2995884273
1C
#2995884773
0C
#2995885213
1C
#2995886438
0C
#2995886878
1C
#2995887373
0C
#2995887813
1C
#2995888308
0C
#2995888748
1C
#2995889978
0C
#2995890418
1C
#2995891643
0C
#2995892083
1C
#2995892578
0C
#2995893018
1C
#2995894243
0C
#2995894658
1C
#2995895908
0C
#2995896348
1C
#2995896843
0C
#2995897283
1C
#2995898508
0C
#2995898923
1C
#2995900173
0C
#2995900608
1C
#2995901108
0C
#2995901553
1C
#2995902778
0C
#2995903188
1C
#2995904443
0C
#2995904853
1C
#2995905378
0C
#2995905818
1C
#2995906313
0C
#2995906728
1C
#2995907978
0C
#2995908393
1C
#2995908913
0C
#2995909353
1C
#2995909853
0C
#2995910293
1C
#2995910788
0C
#2995911228
1C
#2995911723
0C
#2995912168
1C
#2995912663
0C
#2995913078
1C
#2995914333
0C
#2995914768
1C
#2995915998
0C
#2995916408
1C
#2995916933
0C
#2995917373
1C
#2995918598
0C
#2995919018
1C
#2995920268
0C
#2995920678
1C
#2995921953
0C
#2995922343
1C
#2995922863
0C
#2995923278
1C
#2995923803
0C
#2995924218
1C
#2995925468
0C
#2995925898
1C
#2995926403
0C
#2995926843
1C
#2995927338
0C
#2995927778
1C
#2995928278
0C
#2995928718
1C
#2995929943
0C
#2995930378
1C
#2995930878
0C
#2995931313
1C
#2995932568
0C
#2995932958
1C
#2995934233
0C
#2995934623
1C
#2995935143
0C
#2995935583
1C
#2995936833
0C
#2995937223
1C
#2995938498
0C
#2995938913
1C
#2995940163
0C
#2995940578
1C
#2995941078
0C
#2995941518
1C
#2995942768
0C
#2995943158
1C
#2995943678
0C
#2995944118
1C
#2995944613
0C
#2995945053
1C
#2995945553
0C
#2995945993
1C
#2995946488
0C
#2995946913
1C
#2995947428
0C
#2995947863
1C
#2995948358
0C
#2995948803
1C
#2995949298
0C
#2995949738
1C
#2995950233
0C
#2995950678
1C
#2995951923
0C
#2995952338
1C
#2995953593
0C
#2995953978
1C
#2995955253
0C
#2995955643
1C
#2995956923
0C
#2995957338
1C
#2995958588
0C
#2995958973
1C
#2995960253
0C
#2995960668
1C
#2995961918
0C
#2995962333
1C
#2995963583
0C
#2995963988
1C
#2995964493
0C
#2995964933
1C
#2995965428
0C
#2995965873
1C
#2995966368
0C
#2995966808
1C
#2995967303
0C
#2995967743
1C
#2995968238
0C
#2995968678
1C
#2995969178
0C
#2995969618
1C
#2995970113
0C
#2995970553
1C
#2995971048
0C
#2995971493
1C
#2995972738
0C
#2995973158
1C
#2995974408
0C
#2995974823
1C
#2995976068
0C
#2995976483
1C
#2995977738
0C
#2995978153
1C
#2995979403
0C
#2995979803
1C
#2995981068
0C
#2995981483
1C
#2995982733
0C
#2995983148
1C
#2995984398
0C
#2995984793
1C
#2995985313
0C
#2995985758
1C
#2995986248
0C
#2995986688
1C
#2995987183
0C
#2995987628
1C
#2995988123
0C
#2995988563
1C
#2995989058
0C
#2995989503
1C
#2995989998
0C
#2995990438
1C
#2995990933
0C
#2995991373
1C
#2995991868
0C
#2995992313
1C
#2995993558
0C
#2995993948
1C
#2995995223
0C
#2995995643
1C
#2995996893
0C
#2995997283
1C
#2995998558
0C
#2995998973
1C
#2996000223
0C
#2996000613
1C
#2996001888
0C
#2996002303
1C
#2996003553
0C
#2996003973
1C
#2996005218
0C
#2996005633
1C
#2996006133
0C
#2996006573
1C
#2996007073
0C
#2996007508
1C
#2996008008
0C
#2996008423
1C
#2996008968
0C
#2996009358
1C
#2996009883
0C
#2996010318
1C
#2996010843
0C
#2996011258
1C
#2996011778
0C
#2996012193
1C
#2996012713
0C
#2996013128
1C
#2996014378
0C
#2996014768
1C
#2996016043
0C
#2996016438
1C
#2996017708
0C
#2996018128
1C
#2996019373
0C
#2996019788
1C
#2996021038
0C
#2996021458
1C
#2996022703
0C
#2996023123
1C
#2996024368
0C
#2996024788
1C
#2996026038
0C
#2996026454
1C
#2996026973
0C
#2996027393
1C
#2996027913
0C
#2996028328
1C
#2996028848
0C
#2996029263
1C
#2996029788
0C
#2996030198
1C
#2996030723
0C
#2996031113
1C
#2996031658
0C
#2996032073
1C
#2996032598
0C
#2996032988
1C
#2996033533
0C
#2996033948
1C
#2996035198
0C
#2996035613
1C
#2996036863
0C
#2996037278
1C
#2996038528
0C
#2996038943
1C
#2996040193
0C
#2996040583
1C
#2996041858
0C
#2996042248
1C
#2996043503
0C
#2996043913
1C
#2996045188
0C
#2996045578
1C
#2996046833
0C
#2996047248
1C
#2996048498
0C
#2996048913
1C
#2996050163
0C
#2996050578
1C
#2996051128
0C
#2996051518
1C
#2996052063
0C
#2996052453
1C
#2996053703
0C
#2996054118
1C
#2996054663
0C
#2996055058
1C
#2996056308
0C
#2996056723
1C
#2996057268
0C
#2996057658
1C
#2996058208
0C
#2996058623
1C
#2996059143
0C
#2996059533
1C
#2996060783
0C
#2996061223
1C
#2996062448
0C
#2996062888
1C
#2996063408
0C
#2996063828
1C
#2996065048
0C
#2996065468
1C
#2996066013
0C
#2996066433
1C
#2996067653
0C
#2996068098
1C
#2996069318
0C
#2996069763
1C
#2996070278
0C
#2996070703
1C
#2996071218
0C
#2996071638
1C
#2996072153
0C
#2996072578
1C
#2996073793
0C
#2996074238
1C
#2996075458
0C
#2996075908
1C
#2996077123
0C
#2996077573
1C
#2996078788
0C
#2996079238
1C
#2996079753
0C
#2996080178
1C
#2996081393
0C
#2996081843
1C
#2996083058
0C
#2996083508
1C
#2996084728
0C
#2996085173
1C
#2996085663
0C
#2996086113
1C
#2996086603
0C
#2996087048
1C
#2996087538
0C
#2996087983
1C
#2996088473
0C
#2996088918
1C
#2996089408
0C
#2996089858
1C
#2996090348
0C
#2996090793
1C
#2996091283
0C
#2996091728
1C
#2996092218
0C
#2996092664
1C
#2996093158
0C
#2996093603
1C
#2996094093
0C
#2996094538
1C
#2996095033
0C
#2996095478
1C
#2996095968
0C
#2996096413
1C
#2996097633
0C
#2996098078
1C
#2996099298
0C
#2996099743
1C
#2996100963
0C
#2996101403
1C
#2996102628
0C
#2996103073
1C
#2996104293
0C
#2996104739
1C
#2996105958
0C
#2996106403
1C
#2996107624
0C
#2996108069
1C
#2996109288
0C
#2996109728
1C
#2996110223
0C
#2996110668
1C
#2996111163
0C
#2996111603
1C
#2996112098
0C
#2996112538
1C
#2996113033
0C
#2996113478
1C
#2996113973
0C
#2996114413
1C
#2996114908
0C
#2996115353
1C
#2996115848
0C
#2996116288
1C
#2996116783
0C
#2996117223
1C
#2996118448
0C
#2996118888
1C
#2996120114
0C
#2996120553
1C
#2996121783
0C
#2996122218
1C
#2996123448
0C
#2996123883
1C
#2996125113
0C
#2996125548
1C
#2996126778
0C
#2996127218
1C
#2996128444
0C
#2996128883
1C
#2996130108
0C
#2996130548
1C
#2996131048
0C
#2996131483
1C
#2996131983
0C
#2996132424
1C
#2996132923
0C
#2996133358
1C
#2996133858
0C
#2996134298
1C
#2996134793
0C
#2996135234
1C
#2996135734
0C
#2996136173
1C
#2996136668
0C
#2996137108
1C
#2996138333
0C
#2996138774
1C
#2996139999
0C
#2996140438
1C
#2996141664
0C
#2996142103
1C
#2996143333
0C
#2996143768
1C
#2996144999
0C
#2996145439
1C
#2996146663
0C
#2996147098
1C
#2996148328
0C
#2996148764
1C
#2996149993
0C
#2996150429
1C
#2996150929
0C
#2996151369
1C
#2996152594
0C
#2996153029
1C
#2996154258
0C
#2996154693
1C
#2996155193
0C
#2996155628
1C
#2996156134
0C
#2996156569
1C
#2996157069
0C
#2996157479
1C
#2996158003
0C
#2996158413
1C
#2996158944
0C
#2996159354
1C
#2996159879
0C
#2996160289
1C
#2996160813
0C
#2996161223
1C
#2996161753
0C
#2996162163
1C
#2996163418
0C
#2996163829
1C
#2996165083
0C
#2996165494
1C
#2996166749
0C
#2996167158
1C
#2996168414
0C
#2996168824
1C
#2996170079
0C
#2996170489
1C
#2996171744
0C
#2996172149
1C
#2996172679
0C
#2996173089
1C
#2996173614
0C
#2996174024
1C
#2996174554
0C
#2996174964
1C
#2996175489
0C
#2996175899
1C
#2996176424
0C
#2996176834
1C
#2996177364
0C
#2996177774
1C
#2996178299
0C
#2996178709
1C
#2996179239
0C
#2996179649
1C
#2996180904
0C
#2996181314
1C
#2996182569
0C
#2996182979
1C
#2996184239
0C
#2996184644
1C
#2996185899
0C
#2996186309
1C
#2996187569
0C
#2996187974
1C
#2996189234
0C
#2996189639
1C
#2996190899
0C
#2996191309
1C
#2996192564
0C
#2996192974
1C
#2996193499
0C
#2996193909
1C
#2996194434
0C
#2996194844
1C
#2996195374
0C
#2996195784
1C
#2996196309
0C
#2996196719
1C
#2996197249
0C
#2996197654
1C
#2996198184
0C
#2996198594
1C
#2996199119
0C
#2996199529
1C
#2996200059
0C
#2996200464
1C
#2996201744
0C
#2996202129
1C
#2996203409
0C
#2996203794
1C
#2996205074
0C
#2996205464
1C
#2996206739
0C
#2996207124
1C
#2996208409
0C
#2996208794
1C
#2996210074
0C
#2996210459
1C
#2996211739
0C
#2996212124
1C
#2996213404
0C
#2996213789
1C
#2996214319
0C
#2996214724
1C
#2996215259
0C
#2996215664
1C
#2996216194
0C
#2996216599
1C
#2996217129
0C
#2996217534
1C
#2996218069
0C
#2996218474
1C
#2996219004
0C
#2996219409
1C
#2996219944
0C
#2996220349
1C
#2996220879
0C
#2996221284
1C
#2996222564
0C
#2996222949
1C
#2996224229
0C
#2996224614
1C
#2996225894
0C
#2996226279
1C
#2996227559
0C
#2996227944
1C
#2996229224
0C
#2996229609
1C
#2996230889
0C
#2996231274
1C
#2996232554
0C
#2996232939
1C
#2996234224
0C
#2996234604
1C
