data/20off.vcd
$date 2021-07-27 16:57:07 $end
$version piscope V1 $end
$timescale 1 us $end
$scope module top $end
$var wire 1 A 0 $end
$var wire 1 B 1 $end
$var wire 1 C 2 $end
$var wire 1 D 3 $end
$var wire 1 E 4 $end
$var wire 1 F 5 $end
$var wire 1 G 6 $end
$var wire 1 H 7 $end
$var wire 1 I 8 $end
$var wire 1 J 9 $end
$var wire 1 K 10 $end
$var wire 1 L 11 $end
$var wire 1 M 12 $end
$var wire 1 N 13 $end
$var wire 1 O 14 $end
$var wire 1 P 15 $end
$var wire 1 Q 16 $end
$var wire 1 R 17 $end
$var wire 1 S 18 $end
$var wire 1 T 19 $end
$var wire 1 U 20 $end
$var wire 1 V 21 $end
$var wire 1 W 22 $end
$var wire 1 X 23 $end
$var wire 1 Y 24 $end
$var wire 1 Z 25 $end
$var wire 1 a 26 $end
$var wire 1 b 27 $end
$var wire 1 c 28 $end
$var wire 1 d 29 $end
$var wire 1 e 30 $end
$var wire 1 f 31 $end
$upscope $end
$enddefinitions $end
#5142790461
1A
1B
0C
1D
1E
1F
1G
1H
1I
0J
0K
0L
0M
0N
0O
1P
0Q
0R
0S
0T
0U
0V
0W
0X
0Y
0Z
0a
0b
1c
0d
0e
0f
#5142793821
1C
#5142795481
0C
#5142795916
1C
#5142797167
0C
#5142797557
1C
#5142798076
0C
#5142798521
1C
#5142799016
0C
#5142799457
1C
#5142799952
0C
#5142800396
1C
#5142800886
0C
#5142801331
1C
#5142801826
0C
#5142802266
1C
#5142802762
0C
#5142803206
1C
#5142803696
0C
#5142804136
1C
#5142804636
0C
#5142805076
1C
#5142805572
0C
#5142806012
1C
#5142806506
0C
#5142806947
1C
#5142807441
0C
#5142807886
1C
#5142809111
0C
#5142809547
1C
#5142810042
0C
#5142810487
1C
#5142810982
0C
#5142811422
1C
#5142811917
0C
#5142812361
1C
#5142812857
0C
#5142813302
1C
#5142813792
0C
#5142814237
1C
#5142814732
0C
#5142815172
1C
#5142815667
0C
#5142816112
1C
#5142816602
0C
#5142817047
1C
#5142817542
0C
#5142817982
1C
#5142818477
0C
#5142818917
1C
#5142819417
0C
#5142819862
1C
#5142820352
0C
#5142820797
1C
#5142821287
0C
#5142821732
1C
#5142822227
0C
#5142822667
1C
#5142823162
0C
#5142823607
1C
#5142824097
0C
#5142824542
1C
#5142825037
0C
#5142825477
1C
#5142826707
0C
#5142827142
1C
#5142827637
0C
#5142828077
1C
#5142829327
0C
#5142829717
1C
#5142830972
0C
#5142831407
1C
#5142832637
0C
#5142833072
1C
#5142834302
0C
#5142834737
1C
#5142835967
0C
#5142836377
1C
#5142837632
0C
#5142838042
1C
#5142838567
0C
#5142839007
1C
#5142840252
0C
#5142840672
1C
#5142841897
0C
#5142842307
1C
#5142843582
0C
#5142843972
1C
#5142845227
0C
#5142845662
1C
#5142846892
0C
#5142847302
1C
#5142848557
0C
#5142848972
1C
#5142850247
0C
#5142850632
1C
#5142851912
0C
#5142852327
1C
#5142853567
0C
#5142853992
1C
#5142854487
0C
#5142854932
1C
#5142855422
0C
#5142855867
1C
#5142856362
0C
#5142856802
1C
#5142857297
0C
#5142857742
1C
#5142858232
0C
#5142858677
1C
#5142859172
0C
#5142859612
1C
#5142860107
0C
#5142860552
1C
#5142861042
0C
#5142861487
1C
#5142861982
0C
#5142862422
1C
#5142862917
0C
#5142863362
1C
#5142864587
0C
#5142864997
1C
#5142866252
0C
#5142866662
1C
#5142867187
0C
#5142867627
1C
#5142868122
0C
#5142868567
1C
#5142869812
0C
#5142870202
1C
#5142871457
0C
#5142871897
1C
#5142873147
0C
#5142873532
1C
#5142874787
0C
#5142875227
1C
#5142875722
0C
#5142876162
1C
#5142876657
0C
#5142877102
1C
#5142878327
0C
#5142878762
1C
#5142879992
0C
#5142880432
1C
#5142880897
0C
#5142881367
1C
#5142881862
0C
#5142882307
1C
#5142882802
0C
#5142883242
1C
#5142884492
0C
#5142884882
1C
#5142885402
0C
#5142885847
1C
#5142886342
0C
#5142886782
1C
#5142888012
0C
#5142888422
1C
#5142888942
0C
#5142889387
1C
#5142889882
0C
#5142890327
1C
#5142891572
0C
#5142891992
1C
#5142893237
0C
#5142893657
1C
#5142894147
0C
#5142894592
1C
#5142895842
0C
#5142896232
1C
#5142897507
0C
#5142897922
1C
#5142898417
0C
#5142898862
1C
#5142900112
0C
#5142900527
1C
#5142901757
0C
#5142902192
1C
#5142902687
0C
#5142903132
1C
#5142904382
0C
#5142904772
1C
#5142906047
0C
#5142906462
1C
#5142906957
0C
#5142907402
1C
#5142907897
0C
#5142908337
1C
#5142909582
0C
#5142910002
1C
#5142910497
0C
#5142910942
1C
#5142911432
0C
#5142911877
1C
#5142912372
0C
#5142912812
1C
#5142913307
0C
#5142913752
1C
#5142914247
0C
#5142914687
1C
#5142915937
0C
#5142916352
1C
#5142917602
0C
#5142918017
1C
#5142918517
0C
#5142918957
1C
#5142920202
0C
#5142920622
1C
#5142921867
0C
#5142922262
1C
#5142923532
0C
#5142923952
1C
#5142924447
0C
#5142924892
1C
#5142925387
0C
#5142925827
1C
#5142926322
0C
#5142926762
1C
#5142927262
0C
#5142927702
1C
#5142928947
0C
#5142929342
1C
#5142929862
0C
#5142930302
1C
#5142931552
0C
#5142931967
1C
#5142932467
0C
#5142932907
1C
#5142934152
0C
#5142934572
1C
#5142935817
0C
#5142936237
1C
#5142937482
0C
#5142937902
1C
#5142939152
0C
#5142939567
1C
#5142940092
0C
#5142940507
1C
#5142941752
0C
#5142942147
1C
#5142942692
0C
#5142943107
1C
#5142944357
0C
#5142944772
1C
#5142945292
0C
#5142945707
1C
#5142946232
0C
#5142946622
1C
#5142947167
0C
#5142947557
1C
#5142948107
0C
#5142948522
1C
#5142949042
0C
#5142949432
1C
#5142949977
0C
#5142950392
1C
#5142950917
0C
#5142951327
1C
#5142951852
0C
#5142952242
1C
#5142953517
0C
#5142953907
1C
#5142955182
0C
#5142955597
1C
#5142956847
0C
#5142957262
1C
#5142958512
0C
#5142958927
1C
#5142960177
0C
#5142960567
1C
#5142961842
0C
#5142962232
1C
#5142963507
0C
#5142963897
1C
#5142965152
0C
#5142965587
1C
#5142966112
0C
#5142966502
1C
#5142967052
0C
#5142967437
1C
#5142967987
0C
#5142968402
1C
#5142968922
0C
#5142969337
1C
#5142969862
0C
#5142970252
1C
#5142970797
0C
#5142971237
1C
#5142971737
0C
#5142972122
1C
#5142972672
0C
#5142973062
1C
#5142974312
0C
#5142974722
1C
#5142975977
0C
#5142976392
1C
#5142977642
0C
#5142978057
1C
#5142979307
0C
#5142979722
1C
#5142980972
0C
#5142981387
1C
#5142982637
0C
#5142983052
1C
#5142984302
0C
#5142984717
1C
#5142985967
0C
#5142986382
1C
#5142986932
0C
#5142987322
1C
#5142987867
0C
#5142988262
1C
#5142988807
0C
#5142989197
1C
#5142989742
0C
#5142990157
1C
#5142990677
0C
#5142991097
1C
#5142991617
0C
#5142992007
1C
#5142992552
0C
#5142992972
1C
#5142993492
0C
#5142993882
1C
#5142995127
0C
#5142995572
1C
#5142996792
0C
#5142997237
1C
#5142998457
0C
#5142998902
1C
#5143000127
0C
#5143000572
1C
#5143001792
0C
#5143002232
1C
#5143003457
0C
#5143003902
1C
#5143005122
0C
#5143005567
1C
#5143006787
0C
#5143007232
1C
#5143007727
0C
#5143008172
1C
#5143008662
0C
#5143009112
1C
#5143009602
0C
#5143010047
1C
#5143010537
0C
#5143010982
1C
#5143011472
0C
#5143011922
1C
#5143012412
0C
#5143012857
1C
#5143013347
0C
#5143013792
1C
#5143014287
0C
#5143014732
1C
#5143015947
0C
#5143016397
1C
#5143017612
0C
#5143018057
1C
#5143019282
0C
#5143019752
1C
#5143020947
0C
#5143021392
1C
#5143022612
0C
#5143023057
1C
#5143024277
0C
#5143024717
1C
#5143025937
0C
#5143026382
1C
#5143027607
0C
#5143028052
1C
#5143028542
0C
#5143028987
1C
#5143029482
0C
#5143029922
1C
#5143030417
0C
#5143030862
1C
#5143031352
0C
#5143031797
1C
#5143032292
0C
#5143032732
1C
#5143033227
0C
#5143033672
1C
#5143034162
0C
#5143034607
1C
#5143035102
0C
#5143035542
1C
#5143036767
0C
#5143037212
1C
#5143038432
0C
#5143038872
1C
#5143040097
0C
#5143040542
1C
#5143041762
0C
#5143042207
1C
#5143043432
0C
#5143043872
1C
#5143045097
0C
#5143045537
1C
#5143046762
0C
#5143047202
1C
#5143048427
0C
#5143048867
1C
#5143050092
0C
#5143050532
1C
#5143051757
0C
#5143052197
1C
#5143052697
0C
#5143053137
1C
#5143053632
0C
#5143054072
1C
#5143055302
0C
#5143055737
1C
#5143056237
0C
#5143056672
1C
#5143057902
0C
#5143058342
1C
#5143058837
0C
#5143059277
1C
#5143059777
0C
#5143060212
1C
#5143060712
0C
#5143061152
1C
#5143062377
0C
#5143062817
1C
#5143064042
0C
#5143064482
1C
#5143064982
0C
#5143065417
1C
#5143066647
0C
#5143067082
1C
#5143067582
0C
#5143068017
1C
#5143069247
0C
#5143069687
1C
#5143070912
0C
#5143071352
1C
#5143071852
0C
#5143072287
1C
#5143072787
0C
#5143073227
1C
#5143073722
0C
#5143074162
1C
#5143074662
0C
#5143075097
1C
#5143076327
0C
#5143076767
1C
#5143077992
0C
#5143078432
1C
#5143079662
0C
#5143080097
1C
#5143080597
0C
#5143081032
1C
#5143082262
0C
#5143082702
1C
#5143083927
0C
#5143084362
1C
#5143085592
0C
#5143086032
1C
#5143087257
0C
#5143087672
1C
#5143088197
0C
#5143088607
1C
#5143089132
0C
#5143089547
1C
#5143090072
0C
#5143090482
1C
#5143091007
0C
#5143091417
1C
#5143091942
0C
#5143092352
1C
#5143092882
0C
#5143093292
1C
#5143093817
0C
#5143094227
1C
#5143094752
0C
#5143095162
1C
#5143095692
0C
#5143096102
1C
#5143096627
0C
#5143097037
1C
#5143097562
0C
#5143097972
1C
#5143099232
0C
#5143099637
1C
#5143100897
0C
#5143101307
1C
#5143102562
0C
#5143102972
1C
#5143104227
0C
#5143104637
1C
#5143105892
0C
#5143106302
1C
#5143107557
0C
#5143107967
1C
#5143109222
0C
#5143109632
1C
#5143110892
0C
#5143111297
1C
#5143111827
0C
#5143112237
1C
#5143112762
0C
#5143113172
1C
#5143113702
0C
#5143114107
1C
#5143114637
0C
#5143115047
1C
#5143115572
0C
#5143115982
1C
#5143116512
0C
#5143116922
1C
#5143117447
0C
#5143117857
1C
#5143118387
0C
#5143118793
1C
#5143120052
0C
#5143120462
1C
#5143121717
0C
#5143122127
1C
#5143123382
0C
#5143123792
1C
#5143125052
0C
#5143125457
1C
#5143126717
0C
#5143127122
1C
#5143128382
0C
#5143128787
1C
#5143130067
0C
#5143130452
1C
#5143131732
0C
#5143132122
1C
#5143132647
0C
#5143133057
1C
#5143133587
0C
#5143133992
1C
#5143134522
0C
#5143134932
1C
#5143135462
0C
#5143135867
1C
#5143136397
0C
#5143136802
1C
#5143137332
0C
#5143137743
1C
#5143138272
0C
#5143138682
1C
#5143139962
0C
#5143140347
1C
#5143141627
0C
#5143142012
1C
#5143143292
0C
#5143143678
1C
#5143144957
0C
#5143145342
1C
#5143146622
0C
#5143147007
1C
#5143148287
0C
#5143148672
1C
#5143149953
0C
#5143150337
1C
#5143151622
0C
#5143152002
1C
#5143152537
0C
#5143152942
1C
#5143154222
0C
#5143154607
1C
#5143155887
0C
#5143156272
1C
#5143156822
0C
#5143157207
1C
#5143157762
0C
#5143158147
1C
#5143158697
0C
#5143159083
1C
#5143159637
0C
#5143160017
1C
#5143160572
0C
#5143160957
1C
#5143161507
0C
#5143161893
1C
#5143162448
0C
#5143162827
1C
#5143163382
0C
#5143163762
1C
#5143165047
0C
#5143165433
1C
#5143166712
0C
#5143167092
1C
#5143168378
0C
#5143168762
1C
#5143170042
0C
#5143170427
1C
#5143171707
0C
#5143172093
1C
#5143173372
0C
#5143173757
1C
#5143174313
0C
#5143174693
1C
#5143175247
0C
#5143175632
1C
#5143176187
0C
#5143176567
1C
#5143177122
0C
#5143177503
1C
#5143178057
0C
#5143178442
1C
#5143178997
0C
#5143179377
1C
#5143179932
0C
#5143180312
1C
#5143180872
0C
#5143181252
1C
#5143182532
0C
#5143182917
1C
#5143184202
0C
#5143184582
1C
#5143185867
0C
#5143186247
1C
#5143187532
0C
#5143187912
1C
#5143189197
0C
#5143189577
1C
#5143190862
0C
#5143191242
1C
#5143192527
0C
#5143192908
1C
#5143194197
0C
#5143194573
1C
#5143195132
0C
#5143195512
1C
#5143196068
0C
#5143196447
1C
#5143197008
0C
#5143197388
1C
#5143197943
0C
#5143198322
1C
#5143198883
0C
#5143199257
1C
#5143199817
0C
#5143200197
1C
#5143200753
0C
#5143201132
1C
#5143201692
0C
#5143202073
1C
#5143203358
0C
#5143203737
1C
#5143205023
0C
#5143205403
1C
#5143206688
0C
#5143207068
1C
#5143208353
0C
#5143208733
1C
#5143210018
0C
#5143210398
1C
#5143211683
0C
#5143212063
1C
#5143213348
0C
#5143213728
1C
#5143215013
0C
#5143215393
1C
#5143215952
0C
#5143216328
1C
#5143216888
0C
#5143217268
1C
#5143217828
0C
#5143218203
1C
#5143218763
0C
#5143219138
1C
#5143219698
0C
#5143220078
1C
#5143220638
0C
#5143221013
1C
#5143221573
0C
#5143221948
1C
#5143222508
0C
#5143222888
1C
#5143224178
0C
#5143224553
1C
#5143225838
0C
#5143226218
1C
#5143227508
0C
#5143227883
1C
#5143229173
0C
#5143229548
1C
#5143230838
0C
#5143231213
1C
#5143232503
0C
#5143232878
1C
#5143234173
0C
#5143234548
1C
#5143235863
0C
#5143236213
1C
