data/25.vcd
$date 2021-07-27 16:57:07 $end
$version piscope V1 $end
$timescale 1 us $end
$scope module top $end
$var wire 1 A 0 $end
$var wire 1 B 1 $end
$var wire 1 C 2 $end
$var wire 1 D 3 $end
$var wire 1 E 4 $end
$var wire 1 F 5 $end
$var wire 1 G 6 $end
$var wire 1 H 7 $end
$var wire 1 I 8 $end
$var wire 1 J 9 $end
$var wire 1 K 10 $end
$var wire 1 L 11 $end
$var wire 1 M 12 $end
$var wire 1 N 13 $end
$var wire 1 O 14 $end
$var wire 1 P 15 $end
$var wire 1 Q 16 $end
$var wire 1 R 17 $end
$var wire 1 S 18 $end
$var wire 1 T 19 $end
$var wire 1 U 20 $end
$var wire 1 V 21 $end
$var wire 1 W 22 $end
$var wire 1 X 23 $end
$var wire 1 Y 24 $end
$var wire 1 Z 25 $end
$var wire 1 a 26 $end
$var wire 1 b 27 $end
$var wire 1 c 28 $end
$var wire 1 d 29 $end
$var wire 1 e 30 $end
$var wire 1 f 31 $end
$upscope $end
$enddefinitions $end
#4404845114
1A
1B
0C
1D
1E
1F
1G
1H
1I
0J
0K
0L
0M
0N
0O
1P
0Q
0R
0S
0T
0U
0V
0W
0X
0Y
0Z
0a
0b
1c
0d
0e
0f
#4404848474
1C
#4404850129
0C
#4404850574
1C
#4404851799
0C
#4404852239
1C
#4404852729
0C
#4404853179
1C
#4404853669
0C
#4404854114
1C
#4404854604
0C
#4404855054
1C
#4404855544
0C
#4404855989
1C
#4404856479
0C
#4404856924
1C
#4404857414
0C
#4404857859
1C
#4404858349
0C
#4404858799
1C
#4404859289
0C
#4404859734
1C
#4404860224
0C
#4404860669
1C
#4404861164
0C
#4404861609
1C
#4404862099
0C
#4404862544
1C
#4404863764
0C
#4404864209
1C
#4404864699
0C
#4404865144
1C
#4404865634
0C
#4404866084
1C
#4404866574
0C
#4404867019
1C
#4404867509
0C
#4404867959
1C
#4404868449
0C
#4404868894
1C
#4404869384
0C
#4404869829
1C
#4404870319
0C
#4404870764
1C
#4404871254
0C
#4404871704
1C
#4404872194
0C
#4404872639
1C
#4404873129
0C
#4404873574
1C
#4404874064
0C
#4404874509
1C
#4404874999
0C
#4404875449
1C
#4404875939
0C
#4404876384
1C
#4404876874
0C
#4404877319
1C
#4404877809
0C
#4404878254
1C
#4404878749
0C
#4404879194
1C
#4404879684
0C
#4404880129
1C
#4404881349
0C
#4404881794
1C
#4404882284
0C
#4404882729
1C
#4404883949
0C
#4404884394
1C
#4404885614
0C
#4404886059
1C
#4404887279
0C
#4404887724
1C
#4404888944
0C
#4404889389
1C
#4404890609
0C
#4404891054
1C
#4404892274
0C
#4404892719
1C
#4404893209
0C
#4404893654
1C
#4404894879
0C
#4404895319
1C
#4404896544
0C
#4404896984
1C
#4404898209
0C
#4404898649
1C
#4404899874
0C
#4404900314
1C
#4404901539
0C
#4404901979
1C
#4404903199
0C
#4404903644
1C
#4404904864
0C
#4404905314
1C
#4404906529
0C
#4404906974
1C
#4404908194
0C
#4404908639
1C
#4404909134
0C
#4404909574
1C
#4404910069
0C
#4404910514
1C
#4404911004
0C
#4404911449
1C
#4404911939
0C
#4404912389
1C
#4404912874
0C
#4404913324
1C
#4404913814
0C
#4404914259
1C
#4404914749
0C
#4404915194
1C
#4404915689
0C
#4404916134
1C
#4404916624
0C
#4404917069
1C
#4404917559
0C
#4404918009
1C
#4404919224
0C
#4404919669
1C
#4404920894
0C
#4404921334
1C
#4404921824
0C
#4404922274
1C
#4404922764
0C
#4404923209
1C
#4404924429
0C
#4404924874
1C
#4404926094
0C
#4404926539
1C
#4404927764
0C
#4404928204
1C
#4404929424
0C
#4404929869
1C
#4404930364
0C
#4404930809
1C
#4404931299
0C
#4404931744
1C
#4404932964
0C
#4404933409
1C
#4404934629
0C
#4404935074
1C
#4404935564
0C
#4404936014
1C
#4404936504
0C
#4404936949
1C
#4404937439
0C
#4404937884
1C
#4404939104
0C
#4404939549
1C
#4404940039
0C
#4404940489
1C
#4404940979
0C
#4404941424
1C
#4404942644
0C
#4404943089
1C
#4404943579
0C
#4404944024
1C
#4404944519
0C
#4404944964
1C
#4404946184
0C
#4404946629
1C
#4404947849
0C
#4404948294
1C
#4404948784
0C
#4404949229
1C
#4404950454
0C
#4404950894
1C
#4404952114
0C
#4404952559
1C
#4404953049
0C
#4404953494
1C
#4404954719
0C
#4404955159
1C
#4404956384
0C
#4404956824
1C
#4404957319
0C
#4404957759
1C
#4404958984
0C
#4404959429
1C
#4404960649
0C
#4404961094
1C
#4404961584
0C
#4404962029
1C
#4404962519
0C
#4404962969
1C
#4404963459
0C
#4404963904
1C
#4404964394
0C
#4404964839
1C
#4404966059
0C
#4404966504
1C
#4404966999
0C
#4404967444
1C
#4404967934
0C
#4404968379
1C
#4404968869
0C
#4404969314
1C
#4404970539
0C
#4404970979
1C
#4404972204
0C
#4404972644
1C
#4404973869
0C
#4404974314
1C
#4404975534
0C
#4404975979
1C
#4404976469
0C
#4404976914
1C
#4404978139
0C
#4404978579
1C
#4404979069
0C
#4404979514
1C
#4404980009
0C
#4404980454
1C
#4404981679
0C
#4404982119
1C
#4404982609
0C
#4404983054
1C
#4404983544
0C
#4404983994
1C
#4404985219
0C
#4404985659
1C
#4404986909
0C
#4404987324
1C
#4404987814
0C
#4404988259
1C
#4404989484
0C
#4404989924
1C
#4404991149
0C
#4404991589
1C
#4404992084
0C
#4404992529
1C
#4404993754
0C
#4404994194
1C
#4404995444
0C
#4404995859
1C
#4404996354
0C
#4404996794
1C
#4404997289
0C
#4404997734
1C
#4404998984
0C
#4404999399
1C
#4404999894
0C
#4405000334
1C
#4405000829
0C
#4405001274
1C
#4405001764
0C
#4405002209
1C
#4405002704
0C
#4405003144
1C
#4405003639
0C
#4405004084
1C
#4405004579
0C
#4405005019
1C
#4405005514
0C
#4405005959
1C
#4405006449
0C
#4405006894
1C
#4405008144
0C
#4405008559
1C
#4405009809
0C
#4405010224
1C
#4405011474
0C
#4405011889
1C
#4405013139
0C
#4405013554
1C
#4405014809
0C
#4405015199
1C
#4405016469
0C
#4405016884
1C
#4405018139
0C
#4405018554
1C
#4405019804
0C
#4405020219
1C
#4405020739
0C
#4405021154
1C
#4405021674
0C
#4405022089
1C
#4405022614
0C
#4405023029
1C
#4405023549
0C
#4405023939
1C
#4405024489
0C
#4405024899
1C
#4405025424
0C
#4405025839
1C
#4405026359
0C
#4405026774
1C
#4405027299
0C
#4405027714
1C
#4405028964
0C
#4405029374
1C
#4405030629
0C
#4405031044
1C
#4405032294
0C
#4405032704
1C
#4405033959
0C
#4405034349
1C
#4405035624
0C
#4405036039
1C
#4405037289
0C
#4405037704
1C
#4405038954
0C
#4405039364
1C
#4405040619
0C
#4405041009
1C
#4405041554
0C
#4405041944
1C
#4405042494
0C
#4405042884
1C
#4405043429
0C
#4405043844
1C
#4405044369
0C
#4405044754
1C
#4405045304
0C
#4405045694
1C
#4405046239
0C
#4405046654
1C
#4405047179
0C
#4405047569
1C
#4405048114
0C
#4405048504
1C
#4405049754
0C
#4405050169
1C
#4405051419
0C
#4405051834
1C
#4405053109
0C
#4405053525
1C
#4405054749
0C
#4405055194
1C
#4405056414
0C
#4405056859
1C
#4405058079
0C
#4405058529
1C
#4405059749
0C
#4405060194
1C
#4405061414
0C
#4405061859
1C
#4405062374
0C
#4405062795
1C
#4405063314
0C
#4405063734
1C
#4405064249
0C
#4405064669
1C
#4405065189
0C
#4405065609
1C
#4405066125
0C
#4405066549
1C
#4405067059
0C
#4405067479
1C
#4405067999
0C
#4405068419
1C
#4405068934
0C
#4405069354
1C
#4405070574
0C
#4405071024
1C
#4405072240
0C
#4405072689
1C
#4405073904
0C
#4405074354
1C
#4405075569
0C
#4405076019
1C
#4405077235
0C
#4405077714
1C
#4405078899
0C
#4405079379
1C
#4405080569
0C
#4405081045
1C
#4405082229
0C
#4405082709
1C
#4405083194
0C
#4405083644
1C
#4405084134
0C
#4405084560
1C
#4405085069
0C
#4405085519
1C
#4405086009
0C
#4405086429
1C
#4405086944
0C
#4405087370
1C
#4405087879
0C
#4405088329
1C
#4405088819
0C
#4405089239
1C
#4405089754
0C
#4405090179
1C
#4405091394
0C
#4405091869
1C
#4405093060
0C
#4405093535
1C
#4405094724
0C
#4405095174
1C
#4405096390
0C
#4405096865
1C
#4405098054
0C
#4405098505
1C
#4405099720
0C
#4405100169
1C
#4405101384
0C
#4405101834
1C
#4405103055
0C
#4405103499
1C
#4405104714
0C
#4405105164
1C
#4405106379
0C
#4405106829
1C
#4405107319
0C
#4405107765
1C
#4405108260
0C
#4405108705
1C
#4405109924
0C
#4405110369
1C
#4405110859
0C
#4405111305
1C
#4405112524
0C
#4405112969
1C
#4405113459
0C
#4405113905
1C
#4405114399
0C
#4405114844
1C
#4405115335
0C
#4405115779
1C
#4405116999
0C
#4405117444
1C
#4405118664
0C
#4405119109
1C
#4405119604
0C
#4405120049
1C
#4405121270
0C
#4405121714
1C
#4405122204
0C
#4405122649
1C
#4405123869
0C
#4405124315
1C
#4405125534
0C
#4405125979
1C
#4405126474
0C
#4405126914
1C
#4405127410
0C
#4405127854
1C
#4405128344
0C
#4405128789
1C
#4405130009
0C
#4405130455
1C
#4405131680
0C
#4405132120
1C
#4405133345
0C
#4405133785
1C
#4405135010
0C
#4405135450
1C
#4405135945
0C
#4405136390
1C
#4405137610
0C
#4405138055
1C
#4405139275
0C
#4405139720
1C
#4405140945
0C
#4405141385
1C
#4405141880
0C
#4405142320
1C
#4405142815
0C
#4405143260
1C
#4405143755
0C
#4405144194
1C
#4405144690
0C
#4405145130
1C
#4405145625
0C
#4405146065
1C
#4405146565
0C
#4405147005
1C
#4405147500
0C
#4405147940
1C
#4405148440
0C
#4405148880
1C
#4405149375
0C
#4405149815
1C
#4405150310
0C
#4405150750
1C
#4405151250
0C
#4405151685
1C
#4405152185
0C
#4405152625
1C
#4405153850
0C
#4405154295
1C
#4405155520
0C
#4405155960
1C
#4405157185
0C
#4405157625
1C
#4405158850
0C
#4405159290
1C
#4405160515
0C
#4405160955
1C
#4405162180
0C
#4405162620
1C
#4405163845
0C
#4405164285
1C
#4405165515
0C
#4405165950
1C
#4405166450
0C
#4405166890
1C
#4405167385
0C
#4405167825
1C
#4405168325
0C
#4405168765
1C
#4405169260
0C
#4405169700
1C
#4405170195
0C
#4405170635
1C
#4405171135
0C
#4405171575
1C
#4405172070
0C
#4405172510
1C
#4405173010
0C
#4405173450
1C
#4405174675
0C
#4405175115
1C
#4405176340
0C
#4405176780
1C
#4405178005
0C
#4405178445
1C
#4405179675
0C
#4405180110
1C
#4405181335
0C
#4405181775
1C
#4405183005
0C
#4405183440
1C
#4405184670
0C
#4405185105
1C
#4405186335
0C
#4405186775
1C
#4405187270
0C
#4405187710
1C
#4405188210
0C
#4405188645
1C
#4405189145
0C
#4405189585
1C
#4405190080
0C
#4405190520
1C
#4405191020
0C
#4405191455
1C
#4405191955
0C
#4405192395
1C
#4405192890
0C
#4405193330
1C
#4405194560
0C
#4405194995
1C
#4405196225
0C
#4405196660
1C
#4405197890
0C
#4405198325
1C
#4405199555
0C
#4405199980
1C
#4405201220
0C
#4405201630
1C
#4405202890
0C
#4405203300
1C
#4405204555
0C
#4405204965
1C
#4405206220
0C
#4405206630
1C
#4405207155
0C
#4405207565
1C
#4405208825
0C
#4405209230
1C
#4405210490
0C
#4405210895
1C
#4405211425
0C
#4405211835
1C
#4405212360
0C
#4405212770
1C
#4405213300
0C
#4405213710
1C
#4405214235
0C
#4405214645
1C
#4405215175
0C
#4405215580
1C
#4405216110
0C
#4405216520
1C
#4405217045
0C
#4405217455
1C
#4405217985
0C
#4405218390
1C
#4405219650
0C
#4405220055
1C
#4405221335
0C
#4405221725
1C
#4405222980
0C
#4405223390
1C
#4405224670
0C
#4405225055
1C
#4405226315
0C
#4405226720
1C
#4405228000
0C
#4405228385
1C
#4405228915
0C
#4405229325
1C
#4405229850
0C
#4405230260
1C
#4405230790
0C
#4405231195
1C
#4405231725
0C
#4405232135
1C
#4405232665
0C
#4405233070
1C
#4405233600
0C
#4405234010
1C
#4405234535
0C
#4405234945
1C
#4405235495
0C
#4405235880
1C
#4405237160
0C
#4405237545
1C
#4405238825
0C
#4405239210
1C
#4405240490
0C
#4405240875
1C
#4405242160
0C
#4405242540
1C
#4405243820
0C
#4405244205
1C
#4405245490
0C
#4405245875
1C
#4405247155
0C
#4405247540
1C
#4405248820
0C
#4405249205
1C
#4405249760
0C
#4405250140
1C
#4405250695
0C
#4405251080
1C
#4405251630
0C
#4405252015
1C
#4405252570
0C
#4405252955
1C
#4405253505
0C
#4405253890
1C
#4405254440
0C
#4405254825
1C
#4405255380
0C
#4405255765
1C
#4405256315
0C
#4405256700
1C
#4405257980
0C
#4405258365
1C
#4405259645
0C
#4405260030
1C
#4405261310
0C
#4405261695
1C
#4405262980
0C
#4405263360
1C
#4405264645
0C
#4405265030
1C
#4405266310
0C
#4405266695
1C
#4405267975
0C
#4405268355
1C
#4405269640
0C
#4405270025
1C
#4405270580
0C
#4405270960
1C
#4405271515
0C
#4405271895
1C
#4405272450
0C
#4405272835
1C
#4405273390
0C
#4405273770
1C
#4405274325
0C
#4405274705
1C
#4405275265
0C
#4405275645
1C
#4405276200
0C
#4405276580
1C
#4405277135
0C
#4405277520
1C
#4405278800
0C
#4405279185
1C
#4405280470
0C
#4405280850
1C
#4405282135
0C
#4405282515
1C
#4405283800
0C
#4405284180
1C
#4405285470
0C
#4405285850
1C
#4405287135
0C
#4405287515
1C
#4405288800
0C
#4405289180
1C
#4405290465
0C
#4405290845
1C
