data/26.vcd
$date 2021-07-27 16:57:07 $end
$version piscope V1 $end
$timescale 1 us $end
$scope module top $end
$var wire 1 A 0 $end
$var wire 1 B 1 $end
$var wire 1 C 2 $end
$var wire 1 D 3 $end
$var wire 1 E 4 $end
$var wire 1 F 5 $end
$var wire 1 G 6 $end
$var wire 1 H 7 $end
$var wire 1 I 8 $end
$var wire 1 J 9 $end
$var wire 1 K 10 $end
$var wire 1 L 11 $end
$var wire 1 M 12 $end
$var wire 1 N 13 $end
$var wire 1 O 14 $end
$var wire 1 P 15 $end
$var wire 1 Q 16 $end
$var wire 1 R 17 $end
$var wire 1 S 18 $end
$var wire 1 T 19 $end
$var wire 1 U 20 $end
$var wire 1 V 21 $end
$var wire 1 W 22 $end
$var wire 1 X 23 $end
$var wire 1 Y 24 $end
$var wire 1 Z 25 $end
$var wire 1 a 26 $end
$var wire 1 b 27 $end
$var wire 1 c 28 $end
$var wire 1 d 29 $end
$var wire 1 e 30 $end
$var wire 1 f 31 $end
$upscope $end
$enddefinitions $end
#4403670181
1A
1B
0C
1D
1E
1F
1G
1H
1I
0J
0K
0L
0M
0N
0O
1P
0Q
0R
0S
0T
0U
0V
0W
0X
0Y
0Z
0a
0b
1c
0d
0e
0f
#4403673541
1C
#4403675201
0C
#4403675641
1C
#4403676861
0C
#4403677306
1C
#4403677801
0C
#4403678246
1C
#4403678736
0C
#4403679181
1C
#4403679671
0C
#4403680121
1C
#4403680611
0C
#4403681056
1C
#4403681546
0C
#4403681991
1C
#4403682481
0C
#4403682931
1C
#4403683421
0C
#4403683866
1C
#4403684356
0C
#4403684801
1C
#4403685291
0C
#4403685736
1C
#4403686231
0C
#4403686676
1C
#4403687166
0C
#4403687616
1C
#4403688836
0C
#4403689276
1C
#4403689771
0C
#4403690216
1C
#4403690706
0C
#4403691151
1C
#4403691646
0C
#4403692091
1C
#4403692581
0C
#4403693026
1C
#4403693516
0C
#4403693966
1C
#4403694456
0C
#4403694901
1C
#4403695391
0C
#4403695836
1C
#4403696326
0C
#4403696776
1C
#4403697266
0C
#4403697711
1C
#4403698201
0C
#4403698646
1C
#4403699136
0C
#4403699586
1C
#4403700076
0C
#4403700521
1C
#4403701011
0C
#4403701456
1C
#4403701951
0C
#4403702396
1C
#4403702886
0C
#4403703331
1C
#4403703821
0C
#4403704271
1C
#4403704756
0C
#4403705206
1C
#4403706426
0C
#4403706866
1C
#4403707361
0C
#4403707806
1C
#4403709026
0C
#4403709471
1C
#4403710691
0C
#4403711136
1C
#4403712356
0C
#4403712801
1C
#4403714021
0C
#4403714466
1C
#4403715691
0C
#4403716136
1C
#4403717356
0C
#4403717801
1C
#4403718291
0C
#4403718736
1C
#4403719961
0C
#4403720401
1C
#4403721621
0C
#4403722066
1C
#4403723291
0C
#4403723731
1C
#4403724956
0C
#4403725396
1C
#4403726621
0C
#4403727066
1C
#4403728286
0C
#4403728731
1C
#4403729951
0C
#4403730396
1C
#4403731616
0C
#4403732061
1C
#4403733276
0C
#4403733726
1C
#4403734216
0C
#4403734661
1C
#4403735151
0C
#4403735601
1C
#4403736091
0C
#4403736536
1C
#4403737026
0C
#4403737471
1C
#4403737966
0C
#4403738411
1C
#4403738901
0C
#4403739346
1C
#4403739836
0C
#4403740286
1C
#4403740776
0C
#4403741221
1C
#4403741711
0C
#4403742161
1C
#4403742651
0C
#4403743096
1C
#4403744316
0C
#4403744761
1C
#4403745981
0C
#4403746426
1C
#4403746916
0C
#4403747366
1C
#4403747856
0C
#4403748301
1C
#4403749521
0C
#4403749966
1C
#4403751186
0C
#4403751631
1C
#4403752851
0C
#4403753296
1C
#4403754521
0C
#4403754966
1C
#4403755456
0C
#4403755901
1C
#4403756391
0C
#4403756836
1C
#4403758061
0C
#4403758501
1C
#4403759721
0C
#4403760171
1C
#4403760661
0C
#4403761106
1C
#4403761596
0C
#4403762041
1C
#4403762531
0C
#4403762976
1C
#4403764201
0C
#4403764641
1C
#4403765136
0C
#4403765581
1C
#4403766071
0C
#4403766521
1C
#4403767736
0C
#4403768181
1C
#4403768676
0C
#4403769121
1C
#4403769611
0C
#4403770056
1C
#4403771276
0C
#4403771721
1C
#4403772941
0C
#4403773391
1C
#4403773881
0C
#4403774326
1C
#4403775331
0C
#4403775991
1C
#4403777216
0C
#4403777656
1C
#4403778151
0C
#4403778596
1C
#4403779816
0C
#4403780261
1C
#4403781481
0C
#4403781926
1C
#4403782421
0C
#4403782866
1C
#4403784086
0C
#4403784531
1C
#4403785751
0C
#4403786196
1C
#4403786686
0C
#4403787131
1C
#4403787626
0C
#4403788071
1C
#4403788561
0C
#4403789006
1C
#4403789496
0C
#4403789946
1C
#4403791161
0C
#4403791611
1C
#4403792101
0C
#4403792546
1C
#4403793036
0C
#4403793486
1C
#4403793976
0C
#4403794421
1C
#4403795641
0C
#4403796086
1C
#4403797306
0C
#4403797751
1C
#4403798976
0C
#4403799421
1C
#4403800641
0C
#4403801086
1C
#4403801576
0C
#4403802021
1C
#4403803241
0C
#4403803686
1C
#4403804176
0C
#4403804626
1C
#4403805116
0C
#4403805561
1C
#4403806051
0C
#4403806496
1C
#4403807716
0C
#4403808161
1C
#4403808656
0C
#4403809101
1C
#4403810321
0C
#4403810766
1C
#4403811986
0C
#4403812431
1C
#4403812926
0C
#4403813371
1C
#4403814591
0C
#4403815036
1C
#4403816256
0C
#4403816701
1C
#4403817921
0C
#4403818366
1C
#4403818856
0C
#4403819301
1C
#4403820521
0C
#4403820966
1C
#4403821456
0C
#4403821906
1C
#4403822396
0C
#4403822846
1C
#4403824061
0C
#4403824506
1C
#4403825001
0C
#4403825446
1C
#4403825936
0C
#4403826381
1C
#4403826871
0C
#4403827321
1C
#4403827811
0C
#4403828256
1C
#4403828746
0C
#4403829191
1C
#4403829686
0C
#4403830131
1C
#4403830621
0C
#4403831066
1C
#4403831561
0C
#4403832006
1C
#4403833226
0C
#4403833671
1C
#4403834891
0C
#4403835336
1C
#4403836556
0C
#4403837001
1C
#4403838221
0C
#4403838666
1C
#4403839886
0C
#4403840331
1C
#4403841551
0C
#4403841996
1C
#4403843216
0C
#4403843661
1C
#4403844881
0C
#4403845326
1C
#4403845816
0C
#4403846266
1C
#4403846756
0C
#4403847201
1C
#4403847691
0C
#4403848141
1C
#4403848631
0C
#4403849076
1C
#4403849566
0C
#4403850011
1C
#4403850506
0C
#4403850951
1C
#4403851441
0C
#4403851886
1C
#4403852376
0C
#4403852826
1C
#4403854046
0C
#4403854491
1C
#4403855711
0C
#4403856156
1C
#4403857376
0C
#4403857821
1C
#4403859046
0C
#4403859486
1C
#4403860711
0C
#4403861151
1C
#4403862376
0C
#4403862821
1C
#4403864041
0C
#4403864481
1C
#4403865706
0C
#4403866151
1C
#4403866641
0C
#4403867086
1C
#4403867581
0C
#4403868027
1C
#4403868516
0C
#4403868961
1C
#4403869456
0C
#4403869901
1C
#4403870391
0C
#4403870837
1C
#4403871327
0C
#4403871776
1C
#4403872266
0C
#4403872712
1C
#4403873201
0C
#4403873646
1C
#4403874871
0C
#4403875311
1C
#4403876536
0C
#4403876976
1C
#4403878201
0C
#4403878646
1C
#4403879867
0C
#4403880311
1C
#4403881531
0C
#4403881976
1C
#4403883196
0C
#4403883641
1C
#4403884866
0C
#4403885306
1C
#4403886531
0C
#4403886971
1C
#4403887466
0C
#4403887911
1C
#4403888401
0C
#4403888846
1C
#4403889336
0C
#4403889786
1C
#4403890276
0C
#4403890721
1C
#4403891211
0C
#4403891656
1C
#4403892147
0C
#4403892597
1C
#4403893086
0C
#4403893531
1C
#4403894021
0C
#4403894466
1C
#4403895716
0C
#4403896131
1C
#4403897386
0C
#4403897801
1C
#4403899026
0C
#4403899466
1C
#4403900716
0C
#4403901131
1C
#4403902381
0C
#4403902796
1C
#4403904051
0C
#4403904467
1C
#4403905716
0C
#4403906131
1C
#4403907382
0C
#4403907797
1C
#4403908292
0C
#4403908731
1C
#4403909226
0C
#4403909671
1C
#4403910166
0C
#4403910607
1C
#4403911127
0C
#4403911546
1C
#4403912066
0C
#4403912481
1C
#4403913001
0C
#4403913422
1C
#4403913942
0C
#4403914331
1C
#4403914856
0C
#4403915291
1C
#4403916541
0C
#4403916957
1C
#4403918211
0C
#4403918626
1C
#4403919877
0C
#4403920286
1C
#4403921542
0C
#4403921956
1C
#4403923207
0C
#4403923621
1C
#4403924871
0C
#4403925286
1C
#4403926536
0C
#4403926927
1C
#4403928206
0C
#4403928616
1C
#4403929871
0C
#4403930286
1C
#4403931536
0C
#4403931952
1C
#4403932477
0C
#4403932887
1C
#4403933411
0C
#4403933801
1C
#4403935081
0C
#4403935492
1C
#4403936017
0C
#4403936432
1C
#4403937681
0C
#4403938096
1C
#4403938622
0C
#4403939031
1C
#4403939556
0C
#4403939946
1C
#4403940492
0C
#4403940906
1C
#4403942161
0C
#4403942546
1C
#4403943826
0C
#4403944216
1C
#4403944762
0C
#4403945151
1C
#4403946406
0C
#4403946817
1C
#4403947367
0C
#4403947757
1C
#4403949007
0C
#4403949421
1C
#4403950672
0C
#4403951086
1C
#4403951631
0C
#4403952021
1C
#4403952571
0C
#4403952962
1C
#4403953507
0C
#4403953897
1C
#4403955147
0C
#4403955591
1C
#4403956812
0C
#4403957257
1C
#4403958477
0C
#4403958922
1C
#4403960142
0C
#4403960587
1C
#4403961107
0C
#4403961527
1C
#4403962747
0C
#4403963192
1C
#4403964412
0C
#4403964862
1C
#4403966077
0C
#4403966527
1C
#4403967042
0C
#4403967462
1C
#4403967977
0C
#4403968401
1C
#4403968917
0C
#4403969342
1C
#4403969852
0C
#4403970277
1C
#4403970792
0C
#4403971242
1C
#4403971727
0C
#4403972152
1C
#4403972667
0C
#4403973087
1C
#4403973602
0C
#4403974027
1C
#4403974542
0C
#4403974962
1C
#4403975477
0C
#4403975902
1C
#4403976417
0C
#4403976837
1C
#4403977352
0C
#4403977777
1C
#4403978992
0C
#4403979442
1C
#4403980657
0C
#4403981107
1C
#4403982322
0C
#4403982772
1C
#4403983992
0C
#4403984467
1C
#4403985657
0C
#4403986107
1C
#4403987322
0C
#4403987772
1C
#4403988987
0C
#4403989437
1C
#4403990652
0C
#4403991102
1C
#4403991592
0C
#4403992042
1C
#4403992532
0C
#4403992977
1C
#4403993467
0C
#4403993917
1C
#4403994407
0C
#4403994852
1C
#4403995342
0C
#4403995787
1C
#4403996277
0C
#4403996727
1C
#4403997217
0C
#4403997662
1C
#4403998152
0C
#4403998602
1C
#4403999817
0C
#4404000267
1C
#4404001482
0C
#4404001932
1C
#4404003152
0C
#4404003597
1C
#4404004817
0C
#4404005262
1C
#4404006482
0C
#4404006932
1C
#4404008147
0C
#4404008597
1C
#4404009817
0C
#4404010262
1C
#4404011482
0C
#4404011927
1C
#4404012417
0C
#4404012862
1C
#4404013352
0C
#4404013797
1C
#4404014292
0C
#4404014737
1C
#4404015227
0C
#4404015672
1C
#4404016167
0C
#4404016612
1C
#4404017102
0C
#4404017547
1C
#4404018042
0C
#4404018482
1C
#4404019707
0C
#4404020152
1C
#4404021372
0C
#4404021817
1C
#4404023042
0C
#4404023482
1C
#4404024707
0C
#4404025147
1C
#4404026372
0C
#4404026817
1C
#4404028037
0C
#4404028477
1C
#4404029702
0C
#4404030142
1C
#4404031367
0C
#4404031807
1C
#4404032302
0C
#4404032747
1C
#4404033972
0C
#4404034412
1C
#4404035637
0C
#4404036077
1C
#4404036572
0C
#4404037012
1C
#4404037512
0C
#4404037952
1C
#4404038447
0C
#4404038887
1C
#4404039387
0C
#4404039827
1C
#4404040322
0C
#4404040762
1C
#4404041257
0C
#4404041697
1C
#4404042192
0C
#4404042637
1C
#4404043132
0C
#4404043572
1C
#4404044797
0C
#4404045237
1C
#4404046462
0C
#4404046902
1C
#4404048127
0C
#4404048572
1C
#4404049797
0C
#4404050237
1C
#4404051462
0C
#4404051902
1C
#4404053127
0C
#4404053567
1C
#4404054067
0C
#4404054507
1C
#4404055002
0C
#4404055442
1C
#4404055942
0C
#4404056382
1C
#4404056877
0C
#4404057317
1C
#4404057817
0C
#4404058257
1C
#4404058752
0C
#4404059192
1C
#4404059687
0C
#4404060127
1C
#4404060627
0C
#4404061067
1C
#4404062297
0C
#4404062732
1C
#4404063957
0C
#4404064397
1C
#4404065627
0C
#4404066062
1C
#4404067292
0C
#4404067727
1C
#4404068957
0C
#4404069397
1C
#4404070622
0C
#4404071062
1C
#4404072292
0C
#4404072727
1C
#4404073957
0C
#4404074397
1C
#4404074892
0C
#4404075332
1C
#4404075832
0C
#4404076272
1C
#4404076767
0C
#4404077207
1C
#4404077707
0C
#4404078142
1C
#4404078642
0C
#4404079082
1C
#4404079582
0C
#4404080017
1C
#4404080517
0C
#4404080957
1C
#4404081452
0C
#4404081892
1C
#4404083122
0C
#4404083557
1C
#4404084787
0C
#4404085227
1C
#4404086452
0C
#4404086887
1C
#4404088117
0C
#4404088532
1C
#4404089787
0C
#4404090197
1C
#4404091452
0C
#4404091862
1C
#4404093117
0C
#4404093527
1C
#4404094782
0C
#4404095192
1C
#4404095722
0C
#4404096132
1C
#4404096657
0C
#4404097067
1C
#4404097597
0C
#4404098007
1C
#4404098532
0C
#4404098942
1C
#4404099467
0C
#4404099877
1C
#4404100407
0C
#4404100817
1C
#4404101342
0C
#4404101752
1C
#4404102282
0C
#4404102692
1C
#4404103947
0C
#4404104357
1C
#4404105617
0C
#4404106022
1C
#4404107282
0C
#4404107687
1C
#4404108967
0C
#4404109357
1C
#4404110612
0C
#4404111022
1C
#4404112282
0C
#4404112687
1C
#4404113967
0C
#4404114352
1C
#4404115632
0C
#4404116017
1C
