data/28.vcd
$date 2021-07-27 16:57:07 $end
$version piscope V1 $end
$timescale 1 us $end
$scope module top $end
$var wire 1 A 0 $end
$var wire 1 B 1 $end
$var wire 1 C 2 $end
$var wire 1 D 3 $end
$var wire 1 E 4 $end
$var wire 1 F 5 $end
$var wire 1 G 6 $end
$var wire 1 H 7 $end
$var wire 1 I 8 $end
$var wire 1 J 9 $end
$var wire 1 K 10 $end
$var wire 1 L 11 $end
$var wire 1 M 12 $end
$var wire 1 N 13 $end
$var wire 1 O 14 $end
$var wire 1 P 15 $end
$var wire 1 Q 16 $end
$var wire 1 R 17 $end
$var wire 1 S 18 $end
$var wire 1 T 19 $end
$var wire 1 U 20 $end
$var wire 1 V 21 $end
$var wire 1 W 22 $end
$var wire 1 X 23 $end
$var wire 1 Y 24 $end
$var wire 1 Z 25 $end
$var wire 1 a 26 $end
$var wire 1 b 27 $end
$var wire 1 c 28 $end
$var wire 1 d 29 $end
$var wire 1 e 30 $end
$var wire 1 f 31 $end
$upscope $end
$enddefinitions $end
#4401506910
1A
1B
0C
1D
1E
1F
1G
1H
1I
0J
0K
0L
0M
0N
0O
1P
0Q
0R
0S
0T
0U
0V
0W
0X
0Y
0Z
0a
0b
1c
0d
0e
0f
#4401510265
1C
#4401511920
0C
#4401512365
1C
#4401513585
0C
#4401514030
1C
#4401514520
0C
#4401514970
1C
#4401515460
0C
#4401515905
1C
#4401516395
0C
#4401516840
1C
#4401517330
0C
#4401517775
1C
#4401518270
0C
#4401518715
1C
#4401519205
0C
#4401519650
1C
#4401520140
0C
#4401520585
1C
#4401521075
0C
#4401521525
1C
#4401522015
0C
#4401522460
1C
#4401522950
0C
#4401523395
1C
#4401523885
0C
#4401524330
1C
#4401525550
0C
#4401525995
1C
#4401526485
0C
#4401526930
1C
#4401527420
0C
#4401527870
1C
#4401528360
0C
#4401528805
1C
#4401529295
0C
#4401529745
1C
#4401530235
0C
#4401530680
1C
#4401531170
0C
#4401531615
1C
#4401532105
0C
#4401532550
1C
#4401533040
0C
#4401533490
1C
#4401533980
0C
#4401534425
1C
#4401534916
0C
#4401535365
1C
#4401535856
0C
#4401536300
1C
#4401536790
0C
#4401537236
1C
#4401537725
0C
#4401538170
1C
#4401538661
0C
#4401539111
1C
#4401539595
0C
#4401540045
1C
#4401540536
0C
#4401540980
1C
#4401541470
0C
#4401541921
1C
#4401543140
0C
#4401543585
1C
#4401544075
0C
#4401544520
1C
#4401545740
0C
#4401546185
1C
#4401547405
0C
#4401547851
1C
#4401549070
0C
#4401549515
1C
#4401550735
0C
#4401551181
1C
#4401552400
0C
#4401552845
1C
#4401554065
0C
#4401554511
1C
#4401555005
0C
#4401555450
1C
#4401556670
0C
#4401557116
1C
#4401558335
0C
#4401558780
1C
#4401560001
0C
#4401560446
1C
#4401561665
0C
#4401562110
1C
#4401563331
0C
#4401563776
1C
#4401564995
0C
#4401565440
1C
#4401566661
0C
#4401567105
1C
#4401568325
0C
#4401568770
1C
#4401569990
0C
#4401570435
1C
#4401570925
0C
#4401571370
1C
#4401571860
0C
#4401572310
1C
#4401572801
0C
#4401573246
1C
#4401573736
0C
#4401574181
1C
#4401574671
0C
#4401575121
1C
#4401575611
0C
#4401576056
1C
#4401576546
0C
#4401576991
1C
#4401577481
0C
#4401577931
1C
#4401578415
0C
#4401578866
1C
#4401579356
0C
#4401579801
1C
#4401581021
0C
#4401581466
1C
#4401582686
0C
#4401583131
1C
#4401583621
0C
#4401584071
1C
#4401584561
0C
#4401585006
1C
#4401586226
0C
#4401586671
1C
#4401587891
0C
#4401588336
1C
#4401589561
0C
#4401590001
1C
#4401591221
0C
#4401591665
1C
#4401592161
0C
#4401592606
1C
#4401593096
0C
#4401593541
1C
#4401594766
0C
#4401595206
1C
#4401596426
0C
#4401596871
1C
#4401597361
0C
#4401597811
1C
#4401598301
0C
#4401598746
1C
#4401599236
0C
#4401599681
1C
#4401600901
0C
#4401601346
1C
#4401601836
0C
#4401602286
1C
#4401602776
0C
#4401603221
1C
#4401604441
0C
#4401604886
1C
#4401605376
0C
#4401605826
1C
#4401606316
0C
#4401606761
1C
#4401607981
0C
#4401608426
1C
#4401609646
0C
#4401610091
1C
#4401610581
0C
#4401611026
1C
#4401612246
0C
#4401612691
1C
#4401613916
0C
#4401614361
1C
#4401614851
0C
#4401615296
1C
#4401616516
0C
#4401616961
1C
#4401618181
0C
#4401618626
1C
#4401619116
0C
#4401619566
1C
#4401620786
0C
#4401621226
1C
#4401622451
0C
#4401622891
1C
#4401623381
0C
#4401623831
1C
#4401624321
0C
#4401624766
1C
#4401625256
0C
#4401625706
1C
#4401626196
0C
#4401626641
1C
#4401627861
0C
#4401628306
1C
#4401628796
0C
#4401629241
1C
#4401629736
0C
#4401630181
1C
#4401630671
0C
#4401631116
1C
#4401632336
0C
#4401632781
1C
#4401634006
0C
#4401634446
1C
#4401635666
0C
#4401636111
1C
#4401637336
0C
#4401637776
1C
#4401638266
0C
#4401638716
1C
#4401639936
0C
#4401640381
1C
#4401640871
0C
#4401641316
1C
#4401641806
0C
#4401642251
1C
#4401642741
0C
#4401643191
1C
#4401643681
0C
#4401644126
1C
#4401645346
0C
#4401645791
1C
#4401647011
0C
#4401647456
1C
#4401648676
0C
#4401649121
1C
#4401649611
0C
#4401650061
1C
#4401651281
0C
#4401651721
1C
#4401652946
0C
#4401653391
1C
#4401654616
0C
#4401655056
1C
#4401656276
0C
#4401656721
1C
#4401657211
0C
#4401657656
1C
#4401658146
0C
#4401658591
1C
#4401659086
0C
#4401659531
1C
#4401660756
0C
#4401661196
1C
#4401661686
0C
#4401662131
1C
#4401662626
0C
#4401663066
1C
#4401663561
0C
#4401664006
1C
#4401664496
0C
#4401664941
1C
#4401665431
0C
#4401665876
1C
#4401666371
0C
#4401666816
1C
#4401667306
0C
#4401667751
1C
#4401668246
0C
#4401668686
1C
#4401669916
0C
#4401670351
1C
#4401671601
0C
#4401672016
1C
#4401673271
0C
#4401673686
1C
#4401674931
0C
#4401675346
1C
#4401676601
0C
#4401677016
1C
#4401678266
0C
#4401678681
1C
#4401679931
0C
#4401680346
1C
#4401681596
0C
#4401682006
1C
#4401682506
0C
#4401682946
1C
#4401683441
0C
#4401683881
1C
#4401684381
0C
#4401684816
1C
#4401685341
0C
#4401685756
1C
#4401686251
0C
#4401686691
1C
#4401687211
0C
#4401687601
1C
#4401688151
0C
#4401688566
1C
#4401689086
0C
#4401689501
1C
#4401690751
0C
#4401691166
1C
#4401692416
0C
#4401692836
1C
#4401694081
0C
#4401694471
1C
#4401695751
0C
#4401696161
1C
#4401697411
0C
#4401697826
1C
#4401699076
0C
#4401699491
1C
#4401700741
0C
#4401701156
1C
#4401702406
0C
#4401702796
1C
#4401703346
0C
#4401703756
1C
#4401704281
0C
#4401704696
1C
#4401705216
0C
#4401705606
1C
#4401706156
0C
#4401706566
1C
#4401707091
0C
#4401707481
1C
#4401708026
0C
#4401708416
1C
#4401708966
0C
#4401709351
1C
#4401709901
0C
#4401710291
1C
#4401711566
0C
#4401711956
1C
#4401713231
0C
#4401713646
1C
#4401714876
0C
#4401715286
1C
#4401716566
0C
#4401716956
1C
#4401718206
0C
#4401718646
1C
#4401719871
0C
#4401720286
1C
#4401721536
0C
#4401721981
1C
#4401723201
0C
#4401723621
1C
#4401724166
0C
#4401724571
1C
#4401725101
0C
#4401725491
1C
#4401726036
0C
#4401726441
1C
#4401726971
0C
#4401727391
1C
#4401727911
0C
#4401728301
1C
#4401728846
0C
#4401729266
1C
#4401729786
0C
#4401730201
1C
#4401730721
0C
#4401731141
1C
#4401732361
0C
#4401732806
1C
#4401734026
0C
#4401734471
1C
#4401735691
0C
#4401736136
1C
#4401737356
0C
#4401737806
1C
#4401739021
0C
#4401739471
1C
#4401740686
0C
#4401741136
1C
#4401742351
0C
#4401742801
1C
#4401744016
0C
#4401744471
1C
#4401744981
0C
#4401745406
1C
#4401745921
0C
#4401746341
1C
#4401746856
0C
#4401747281
1C
#4401747791
0C
#4401748216
1C
#4401748731
0C
#4401749156
1C
#4401749666
0C
#4401750116
1C
#4401750606
0C
#4401751051
1C
#4401751541
0C
#4401751966
1C
#4401753181
0C
#4401753631
1C
#4401754846
0C
#4401755326
1C
#4401756511
0C
#4401756966
1C
#4401758176
0C
#4401758651
1C
#4401759841
0C
#4401760291
1C
#4401761506
0C
#4401761981
1C
#4401763171
0C
#4401763621
1C
#4401764841
0C
#4401765291
1C
#4401766506
0C
#4401766956
1C
#4401768171
0C
#4401768626
1C
#4401769111
0C
#4401769556
1C
#4401770046
0C
#4401770491
1C
#4401771711
0C
#4401772161
1C
#4401772646
0C
#4401773096
1C
#4401774311
0C
#4401774761
1C
#4401775251
0C
#4401775696
1C
#4401776186
0C
#4401776636
1C
#4401777126
0C
#4401777571
1C
#4401778791
0C
#4401779236
1C
#4401780456
0C
#4401780901
1C
#4401781391
0C
#4401781841
1C
#4401783056
0C
#4401783506
1C
#4401783996
0C
#4401784441
1C
#4401785661
0C
#4401786106
1C
#4401787326
0C
#4401787771
1C
#4401788261
0C
#4401788706
1C
#4401789201
0C
#4401789646
1C
#4401790136
0C
#4401790581
1C
#4401791801
0C
#4401792246
1C
#4401793466
0C
#4401793916
1C
#4401795131
0C
#4401795576
1C
#4401796796
0C
#4401797241
1C
#4401797736
0C
#4401798181
1C
#4401799401
0C
#4401799846
1C
#4401801066
0C
#4401801511
1C
#4401802731
0C
#4401803176
1C
#4401803671
0C
#4401804111
1C
#4401804606
0C
#4401805051
1C
#4401805541
0C
#4401805986
1C
#4401806481
0C
#4401806921
1C
#4401807416
0C
#4401807861
1C
#4401808351
0C
#4401808796
1C
#4401809291
0C
#4401809731
1C
#4401810226
0C
#4401810666
1C
#4401811161
0C
#4401811606
1C
#4401812101
0C
#4401812541
1C
#4401813036
0C
#4401813476
1C
#4401813971
0C
#4401814416
1C
#4401815636
0C
#4401816081
1C
#4401817306
0C
#4401817746
1C
#4401818971
0C
#4401819411
1C
#4401820636
0C
#4401821076
1C
#4401822302
0C
#4401822741
1C
#4401823966
0C
#4401824406
1C
#4401825631
0C
#4401826071
1C
#4401827296
0C
#4401827736
1C
#4401828236
0C
#4401828676
1C
#4401829171
0C
#4401829612
1C
#4401830106
0C
#4401830546
1C
#4401831046
0C
#4401831486
1C
#4401831981
0C
#4401832421
1C
#4401832921
0C
#4401833356
1C
#4401833856
0C
#4401834296
1C
#4401834796
0C
#4401835231
1C
#4401836461
0C
#4401836901
1C
#4401838126
0C
#4401838566
1C
#4401839791
0C
#4401840231
1C
#4401841456
0C
#4401841896
1C
#4401843121
0C
#4401843561
1C
#4401844791
0C
#4401845226
1C
#4401846456
0C
#4401846896
1C
#4401848121
0C
#4401848561
1C
#4401849056
0C
#4401849496
1C
#4401849996
0C
#4401850436
1C
#4401850931
0C
#4401851371
1C
#4401851871
0C
#4401852306
1C
#4401852806
0C
#4401853246
1C
#4401853741
0C
#4401854181
1C
#4401854681
0C
#4401855116
1C
#4401856346
0C
#4401856786
1C
#4401858011
0C
#4401858446
1C
#4401859676
0C
#4401860111
1C
#4401861341
0C
#4401861781
1C
#4401863006
0C
#4401863446
1C
#4401864671
0C
#4401865111
1C
#4401866336
0C
#4401866776
1C
#4401868006
0C
#4401868416
1C
#4401868941
0C
#4401869351
1C
#4401870606
0C
#4401871016
1C
#4401872271
0C
#4401872681
1C
#4401873206
0C
#4401873616
1C
#4401874146
0C
#4401874556
1C
#4401875081
0C
#4401875491
1C
#4401876021
0C
#4401876431
1C
#4401876956
0C
#4401877366
1C
#4401877891
0C
#4401878301
1C
#4401878831
0C
#4401879241
1C
#4401879766
0C
#4401880176
1C
#4401881431
0C
#4401881841
1C
#4401883101
0C
#4401883511
1C
#4401884766
0C
#4401885171
1C
#4401886431
0C
#4401886841
1C
#4401888096
0C
#4401888506
1C
#4401889761
0C
#4401890171
1C
#4401890696
0C
#4401891106
1C
#4401891636
0C
#4401892041
1C
#4401892571
0C
#4401892981
1C
#4401893506
0C
#4401893916
1C
#4401894446
0C
#4401894851
1C
#4401895381
0C
#4401895791
1C
#4401896316
0C
#4401896726
1C
#4401897256
0C
#4401897661
1C
#4401898946
0C
#4401899331
1C
#4401900611
0C
#4401900996
1C
#4401902276
0C
#4401902661
1C
#4401903941
0C
#4401904327
1C
#4401905606
0C
#4401905991
1C
#4401907271
0C
#4401907656
1C
#4401908936
0C
#4401909321
1C
#4401910602
0C
#4401910986
1C
#4401911541
0C
#4401911926
1C
#4401912476
0C
#4401912861
1C
#4401913411
0C
#4401913796
1C
#4401914351
0C
#4401914736
1C
#4401915286
0C
#4401915671
1C
#4401916221
0C
#4401916611
1C
#4401917161
0C
#4401917546
1C
#4401918096
0C
#4401918481
1C
#4401919761
0C
#4401920146
1C
#4401921426
0C
#4401921811
1C
#4401923096
0C
#4401923476
1C
#4401924756
0C
#4401925141
1C
#4401926426
0C
#4401926811
1C
#4401928091
0C
#4401928471
1C
#4401929756
0C
#4401930136
1C
#4401931421
0C
#4401931806
1C
#4401932356
0C
#4401932741
1C
#4401933296
0C
#4401933676
1C
#4401934231
0C
#4401934616
1C
#4401935171
0C
#4401935551
1C
#4401936106
0C
#4401936486
1C
#4401937041
0C
#4401937426
1C
#4401937981
0C
#4401938361
1C
#4401938916
0C
#4401939301
1C
#4401940581
0C
#4401940961
1C
#4401942246
0C
#4401942626
1C
#4401943911
0C
#4401944292
1C
#4401945581
0C
#4401945961
1C
#4401947242
0C
#4401947627
1C
#4401948911
0C
#4401949291
1C
#4401950572
0C
#4401950956
1C
#4401952236
0C
#4401952616
1C
