data/29.vcd
$date 2021-07-27 16:57:07 $end
$version piscope V1 $end
$timescale 1 us $end
$scope module top $end
$var wire 1 A 0 $end
$var wire 1 B 1 $end
$var wire 1 C 2 $end
$var wire 1 D 3 $end
$var wire 1 E 4 $end
$var wire 1 F 5 $end
$var wire 1 G 6 $end
$var wire 1 H 7 $end
$var wire 1 I 8 $end
$var wire 1 J 9 $end
$var wire 1 K 10 $end
$var wire 1 L 11 $end
$var wire 1 M 12 $end
$var wire 1 N 13 $end
$var wire 1 O 14 $end
$var wire 1 P 15 $end
$var wire 1 Q 16 $end
$var wire 1 R 17 $end
$var wire 1 S 18 $end
$var wire 1 T 19 $end
$var wire 1 U 20 $end
$var wire 1 V 21 $end
$var wire 1 W 22 $end
$var wire 1 X 23 $end
$var wire 1 Y 24 $end
$var wire 1 Z 25 $end
$var wire 1 a 26 $end
$var wire 1 b 27 $end
$var wire 1 c 28 $end
$var wire 1 d 29 $end
$var wire 1 e 30 $end
$var wire 1 f 31 $end
$upscope $end
$enddefinitions $end
#4400409863
1A
1B
0C
1D
1E
1F
1G
1H
1I
0J
0K
0L
0M
0N
0O
1P
0Q
0R
0S
0T
0U
0V
0W
0X
0Y
0Z
0a
0b
1c
0d
0e
0f
#4400413223
1C
#4400414878
0C
#4400415323
1C
#4400416543
0C
#4400416988
1C
#4400417478
0C
#4400417923
1C
#4400418413
0C
#4400418863
1C
#4400419353
0C
#4400419798
1C
#4400420288
0C
#4400420733
1C
#4400421223
0C
#4400421673
1C
#4400422163
0C
#4400422608
1C
#4400423098
0C
#4400423543
1C
#4400424033
0C
#4400424478
1C
#4400424968
0C
#4400425413
1C
#4400425908
0C
#4400426353
1C
#4400426843
0C
#4400427288
1C
#4400428508
0C
#4400428953
1C
#4400429443
0C
#4400429888
1C
#4400430378
0C
#4400430823
1C
#4400431313
0C
#4400431763
1C
#4400432253
0C
#4400432698
1C
#4400433188
0C
#4400433633
1C
#4400434123
0C
#4400434573
1C
#4400435063
0C
#4400435508
1C
#4400435998
0C
#4400436443
1C
#4400436933
0C
#4400437383
1C
#4400437873
0C
#4400438318
1C
#4400438808
0C
#4400439253
1C
#4400439743
0C
#4400440193
1C
#4400440678
0C
#4400441128
1C
#4400441618
0C
#4400442063
1C
#4400442553
0C
#4400443003
1C
#4400443493
0C
#4400443938
1C
#4400444428
0C
#4400444873
1C
#4400446093
0C
#4400446538
1C
#4400447028
0C
#4400447473
1C
#4400448693
0C
#4400449138
1C
#4400450358
0C
#4400450803
1C
#4400452023
0C
#4400452468
1C
#4400453688
0C
#4400454133
1C
#4400455353
0C
#4400455798
1C
#4400457018
0C
#4400457463
1C
#4400457953
0C
#4400458403
1C
#4400459623
0C
#4400460068
1C
#4400461288
0C
#4400461733
1C
#4400462953
0C
#4400463398
1C
#4400464613
0C
#4400465058
1C
#4400466283
0C
#4400466723
1C
#4400467943
0C
#4400468388
1C
#4400469613
0C
#4400470053
1C
#4400471273
0C
#4400471718
1C
#4400472938
0C
#4400473383
1C
#4400473873
0C
#4400474323
1C
#4400474813
0C
#4400475258
1C
#4400475748
0C
#4400476193
1C
#4400476688
0C
#4400477133
1C
#4400477623
0C
#4400478068
1C
#4400478558
0C
#4400479003
1C
#4400479493
0C
#4400479943
1C
#4400480433
0C
#4400480878
1C
#4400481368
0C
#4400481813
1C
#4400482303
0C
#4400482748
1C
#4400483968
0C
#4400484413
1C
#4400485633
0C
#4400486078
1C
#4400486568
0C
#4400487018
1C
#4400487508
0C
#4400487953
1C
#4400489173
0C
#4400489618
1C
#4400490838
0C
#4400491283
1C
#4400492503
0C
#4400492948
1C
#4400494168
0C
#4400494613
1C
#4400495108
0C
#4400495553
1C
#4400496043
0C
#4400496488
1C
#4400497708
0C
#4400498153
1C
#4400499378
0C
#4400499818
1C
#4400500313
0C
#4400500758
1C
#4400501248
0C
#4400501693
1C
#4400502183
0C
#4400502628
1C
#4400503848
0C
#4400504293
1C
#4400504788
0C
#4400505233
1C
#4400505723
0C
#4400506168
1C
#4400507388
0C
#4400507833
1C
#4400508323
0C
#4400508768
1C
#4400509258
0C
#4400509708
1C
#4400510928
0C
#4400511373
1C
#4400512593
0C
#4400513038
1C
#4400513528
0C
#4400513973
1C
#4400515193
0C
#4400515638
1C
#4400516858
0C
#4400517303
1C
#4400517793
0C
#4400518238
1C
#4400519463
0C
#4400519903
1C
#4400521128
0C
#4400521573
1C
#4400522063
0C
#4400522508
1C
#4400523728
0C
#4400524173
1C
#4400525393
0C
#4400525838
1C
#4400526328
0C
#4400526773
1C
#4400527268
0C
#4400527713
1C
#4400528203
0C
#4400528648
1C
#4400529143
0C
#4400529588
1C
#4400530808
0C
#4400531253
1C
#4400531743
0C
#4400532188
1C
#4400532678
0C
#4400533123
1C
#4400533613
0C
#4400534058
1C
#4400535283
0C
#4400535723
1C
#4400536948
0C
#4400537388
1C
#4400538613
0C
#4400539053
1C
#4400540278
0C
#4400540723
1C
#4400541213
0C
#4400541658
1C
#4400542878
0C
#4400543323
1C
#4400543813
0C
#4400544258
1C
#4400544753
0C
#4400545198
1C
#4400546418
0C
#4400546863
1C
#4400547353
0C
#4400547798
1C
#4400549018
0C
#4400549463
1C
#4400550683
0C
#4400551128
1C
#4400552348
0C
#4400552793
1C
#4400553283
0C
#4400553728
1C
#4400554953
0C
#4400555393
1C
#4400556618
0C
#4400557058
1C
#4400557548
0C
#4400557993
1C
#4400559218
0C
#4400559658
1C
#4400560148
0C
#4400560598
1C
#4400561088
0C
#4400561533
1C
#4400562028
0C
#4400562468
1C
#4400563693
0C
#4400564133
1C
#4400564628
0C
#4400565073
1C
#4400565563
0C
#4400566008
1C
#4400566503
0C
#4400566948
1C
#4400567438
0C
#4400567883
1C
#4400568373
0C
#4400568818
1C
#4400569308
0C
#4400569758
1C
#4400570248
0C
#4400570693
1C
#4400571183
0C
#4400571628
1C
#4400572853
0C
#4400573293
1C
#4400574518
0C
#4400574958
1C
#4400576183
0C
#4400576623
1C
#4400577873
0C
#4400578288
1C
#4400579538
0C
#4400579953
1C
#4400581178
0C
#4400581618
1C
#4400582868
0C
#4400583283
1C
#4400584533
0C
#4400584948
1C
#4400585443
0C
#4400585883
1C
#4400586378
0C
#4400586823
1C
#4400587313
0C
#4400587758
1C
#4400588253
0C
#4400588693
1C
#4400589188
0C
#4400589633
1C
#4400590128
0C
#4400590593
1C
#4400591063
0C
#4400591503
1C
#4400592003
0C
#4400592443
1C
#4400593693
0C
#4400594108
1C
#4400595358
0C
#4400595773
1C
#4400597023
0C
#4400597413
1C
#4400598688
0C
#4400599078
1C
#4400600353
0C
#4400600768
1C
#4400602018
0C
#4400602428
1C
#4400603683
0C
#4400604098
1C
#4400605343
0C
#4400605763
1C
#4400606283
0C
#4400606698
1C
#4400607218
0C
#4400607608
1C
#4400608158
0C
#4400608568
1C
#4400609093
0C
#4400609483
1C
#4400610028
0C
#4400610443
1C
#4400610968
0C
#4400611378
1C
#4400611903
0C
#4400612318
1C
#4400612843
0C
#4400613253
1C
#4400614508
0C
#4400614893
1C
#4400616173
0C
#4400616583
1C
#4400617838
0C
#4400618228
1C
#4400619503
0C
#4400619888
1C
#4400621168
0C
#4400621558
1C
#4400622833
0C
#4400623248
1C
#4400624473
0C
#4400624913
1C
#4400626163
0C
#4400626553
1C
#4400627098
0C
#4400627488
1C
#4400628038
0C
#4400628428
1C
#4400628973
0C
#4400629388
1C
#4400629913
0C
#4400630303
1C
#4400630848
0C
#4400631238
1C
#4400631783
0C
#4400632198
1C
#4400632723
0C
#4400633113
1C
#4400633658
0C
#4400634048
1C
#4400635298
0C
#4400635738
1C
#4400636963
0C
#4400637403
1C
#4400638628
0C
#4400639073
1C
#4400640293
0C
#4400640738
1C
#4400641958
0C
#4400642403
1C
#4400643623
0C
#4400644068
1C
#4400645288
0C
#4400645738
1C
#4400646953
0C
#4400647403
1C
#4400647918
0C
#4400648338
1C
#4400648853
0C
#4400649278
1C
#4400649788
0C
#4400650213
1C
#4400650728
0C
#4400651148
1C
#4400651663
0C
#4400652088
1C
#4400652598
0C
#4400653048
1C
#4400653538
0C
#4400653958
1C
#4400654473
0C
#4400654898
1C
#4400656108
0C
#4400656588
1C
#4400657778
0C
#4400658253
1C
#4400659443
0C
#4400659893
1C
#4400661108
0C
#4400661558
1C
#4400662773
0C
#4400663248
1C
#4400664438
0C
#4400664888
1C
#4400666103
0C
#4400666553
1C
#4400667768
0C
#4400668218
1C
#4400669433
0C
#4400669883
1C
#4400671098
0C
#4400671548
1C
#4400672038
0C
#4400672483
1C
#4400672978
0C
#4400673423
1C
#4400674638
0C
#4400675088
1C
#4400675573
0C
#4400676023
1C
#4400677238
0C
#4400677688
1C
#4400678178
0C
#4400678623
1C
#4400679113
0C
#4400679558
1C
#4400680048
0C
#4400680498
1C
#4400681713
0C
#4400682163
1C
#4400683378
0C
#4400683828
1C
#4400684313
0C
#4400684763
1C
#4400685983
0C
#4400686428
1C
#4400686918
0C
#4400687363
1C
#4400688583
0C
#4400689028
1C
#4400690248
0C
#4400690693
1C
#4400691183
0C
#4400691628
1C
#4400692118
0C
#4400692563
1C
#4400693058
0C
#4400693503
1C
#4400694723
0C
#4400695168
1C
#4400696388
0C
#4400696833
1C
#4400698053
0C
#4400698498
1C
#4400699718
0C
#4400700163
1C
#4400700653
0C
#4400701098
1C
#4400702318
0C
#4400702763
1C
#4400703988
0C
#4400704428
1C
#4400705653
0C
#4400706093
1C
#4400706588
0C
#4400707033
1C
#4400707523
0C
#4400707968
1C
#4400708463
0C
#4400708903
1C
#4400709398
0C
#4400709843
1C
#4400710333
0C
#4400710778
1C
#4400711273
0C
#4400711713
1C
#4400712208
0C
#4400712648
1C
#4400713143
0C
#4400713588
1C
#4400714083
0C
#4400714523
1C
#4400715018
0C
#4400715463
1C
#4400715953
0C
#4400716398
1C
#4400716893
0C
#4400717333
1C
#4400718558
0C
#4400718998
1C
#4400720223
0C
#4400720668
1C
#4400721888
0C
#4400722328
1C
#4400723553
0C
#4400723993
1C
#4400725218
0C
#4400725663
1C
#4400726889
0C
#4400727328
1C
#4400728548
0C
#4400728993
1C
#4400730218
0C
#4400730658
1C
#4400731153
0C
#4400731593
1C
#4400732088
0C
#4400732528
1C
#4400733028
0C
#4400733463
1C
#4400733963
0C
#4400734403
1C
#4400734898
0C
#4400735338
1C
#4400735838
0C
#4400736278
1C
#4400736773
0C
#4400737213
1C
#4400737713
0C
#4400738148
1C
#4400739378
0C
#4400739813
1C
#4400741043
0C
#4400741483
1C
#4400742708
0C
#4400743123
1C
#4400744373
0C
#4400744813
1C
#4400746038
0C
#4400746478
1C
#4400747703
0C
#4400748143
1C
#4400749373
0C
#4400749808
1C
#4400751038
0C
#4400751473
1C
#4400751973
0C
#4400752414
1C
#4400752908
0C
#4400753348
1C
#4400753848
0C
#4400754288
1C
#4400754783
0C
#4400755224
1C
#4400755718
0C
#4400756158
1C
#4400756658
0C
#4400757098
1C
#4400757593
0C
#4400758033
1C
#4400759263
0C
#4400759698
1C
#4400760923
0C
#4400761364
1C
#4400762593
0C
#4400763028
1C
#4400764258
0C
#4400764694
1C
#4400765923
0C
#4400766358
1C
#4400767588
0C
#4400768024
1C
#4400769253
0C
#4400769689
1C
#4400770919
0C
#4400771358
1C
#4400771858
0C
#4400772293
1C
#4400773524
0C
#4400773934
1C
#4400775189
0C
#4400775599
1C
#4400776123
0C
#4400776533
1C
#4400777059
0C
#4400777469
1C
#4400777998
0C
#4400778408
1C
#4400778933
0C
#4400779343
1C
#4400779869
0C
#4400780279
1C
#4400780808
0C
#4400781218
1C
#4400781743
0C
#4400782153
1C
#4400782683
0C
#4400783089
1C
#4400784348
0C
#4400784753
1C
#4400786014
0C
#4400786424
1C
#4400787679
0C
#4400788084
1C
#4400789344
0C
#4400789754
1C
#4400791009
0C
#4400791419
1C
#4400792694
0C
#4400793084
1C
#4400793609
0C
#4400794019
1C
#4400794544
0C
#4400794954
1C
#4400795484
0C
#4400795894
1C
#4400796419
0C
#4400796829
1C
#4400797359
0C
#4400797769
1C
#4400798294
0C
#4400798704
1C
#4400799234
0C
#4400799639
1C
#4400800169
0C
#4400800579
1C
#4400801859
0C
#4400802244
1C
#4400803524
0C
#4400803909
1C
#4400805189
0C
#4400805574
1C
#4400806854
0C
#4400807239
1C
#4400808519
0C
#4400808904
1C
#4400810184
0C
#4400810569
1C
#4400811849
0C
#4400812234
1C
#4400813514
0C
#4400813899
1C
#4400814444
0C
#4400814834
1C
#4400815389
0C
#4400815774
1C
#4400816324
0C
#4400816709
1C
#4400817264
0C
#4400817644
1C
#4400818199
0C
#4400818584
1C
#4400819134
0C
#4400819519
1C
#4400820074
0C
#4400820459
1C
#4400821009
0C
#4400821394
1C
#4400822674
0C
#4400823059
1C
#4400824339
0C
#4400824724
1C
#4400826009
0C
#4400826389
1C
#4400827674
0C
#4400828054
1C
#4400829334
0C
#4400829719
1C
#4400830999
0C
#4400831384
1C
#4400832669
0C
#4400833049
1C
#4400834334
0C
#4400834714
1C
#4400835269
0C
#4400835654
1C
#4400836204
0C
#4400836589
1C
#4400837144
0C
#4400837524
1C
#4400838079
0C
#4400838464
1C
#4400839014
0C
#4400839399
1C
#4400839954
0C
#4400840334
1C
#4400840889
0C
#4400841274
1C
#4400841829
0C
#4400842209
1C
#4400843494
0C
#4400843874
1C
#4400845159
0C
#4400845539
1C
#4400846824
0C
#4400847204
1C
#4400848489
0C
#4400848874
1C
#4400850154
0C
#4400850534
1C
#4400851819
0C
#4400852199
1C
#4400853484
0C
#4400853864
1C
#4400855149
0C
#4400855529
1C
