data/32.vcd
$date 2021-07-27 16:57:07 $end
$version piscope V1 $end
$timescale 1 us $end
$scope module top $end
$var wire 1 A 0 $end
$var wire 1 B 1 $end
$var wire 1 C 2 $end
$var wire 1 D 3 $end
$var wire 1 E 4 $end
$var wire 1 F 5 $end
$var wire 1 G 6 $end
$var wire 1 H 7 $end
$var wire 1 I 8 $end
$var wire 1 J 9 $end
$var wire 1 K 10 $end
$var wire 1 L 11 $end
$var wire 1 M 12 $end
$var wire 1 N 13 $end
$var wire 1 O 14 $end
$var wire 1 P 15 $end
$var wire 1 Q 16 $end
$var wire 1 R 17 $end
$var wire 1 S 18 $end
$var wire 1 T 19 $end
$var wire 1 U 20 $end
$var wire 1 V 21 $end
$var wire 1 W 22 $end
$var wire 1 X 23 $end
$var wire 1 Y 24 $end
$var wire 1 Z 25 $end
$var wire 1 a 26 $end
$var wire 1 b 27 $end
$var wire 1 c 28 $end
$var wire 1 d 29 $end
$var wire 1 e 30 $end
$var wire 1 f 31 $end
$upscope $end
$enddefinitions $end
#4394935269
1A
1B
0C
1D
1E
1F
1G
1H
1I
0J
0K
0L
0M
0N
0O
1P
0Q
0R
0S
0T
0U
0V
0W
0X
0Y
0Z
0a
0b
1c
0d
0e
0f
#4394938629
1C
#4394940284
0C
#4394940729
1C
#4394941949
0C
#4394942394
1C
#4394942884
0C
#4394943334
1C
#4394943824
0C
#4394944269
1C
#4394944759
0C
#4394945204
1C
#4394945694
0C
#4394946144
1C
#4394946634
0C
#4394947079
1C
#4394947569
0C
#4394948014
1C
#4394948509
0C
#4394948954
1C
#4394949444
0C
#4394949889
1C
#4394950379
0C
#4394950824
1C
#4394951319
0C
#4394951764
1C
#4394952254
0C
#4394952699
1C
#4394953919
0C
#4394954364
1C
#4394954854
0C
#4394955299
1C
#4394955789
0C
#4394956234
1C
#4394956724
0C
#4394957169
1C
#4394957659
0C
#4394958104
1C
#4394958599
0C
#4394959044
1C
#4394959534
0C
#4394959979
1C
#4394960469
0C
#4394960914
1C
#4394961409
0C
#4394961854
1C
#4394962344
0C
#4394962789
1C
#4394963279
0C
#4394963724
1C
#4394964219
0C
#4394964664
1C
#4394965154
0C
#4394965599
1C
#4394966089
0C
#4394966539
1C
#4394967029
0C
#4394967474
1C
#4394967964
0C
#4394968409
1C
#4394968899
0C
#4394969344
1C
#4394969834
0C
#4394970279
1C
#4394971499
0C
#4394971944
1C
#4394972439
0C
#4394972884
1C
#4394974104
0C
#4394974544
1C
#4394975769
0C
#4394976209
1C
#4394977429
0C
#4394977879
1C
#4394979099
0C
#4394979544
1C
#4394980764
0C
#4394981204
1C
#4394982429
0C
#4394982874
1C
#4394983364
0C
#4394983809
1C
#4394985029
0C
#4394985474
1C
#4394986694
0C
#4394987139
1C
#4394988359
0C
#4394988804
1C
#4394990024
0C
#4394990469
1C
#4394991689
0C
#4394992134
1C
#4394993359
0C
#4394993804
1C
#4394995024
0C
#4394995469
1C
#4394996689
0C
#4394997134
1C
#4394998354
0C
#4394998799
1C
#4394999289
0C
#4394999734
1C
#4395000224
0C
#4395000674
1C
#4395001164
0C
#4395001609
1C
#4395002099
0C
#4395002544
1C
#4395003034
0C
#4395003479
1C
#4395003974
0C
#4395004419
1C
#4395004909
0C
#4395005354
1C
#4395005844
0C
#4395006289
1C
#4395006779
0C
#4395007229
1C
#4395007719
0C
#4395008164
1C
#4395009389
0C
#4395009829
1C
#4395011049
0C
#4395011494
1C
#4395011989
0C
#4395012434
1C
#4395012924
0C
#4395013369
1C
#4395014589
0C
#4395015034
1C
#4395016254
0C
#4395016699
1C
#4395017919
0C
#4395018364
1C
#4395019584
0C
#4395020029
1C
#4395020519
0C
#4395020964
1C
#4395021454
0C
#4395021904
1C
#4395023124
0C
#4395023569
1C
#4395024789
0C
#4395025234
1C
#4395025724
0C
#4395026169
1C
#4395026659
0C
#4395027109
1C
#4395027599
0C
#4395028044
1C
#4395029264
0C
#4395029704
1C
#4395030199
0C
#4395030644
1C
#4395031134
0C
#4395031579
1C
#4395032804
0C
#4395033244
1C
#4395033739
0C
#4395034184
1C
#4395034674
0C
#4395035119
1C
#4395036344
0C
#4395036784
1C
#4395038009
0C
#4395038449
1C
#4395038939
0C
#4395039384
1C
#4395040609
0C
#4395041054
1C
#4395042274
0C
#4395042719
1C
#4395043209
0C
#4395043654
1C
#4395044874
0C
#4395045319
1C
#4395046544
0C
#4395046984
1C
#4395047474
0C
#4395047924
1C
#4395048414
0C
#4395048859
1C
#4395049354
0C
#4395049794
1C
#4395051019
0C
#4395051459
1C
#4395051954
0C
#4395052399
1C
#4395052889
0C
#4395053334
1C
#4395053829
0C
#4395054274
1C
#4395055494
0C
#4395055939
1C
#4395056429
0C
#4395056874
1C
#4395058094
0C
#4395058539
1C
#4395059764
0C
#4395060204
1C
#4395060699
0C
#4395061144
1C
#4395062364
0C
#4395062809
1C
#4395064029
0C
#4395064474
1C
#4395065694
0C
#4395066139
1C
#4395066629
0C
#4395067074
1C
#4395068299
0C
#4395068739
1C
#4395069234
0C
#4395069679
1C
#4395070169
0C
#4395070614
1C
#4395071104
0C
#4395071549
1C
#4395072044
0C
#4395072489
1C
#4395072979
0C
#4395073424
1C
#4395073914
0C
#4395074359
1C
#4395074849
0C
#4395075299
1C
#4395076519
0C
#4395076959
1C
#4395078184
0C
#4395078624
1C
#4395079849
0C
#4395080294
1C
#4395081514
0C
#4395081954
1C
#4395083179
0C
#4395083619
1C
#4395084844
0C
#4395085289
1C
#4395086509
0C
#4395086954
1C
#4395088174
0C
#4395088619
1C
#4395089109
0C
#4395089554
1C
#4395090049
0C
#4395090494
1C
#4395090984
0C
#4395091429
1C
#4395091919
0C
#4395092364
1C
#4395092859
0C
#4395093299
1C
#4395093794
0C
#4395094239
1C
#4395094729
0C
#4395095174
1C
#4395095669
0C
#4395096109
1C
#4395096604
0C
#4395097049
1C
#4395098269
0C
#4395098714
1C
#4395099934
0C
#4395100379
1C
#4395101629
0C
#4395102044
1C
#4395103269
0C
#4395103704
1C
#4395104934
0C
#4395105374
1C
#4395106599
0C
#4395107039
1C
#4395108264
0C
#4395108704
1C
#4395109954
0C
#4395110369
1C
#4395110864
0C
#4395111304
1C
#4395111799
0C
#4395112239
1C
#4395112734
0C
#4395113179
1C
#4395113674
0C
#4395114114
1C
#4395114609
0C
#4395115049
1C
#4395115544
0C
#4395115989
1C
#4395116484
0C
#4395116924
1C
#4395117419
0C
#4395117864
1C
#4395119089
0C
#4395119524
1C
#4395120779
0C
#4395121194
1C
#4395122444
0C
#4395122859
1C
#4395124109
0C
#4395124524
1C
#4395125774
0C
#4395126189
1C
#4395127439
0C
#4395127854
1C
#4395129104
0C
#4395129519
1C
#4395130769
0C
#4395131184
1C
#4395131704
0C
#4395132124
1C
#4395132644
0C
#4395133059
1C
#4395133579
0C
#4395133969
1C
#4395134519
0C
#4395134934
1C
#4395135454
0C
#4395135869
1C
#4395136389
0C
#4395136804
1C
#4395137329
0C
#4395137744
1C
#4395138264
0C
#4395138679
1C
#4395139929
0C
#4395140339
1C
#4395141594
0C
#4395142009
1C
#4395143259
0C
#4395143674
1C
#4395144924
0C
#4395145339
1C
#4395146589
0C
#4395147004
1C
#4395148259
0C
#4395148674
1C
#4395149924
0C
#4395150314
1C
#4395151589
0C
#4395151979
1C
#4395152529
0C
#4395152919
1C
#4395153464
0C
#4395153854
1C
#4395154399
0C
#4395154789
1C
#4395155339
0C
#4395155729
1C
#4395156274
0C
#4395156664
1C
#4395157209
0C
#4395157599
1C
#4395158149
0C
#4395158539
1C
#4395159084
0C
#4395159474
1C
#4395160749
0C
#4395161144
1C
#4395162414
0C
#4395162809
1C
#4395164084
0C
#4395164484
1C
#4395165749
0C
#4395166139
1C
#4395167394
0C
#4395167829
1C
#4395169054
0C
#4395169499
1C
#4395170719
0C
#4395171164
1C
#4395172384
0C
#4395172829
1C
#4395173344
0C
#4395173764
1C
#4395174284
0C
#4395174704
1C
#4395175219
0C
#4395175644
1C
#4395176154
0C
#4395176579
1C
#4395177094
0C
#4395177514
1C
#4395178029
0C
#4395178454
1C
#4395178964
0C
#4395179389
1C
#4395179904
0C
#4395180324
1C
#4395181544
0C
#4395181994
1C
#4395183209
0C
#4395183689
1C
#4395184874
0C
#4395185349
1C
#4395186539
0C
#4395187014
1C
#4395188204
0C
#4395188664
1C
#4395189869
0C
#4395190349
1C
#4395191534
0C
#4395192014
1C
#4395193204
0C
#4395193679
1C
#4395194864
0C
#4395195344
1C
#4395196529
0C
#4395197009
1C
#4395197494
0C
#4395197934
1C
#4395198434
0C
#4395198854
1C
#4395200069
0C
#4395200550
1C
#4395201034
0C
#4395201474
1C
#4395202670
0C
#4395203149
1C
#4395203634
0C
#4395204084
1C
#4395204574
0C
#4395205019
1C
#4395205509
0C
#4395205934
1C
#4395207150
0C
#4395207624
1C
#4395208814
0C
#4395209289
1C
#4395209780
0C
#4395210224
1C
#4395211414
0C
#4395211869
1C
#4395212379
0C
#4395212799
1C
#4395214019
0C
#4395214464
1C
#4395215684
0C
#4395216129
1C
#4395216624
0C
#4395217069
1C
#4395217584
0C
#4395218004
1C
#4395218499
0C
#4395218939
1C
#4395220160
0C
#4395220605
1C
#4395221824
0C
#4395222270
1C
#4395223490
0C
#4395223934
1C
#4395225155
0C
#4395225600
1C
#4395226095
0C
#4395226535
1C
#4395227755
0C
#4395228200
1C
#4395229419
0C
#4395229865
1C
#4395231085
0C
#4395231535
1C
#4395232024
0C
#4395232470
1C
#4395232959
0C
#4395233405
1C
#4395233899
0C
#4395234345
1C
#4395234835
0C
#4395235280
1C
#4395235770
0C
#4395236215
1C
#4395236704
0C
#4395237149
1C
#4395237645
0C
#4395238090
1C
#4395238579
0C
#4395239024
1C
#4395239520
0C
#4395239960
1C
#4395240455
0C
#4395240900
1C
#4395241390
0C
#4395241835
1C
#4395242330
0C
#4395242770
1C
#4395243995
0C
#4395244435
1C
#4395245660
0C
#4395246105
1C
#4395247325
0C
#4395247765
1C
#4395248990
0C
#4395249430
1C
#4395250654
0C
#4395251095
1C
#4395252320
0C
#4395252765
1C
#4395253984
0C
#4395254425
1C
#4395255650
0C
#4395256090
1C
#4395256585
0C
#4395257030
1C
#4395257525
0C
#4395257964
1C
#4395258460
0C
#4395258900
1C
#4395259400
0C
#4395259840
1C
#4395260335
0C
#4395260775
1C
#4395261270
0C
#4395261715
1C
#4395262210
0C
#4395262650
1C
#4395263150
0C
#4395263590
1C
#4395264810
0C
#4395265255
1C
#4395266480
0C
#4395266920
1C
#4395268145
0C
#4395268585
1C
#4395269810
0C
#4395270250
1C
#4395271475
0C
#4395271915
1C
#4395273145
0C
#4395273580
1C
#4395274805
0C
#4395275245
1C
#4395276475
0C
#4395276915
1C
#4395277410
0C
#4395277850
1C
#4395278350
0C
#4395278785
1C
#4395279285
0C
#4395279725
1C
#4395280220
0C
#4395280660
1C
#4395281160
0C
#4395281595
1C
#4395282095
0C
#4395282535
1C
#4395283030
0C
#4395283470
1C
#4395284700
0C
#4395285135
1C
#4395286365
0C
#4395286800
1C
#4395288030
0C
#4395288470
1C
#4395289695
0C
#4395290130
1C
#4395291360
0C
#4395291800
1C
#4395293025
0C
#4395293465
1C
#4395294690
0C
#4395295130
1C
#4395296360
0C
#4395296800
1C
#4395297295
0C
#4395297730
1C
#4395298960
0C
#4395299400
1C
#4395300625
0C
#4395301065
1C
#4395301565
0C
#4395302005
1C
#4395302500
0C
#4395302940
1C
#4395303440
0C
#4395303875
1C
#4395304375
0C
#4395304815
1C
#4395305310
0C
#4395305750
1C
#4395306250
0C
#4395306690
1C
#4395307185
0C
#4395307625
1C
#4395308125
0C
#4395308560
1C
#4395309790
0C
#4395310225
1C
#4395311455
0C
#4395311895
1C
#4395313120
0C
#4395313560
1C
#4395314790
0C
#4395315225
1C
#4395316455
0C
#4395316890
1C
#4395318120
0C
#4395318555
1C
#4395319055
0C
#4395319490
1C
#4395319990
0C
#4395320405
1C
#4395320930
0C
#4395321365
1C
#4395321865
0C
#4395322275
1C
#4395322805
0C
#4395323215
1C
#4395323740
0C
#4395324150
1C
#4395324676
0C
#4395325085
1C
#4395325615
0C
#4395326025
1C
#4395327280
0C
#4395327690
1C
#4395328945
0C
#4395329355
1C
#4395330610
0C
#4395331020
1C
#4395332275
0C
#4395332685
1C
#4395333940
0C
#4395334350
1C
#4395335610
0C
#4395336015
1C
#4395337275
0C
#4395337680
1C
#4395338940
0C
#4395339350
1C
#4395339875
0C
#4395340285
1C
#4395340815
0C
#4395341225
1C
#4395341750
0C
#4395342160
1C
#4395342690
0C
#4395343095
1C
#4395343625
0C
#4395344035
1C
#4395344560
0C
#4395344970
1C
#4395345500
0C
#4395345905
1C
#4395346435
0C
#4395346840
1C
#4395348125
0C
#4395348510
1C
#4395349790
0C
#4395350175
1C
#4395351455
0C
#4395351840
1C
#4395353120
0C
#4395353505
1C
#4395354785
0C
#4395355170
1C
#4395356450
0C
#4395356835
1C
#4395358115
0C
#4395358500
1C
#4395359780
0C
#4395360165
1C
#4395360720
0C
#4395361100
1C
#4395361655
0C
#4395362040
1C
#4395362590
0C
#4395362975
1C
#4395363525
0C
#4395363910
1C
#4395364465
0C
#4395364850
1C
#4395365405
0C
#4395365785
1C
#4395366340
0C
#4395366725
1C
#4395367275
0C
#4395367660
1C
#4395368940
0C
#4395369325
1C
#4395370605
0C
#4395370990
1C
#4395372270
0C
#4395372655
1C
#4395373940
0C
#4395374320
1C
#4395375600
0C
#4395375985
1C
#4395377270
0C
#4395377650
1C
#4395378935
0C
#4395379315
1C
#4395380595
0C
#4395380980
1C
