data/t4.vcd
$date 2021-07-29 18:36:59 $end
$version piscope V1 $end
$timescale 1 us $end
$scope module top $end
$var wire 1 A 0 $end
$var wire 1 B 1 $end
$var wire 1 C 2 $end
$var wire 1 D 3 $end
$var wire 1 E 4 $end
$var wire 1 F 5 $end
$var wire 1 G 6 $end
$var wire 1 H 7 $end
$var wire 1 I 8 $end
$var wire 1 J 9 $end
$var wire 1 K 10 $end
$var wire 1 L 11 $end
$var wire 1 M 12 $end
$var wire 1 N 13 $end
$var wire 1 O 14 $end
$var wire 1 P 15 $end
$var wire 1 Q 16 $end
$var wire 1 R 17 $end
$var wire 1 S 18 $end
$var wire 1 T 19 $end
$var wire 1 U 20 $end
$var wire 1 V 21 $end
$var wire 1 W 22 $end
$var wire 1 X 23 $end
$var wire 1 Y 24 $end
$var wire 1 Z 25 $end
$var wire 1 a 26 $end
$var wire 1 b 27 $end
$var wire 1 c 28 $end
$var wire 1 d 29 $end
$var wire 1 e 30 $end
$var wire 1 f 31 $end
$upscope $end
$enddefinitions $end
#12072818805
1A
1B
0C
0D
1F
1G
1H
1I
0J
0K
0L
0M
0N
0O
1P
0Q
0R
0S
0T
0U
0V
0W
0X
0Y
0Z
0a
0b
1c
0d
0e
0f
#12072822155
1C
0E
#12072823820
0C
#12072824255
1C
1E
#12072825485
0C
#12072825915
1C
#12072826420
0C
0E
#12072826855
1C
1E
#12072827355
0C
#12072827790
1C
0E
#12072828295
0C
#12072828725
1C
1E
#12072829230
0C
#12072829660
1C
0E
#12072830165
0C
#12072830595
1C
1E
#12072831100
0C
#12072831535
1C
0E
#12072832040
0C
1E
#12072832470
1C
0E
#12072832975
0C
#12072833405
1C
1E
#12072833910
0C
#12072834340
1C
0E
#12072834845
0C
#12072835275
1C
1E
#12072835780
0C
#12072836215
1C
0E
#12072837445
0C
#12072837875
1C
#12072838385
0C
1E
#12072838815
1C
0E
#12072839320
0C
#12072839750
1C
1E
#12072840255
0C
#12072840690
1C
0E
#12072841195
0C
1E
#12072841625
1C
#12072842130
0C
0E
#12072842560
1C
#12072843065
0C
1E
#12072843500
1C
0E
#12072844000
0C
#12072844435
1C
1E
#12072844940
0C
#12072845370
1C
0E
#12072845875
0C
#12072846305
1C
1E
#12072846810
0C
#12072847245
1C
0E
#12072847750
0C
1E
#12072848180
1C
#12072848685
0C
0E
#12072849115
1C
1E
#12072849620
0C
#12072850050
1C
0E
#12072850555
0C
#12072850985
1C
1E
#12072851495
0C
#12072851925
1C
0E
#12072852430
0C
#12072852860
1C
1E
#12072853365
0C
0E
#12072853795
1C
#12072855030
0C
#12072855460
1C
1E
#12072855965
0C
#12072856400
1C
0E
#12072857630
0C
#12072858060
1C
#12072859295
0C
#12072859725
1C
1E
#12072860960
0C
#12072861390
1C
#12072862625
0C
#12072863055
1C
0E
#12072864290
0C
#12072864720
1C
1E
#12072865955
0C
0E
#12072866385
1C
1E
#12072866895
0C
0E
#12072867325
1C
#12072868555
0C
#12072868990
1C
1E
#12072870220
0C
#12072870655
1C
0E
#12072871885
0C
1E
#12072872315
1C
0E
#12072873550
0C
#12072873980
1C
#12072875215
0C
#12072875645
1C
1E
#12072876880
0C
#12072877310
1C
#12072878545
0C
#12072878975
1C
0E
#12072880210
0C
#12072880640
1C
#12072881875
0C
#12072882305
1C
1E
#12072882815
0C
0E
#12072883245
1C
#12072883750
0C
1E
#12072884180
1C
#12072884685
0C
0E
#12072885115
1C
1E
#12072885620
0C
#12072886055
1C
0E
#12072886560
0C
#12072886990
1C
1E
#12072887495
0C
#12072887925
1C
0E
#12072888430
0C
#12072888860
1C
1E
#12072889365
0C
0E
#12072889800
1C
1E
#12072890305
0C
#12072890735
1C
0E
#12072891240
0C
#12072891670
1C
1E
#12072892905
0C
#12072893335
1C
#12072894570
0C
#12072895000
1C
0E
#12072895505
0C
#12072895940
1C
1E
#12072896445
0C
0E
#12072896875
1C
#12072898105
0C
#12072898540
1C
1E
#12072899770
0C
0E
#12072900205
1C
1E
#12072901440
0C
#12072901870
1C
0E
#12072903100
0C
1E
#12072903535
1C
0E
#12072904040
0C
1E
#12072904470
1C
0E
#12072904975
0C
#12072905410
1C
1E
#12072906640
0C
0E
#12072907075
1C
1E
#12072908305
0C
#12072908740
1C
0E
#12072909245
0C
#12072909675
1C
1E
#12072910180
0C
#12072910610
1C
0E
#12072911115
0C
1E
#12072911550
1C
0E
#12072912780
0C
1E
#12072913210
1C
0E
#12072913720
0C
1E
#12072914150
1C
#12072914655
0C
0E
#12072915090
1C
1E
#12072916320
0C
0E
#12072916750
1C
1E
#12072917255
0C
#12072917690
1C
0E
#12072918195
0C
1E
#12072918625
1C
#12072919855
0C
#12072920290
1C
0E
#12072921520
0C
1E
#12072921950
1C
0E
#12072922455
0C
#12072922885
1C
1E
#12072924120
0C
#12072924555
1C
0E
#12072925785
0C
1E
#12072926220
1C
#12072926720
0C
#12072927155
1C
0E
#12072928390
0C
1E
#12072928820
1C
0E
#12072930055
0C
#12072930485
1C
1E
#12072930990
0C
#12072931425
1C
0E
#12072932655
0C
#12072933085
1C
#12072934320
0C
#12072934750
1C
1E
#12072935260
0C
0E
#12072935690
1C
#12072936195
0C
1E
#12072936625
1C
#12072937130
0C
0E
#12072937560
1C
#12072938070
0C
1E
#12072938500
1C
0E
#12072939735
0C
#12072940165
1C
#12072940670
0C
1E
#12072941100
1C
#12072941605
0C
0E
#12072942040
1C
1E
#12072942545
0C
#12072942975
1C
0E
#12072944205
0C
1E
#12072944640
1C
0E
#12072945870
0C
#12072946305
1C
1E
#12072947540
0C
#12072947970
1C
0E
#12072949205
0C
1E
#12072949635
1C
0E
#12072950140
0C
#12072950570
1C
1E
#12072951805
0C
#12072952235
1C
0E
#12072952740
0C
#12072953175
1C
1E
#12072953680
0C
#12072954110
1C
0E
#12072954615
0C
1E
#12072955045
1C
#12072955555
0C
0E
#12072955985
1C
1E
#12072956490
0C
#12072956920
1C
0E
#12072957425
0C
#12072957860
1C
1E
#12072959090
0C
#12072959520
1C
#12072960030
0C
0E
#12072960460
1C
1E
#12072961690
0C
0E
#12072962125
1C
1E
#12072963355
0C
#12072963790
1C
0E
#12072965020
0C
1E
#12072965455
1C
0E
#12072966690
0C
#12072967120
1C
1E
#12072968350
0C
0E
#12072968785
1C
1E
#12072970015
0C
#12072970450
1C
0E
#12072970955
0C
#12072971385
1C
1E
#12072972620
0C
#12072973050
1C
0E
#12072973555
0C
#12072973990
1C
1E
#12072974495
0C
#12072974925
1C
0E
#12072975430
0C
#12072975865
1C
#12072976365
0C
#12072976800
1C
1E
#12072977305
0C
#12072977735
1C
0E
#12072978240
0C
#12072978670
1C
1E
#12072979175
0C
#12072979605
1C
0E
#12072980110
0C
#12072980545
1C
1E
#12072981775
0C
#12072982205
1C
#12072983440
0C
#12072983870
1C
0E
#12072985105
0C
#12072985540
1C
1E
#12072986770
0C
0E
#12072987205
1C
1E
#12072988440
0C
#12072988870
1C
0E
#12072990100
0C
1E
#12072990535
1C
0E
#12072991770
0C
#12072992200
1C
1E
#12072993435
0C
#12072993865
1C
0E
#12072994370
0C
#12072994800
1C
1E
#12072995305
0C
#12072995740
1C
0E
#12072996245
0C
#12072996675
1C
1E
#12072997180
0C
#12072997610
1C
0E
#12072998120
0C
1E
#12072998550
1C
0E
#12072999055
0C
#12072999485
1C
1E
#12072999990
0C
#12073000420
1C
0E
#12073000930
0C
#12073001360
1C
1E
#12073002590
0C
#12073003025
1C
0E
#12073004260
0C
#12073004690
1C
#12073005920
0C
#12073006355
1C
1E
#12073007585
0C
0E
#12073008020
1C
1E
#12073009251
0C
#12073009680
1C
#12073010915
0C
#12073011350
1C
0E
#12073012580
0C
#12073013010
1C
1E
#12073014245
0C
0E
#12073014680
1C
1E
#12073015186
0C
0E
#12073015615
1C
1E
#12073016120
0C
#12073016550
1C
0E
#12073017055
0C
#12073017490
1C
1E
#12073017995
0C
#12073018425
1C
0E
#12073018930
0C
#12073019365
1C
#12073019865
0C
#12073020300
1C
1E
#12073020805
0C
#12073021236
1C
0E
#12073021740
0C
#12073022171
1C
1E
#12073023406
0C
#12073023835
1C
#12073025071
0C
#12073025506
1C
0E
#12073026736
0C
#12073027171
1C
1E
#12073028400
0C
0E
#12073028831
1C
1E
#12073030066
0C
#12073030496
1C
#12073031731
0C
#12073032161
1C
0E
#12073033396
0C
#12073033826
1C
#12073035060
0C
#12073035496
1C
1E
#12073036001
0C
0E
#12073036431
1C
#12073036936
0C
1E
#12073037366
1C
0E
#12073037871
0C
#12073038306
1C
1E
#12073038811
0C
#12073039241
1C
0E
#12073039746
0C
#12073040176
1C
1E
#12073040681
0C
#12073041116
1C
#12073041621
0C
#12073042050
1C
0E
#12073042556
0C
#12073042986
1C
1E
#12073044221
0C
#12073044651
1C
#12073045886
0C
#12073046316
1C
0E
#12073047551
0C
#12073047981
1C
#12073049216
0C
#12073049646
1C
1E
#12073050881
0C
#12073051316
1C
0E
#12073052545
0C
1E
#12073052976
1C
0E
#12073054211
0C
#12073054641
1C
#12073055876
0C
#12073056306
1C
1E
#12073056816
0C
0E
#12073057246
1C
#12073057751
0C
1E
#12073058181
1C
#12073058686
0C
0E
#12073059121
1C
1E
#12073059626
0C
#12073060056
1C
0E
#12073060560
0C
#12073060991
1C
1E
#12073061496
0C
#12073061931
1C
0E
#12073062436
0C
1E
#12073062866
1C
0E
#12073063371
0C
#12073063805
1C
1E
#12073065036
0C
0E
#12073065466
1C
1E
#12073066706
0C
#12073067136
1C
0E
#12073068371
0C
#12073068801
1C
1E
#12073070036
0C
0E
#12073070466
1C
1E
#12073071701
0C
#12073072131
1C
0E
#12073073366
0C
#12073073796
1C
#12073075031
0C
#12073075461
1C
1E
#12073076696
0C
#12073077131
1C
0E
#12073078366
0C
#12073078796
1C
#12073080031
0C
#12073080461
1C
1E
#12073080966
0C
#12073081396
1C
0E
#12073081901
0C
#12073082336
1C
1E
#12073083566
0C
#12073084001
1C
0E
#12073084501
0C
#12073084936
1C
1E
#12073086171
0C
#12073086601
1C
#12073087106
0C
0E
#12073087541
1C
1E
#12073088046
0C
#12073088476
1C
0E
#12073088981
0C
#12073089411
1C
1E
#12073090646
0C
#12073091076
1C
#12073092311
0C
#12073092741
1C
0E
#12073093246
0C
#12073093681
1C
1E
#12073094911
0C
#12073095346
1C
0E
#12073095851
0C
#12073096281
1C
1E
#12073097516
0C
#12073097946
1C
0E
#12073099181
0C
1E
#12073099611
1C
0E
#12073100116
0C
1E
#12073100551
1C
0E
#12073101051
0C
#12073101486
1C
1E
#12073101991
0C
#12073102421
1C
0E
#12073103656
0C
#12073104086
1C
#12073105321
0C
#12073105751
1C
1E
#12073106986
0C
#12073107416
1C
#12073108651
0C
#12073109081
1C
0E
#12073109591
0C
1E
#12073110021
1C
#12073111256
0C
#12073111686
1C
0E
#12073112921
0C
#12073113351
1C
#12073114586
0C
#12073115016
1C
1E
#12073115521
0C
#12073115951
1C
0E
#12073116456
0C
#12073116891
1C
1E
#12073117396
0C
0E
#12073117826
1C
#12073118331
0C
1E
#12073118761
1C
0E
#12073119271
0C
#12073119701
1C
1E
#12073120206
0C
#12073120636
1C
0E
#12073121141
0C
#12073121571
1C
1E
#12073122081
0C
0E
#12073122511
1C
1E
#12073123016
0C
#12073123446
1C
0E
#12073123951
0C
#12073124381
1C
1E
#12073124891
0C
#12073125316
1C
0E
#12073125826
0C
#12073126256
1C
1E
#12073127511
0C
#12073127921
1C
0E
#12073129176
0C
1E
#12073129586
1C
0E
#12073130841
0C
#12073131251
1C
1E
#12073132511
0C
#12073132916
1C
#12073134171
0C
#12073134581
1C
0E
#12073135836
0C
1E
#12073136246
1C
0E
#12073137506
0C
#12073137911
1C
1E
#12073139166
0C
0E
#12073139576
1C
1E
#12073140111
0C
0E
#12073140511
1C
1E
#12073141046
0C
#12073141446
1C
0E
#12073141981
0C
#12073142386
1C
1E
#12073142921
0C
0E
#12073143321
1C
#12073143856
0C
1E
#12073144256
1C
#12073144791
0C
0E
#12073145171
1C
1E
#12073145726
0C
#12073146106
1C
0E
#12073146666
0C
#12073147046
1C
1E
#12073148326
0C
0E
#12073148736
1C
#12073149991
0C
1E
#12073150376
1C
0E
#12073151656
0C
#12073152041
1C
1E
#12073153321
0C
0E
#12073153731
1C
1E
#12073154991
0C
#12073155396
1C
0E
#12073156631
0C
#12073157061
1C
#12073158296
0C
#12073158726
1C
1E
#12073159961
0C
#12073160391
1C
#12073160926
0C
0E
#12073161326
1C
#12073161861
0C
1E
#12073162266
1C
0E
#12073162796
0C
#12073163201
1C
1E
#12073163736
0C
0E
#12073164136
1C
#12073164671
0C
1E
#12073165071
1C
#12073165606
0C
0E
#12073166011
1C
1E
#12073166541
0C
#12073166946
1C
0E
#12073168181
0C
1E
#12073168586
1C
0E
#12073169846
0C
#12073170251
1C
1E
#12073171511
0C
#12073171916
1C
#12073173176
0C
#12073173581
1C
0E
#12073174841
0C
#12073175246
1C
#12073176506
0C
#12073176911
1C
1E
#12073178171
0C
#12073178581
1C
0E
#12073179836
0C
1E
#12073180241
1C
0E
#12073180801
0C
1E
#12073181181
1C
#12073182441
0C
#12073182846
1C
0E
#12073184106
0C
#12073184511
1C
1E
#12073185071
0C
#12073185446
1C
0E
#12073186006
0C
#12073186386
1C
1E
#12073186946
0C
0E
#12073187321
1C
#12073187881
0C
1E
#12073188281
1C
#12073188791
0C
0E
#12073189196
1C
1E
#12073189726
0C
#12073190131
1C
0E
#12073190661
0C
#12073191066
1C
1E
#12073191601
0C
#12073192006
1C
0E
#12073193261
0C
#12073193666
1C
#12073194926
0C
#12073195336
1C
1E
#12073196591
0C
#12073197001
1C
0E
#12073198261
0C
#12073198666
1C
#12073199926
0C
#12073200331
1C
1E
#12073201591
0C
#12073201996
1C
#12073202526
0C
0E
#12073202956
1C
#12073203466
0C
1E
#12073203871
1C
0E
#12073204401
0C
#12073204806
1C
1E
#12073205341
0C
0E
#12073205746
1C
#12073206276
0C
1E
#12073206706
1C
#12073207211
0C
0E
#12073207641
1C
#12073208151
0C
1E
#12073208566
1C
#12073209086
0C
0E
#12073209491
1C
1E
#12073210751
0C
#12073211156
1C
0E
#12073212416
0C
1E
#12073212821
1C
0E
#12073214081
0C
#12073214486
1C
1E
#12073215746
0C
0E
#12073216151
1C
1E
#12073217411
0C
#12073217816
1C
0E
#12073219076
0C
#12073219481
1C
#12073220741
0C
#12073221146
1C
1E
#12073222411
0C
#12073222816
1C
0E
#12073223346
0C
#12073223751
1C
1E
#12073224281
0C
#12073224686
1C
0E
#12073225221
0C
1E
#12073225626
1C
#12073226156
0C
0E
#12073226561
1C
#12073227096
0C
1E
#12073227521
1C
#12073228031
0C
0E
#12073228436
1C
1E
#12073228966
0C
#12073229371
1C
0E
#12073229906
0C
1E
#12073230306
1C
#12073231571
0C
#12073231976
1C
0E
#12073233236
0C
#12073233641
1C
#12073234901
0C
#12073235306
1C
1E
#12073236566
0C
#12073236971
1C
0E
#12073238236
0C
#12073238641
1C
#12073239901
0C
#12073240306
1C
1E
#12073241566
0C
#12073241971
1C
0E
#12073243231
0C
1E
#12073243636
1C
0E
#12073244171
0C
1E
#12073244576
1C
#12073245106
0C
0E
#12073245511
1C
1E
#12073246046
0C
#12073246451
1C
0E
#12073246981
0C
#12073247386
1C
1E
#12073247921
0C
0E
#12073248321
1C
#12073248856
0C
1E
#12073249261
1C
0E
#12073249791
0C
#12073250197
1C
1E
#12073250731
0C
#12073251136
1C
0E
#12073252396
0C
#12073252826
1C
#12073254061
0C
#12073254466
1C
1E
#12073255726
0C
#12073256131
1C
0E
#12073257391
0C
1E
#12073257796
1C
0E
#12073259056
0C
#12073259461
1C
1E
#12073260721
0C
#12073261131
1C
0E
#12073262386
0C
1E
#12073262791
1C
0E
#12073264051
0C
#12073264481
1C
