data/t5.vcd
$date 2021-07-29 18:36:59 $end
$version piscope V1 $end
$timescale 1 us $end
$scope module top $end
$var wire 1 A 0 $end
$var wire 1 B 1 $end
$var wire 1 C 2 $end
$var wire 1 D 3 $end
$var wire 1 E 4 $end
$var wire 1 F 5 $end
$var wire 1 G 6 $end
$var wire 1 H 7 $end
$var wire 1 I 8 $end
$var wire 1 J 9 $end
$var wire 1 K 10 $end
$var wire 1 L 11 $end
$var wire 1 M 12 $end
$var wire 1 N 13 $end
$var wire 1 O 14 $end
$var wire 1 P 15 $end
$var wire 1 Q 16 $end
$var wire 1 R 17 $end
$var wire 1 S 18 $end
$var wire 1 T 19 $end
$var wire 1 U 20 $end
$var wire 1 V 21 $end
$var wire 1 W 22 $end
$var wire 1 X 23 $end
$var wire 1 Y 24 $end
$var wire 1 Z 25 $end
$var wire 1 a 26 $end
$var wire 1 b 27 $end
$var wire 1 c 28 $end
$var wire 1 d 29 $end
$var wire 1 e 30 $end
$var wire 1 f 31 $end
$upscope $end
$enddefinitions $end
#12074387359
1A
1B
0C
0D
1F
1G
1H
1I
0J
0K
0L
0M
0N
0O
1P
0Q
0R
0S
0T
0U
0V
0W
0X
0Y
0Z
0a
0b
1c
0d
0e
0f
#12074390704
1C
#12074392374
0C
0E
#12074392804
1C
1E
#12074394039
0C
0E
#12074394469
1C
1E
#12074394974
0C
#12074395404
1C
0E
#12074395909
0C
1E
#12074396344
1C
0E
#12074396849
0C
#12074397279
1C
1E
#12074397784
0C
#12074398214
1C
0E
#12074398719
0C
#12074399154
1C
1E
#12074399654
0C
#12074400089
1C
0E
#12074400594
0C
1E
#12074401024
1C
#12074401529
0C
0E
#12074401959
1C
#12074402464
0C
1E
#12074402899
1C
0E
#12074403404
0C
#12074403834
1C
1E
#12074404339
0C
#12074404769
1C
0E
#12074406004
0C
#12074406434
1C
#12074406939
0C
1E
#12074407374
1C
0E
#12074407879
0C
#12074408309
1C
1E
#12074408814
0C
#12074409249
1C
0E
#12074409749
0C
#12074410184
1C
1E
#12074410689
0C
0E
#12074411119
1C
1E
#12074411624
0C
#12074412054
1C
0E
#12074412559
0C
#12074412994
1C
1E
#12074413499
0C
#12074413929
1C
0E
#12074414434
0C
#12074414864
1C
1E
#12074415369
0C
0E
#12074415804
1C
1E
#12074416309
0C
#12074416739
1C
0E
#12074417244
0C
#12074417674
1C
1E
#12074418179
0C
#12074418614
1C
0E
#12074419114
0C
#12074419549
1C
1E
#12074420054
0C
0E
#12074420484
1C
#12074420989
0C
1E
#12074421419
1C
#12074421924
0C
0E
#12074422354
1C
#12074423589
0C
#12074424019
1C
1E
#12074424529
0C
0E
#12074424959
1C
#12074426189
0C
#12074426619
1C
1E
#12074427854
0C
0E
#12074428289
1C
1E
#12074429519
0C
#12074429949
1C
0E
#12074431184
0C
1E
#12074431614
1C
0E
#12074432849
0C
#12074433279
1C
1E
#12074434514
0C
#12074434944
1C
#12074435449
0C
0E
#12074435884
1C
1E
#12074437114
0C
0E
#12074437544
1C
1E
#12074438779
0C
#12074439209
1C
#12074440444
0C
#12074440874
1C
0E
#12074442109
0C
#12074442539
1C
#12074443774
0C
#12074444204
1C
1E
#12074445439
0C
#12074445869
1C
0E
#12074447104
0C
1E
#12074447534
1C
0E
#12074448769
0C
#12074449199
1C
1E
#12074450434
0C
0E
#12074450864
1C
1E
#12074451369
0C
0E
#12074451804
1C
1E
#12074452309
0C
#12074452739
1C
0E
#12074453244
0C
#12074453674
1C
1E
#12074454179
0C
#12074454609
1C
0E
#12074455119
0C
1E
#12074455549
1C
#12074456054
0C
0E
#12074456484
1C
#12074456989
0C
1E
#12074457419
1C
#12074457924
0C
0E
#12074458359
1C
1E
#12074458864
0C
#12074459294
1C
0E
#12074459799
0C
#12074460234
1C
1E
#12074461459
0C
0E
#12074461894
1C
1E
#12074463129
0C
#12074463559
1C
0E
#12074464064
0C
#12074464499
1C
1E
#12074465004
0C
0E
#12074465434
1C
#12074466664
0C
#12074467099
1C
1E
#12074468334
0C
#12074468764
1C
0E
#12074469999
0C
1E
#12074470429
1C
0E
#12074471664
0C
#12074472094
1C
1E
#12074472599
0C
#12074473034
1C
0E
#12074473539
0C
#12074473969
1C
1E
#12074475204
0C
#12074475634
1C
0E
#12074476869
0C
#12074477299
1C
#12074477809
0C
1E
#12074478239
1C
0E
#12074478744
0C
#12074479174
1C
1E
#12074479679
0C
#12074480109
1C
0E
#12074481344
0C
#12074481774
1C
#12074482279
0C
1E
#12074482714
1C
0E
#12074483219
0C
#12074483649
1C
1E
#12074484884
0C
#12074485314
1C
#12074485819
0C
0E
#12074486254
1C
1E
#12074486759
0C
#12074487189
1C
0E
#12074488419
0C
1E
#12074488854
1C
0E
#12074490084
0C
#12074490519
1C
1E
#12074491024
0C
#12074491454
1C
0E
#12074492689
0C
#12074493119
1C
1E
#12074494354
0C
0E
#12074494784
1C
1E
#12074495289
0C
#12074495724
1C
#12074496954
0C
0E
#12074497389
1C
1E
#12074498624
0C
#12074499054
1C
0E
#12074499559
0C
#12074499994
1C
1E
#12074501224
0C
#12074501654
1C
#12074502889
0C
#12074503319
1C
0E
#12074503824
0C
#12074504259
1C
1E
#12074504764
0C
0E
#12074505194
1C
#12074505699
0C
1E
#12074506129
1C
#12074506639
0C
0E
#12074507069
1C
1E
#12074508304
0C
#12074508734
1C
#12074509239
0C
0E
#12074509669
1C
#12074510174
0C
1E
#12074510609
1C
0E
#12074511109
0C
#12074511544
1C
1E
#12074512779
0C
#12074513209
1C
#12074514439
0C
#12074514874
1C
0E
#12074516104
0C
1E
#12074516539
1C
0E
#12074517774
0C
#12074518204
1C
1E
#12074518709
0C
#12074519139
1C
0E
#12074520374
0C
#12074520804
1C
1E
#12074521314
0C
#12074521744
1C
0E
#12074522249
0C
#12074522679
1C
1E
#12074523184
0C
#12074523619
1C
#12074524124
0C
#12074524554
1C
0E
#12074525059
0C
#12074525489
1C
1E
#12074525994
0C
#12074526429
1C
0E
#12074527659
0C
#12074528094
1C
1E
#12074528599
0C
#12074529029
1C
0E
#12074530264
0C
#12074530694
1C
#12074531929
0C
#12074532359
1C
1E
#12074533594
0C
#12074534024
1C
#12074535259
0C
#12074535689
1C
0E
#12074536924
0C
#12074537354
1C
#12074538584
0C
#12074539019
1C
1E
#12074539524
0C
#12074539954
1C
0E
#12074541189
0C
#12074541619
1C
1E
#12074542124
0C
#12074542559
1C
0E
#12074543064
0C
#12074543494
1C
1E
#12074543999
0C
#12074544429
1C
0E
#12074544934
0C
#12074545369
1C
#12074545874
0C
#12074546304
1C
1E
#12074546809
0C
#12074547239
1C
0E
#12074547744
0C
#12074548179
1C
1E
#12074548684
0C
#12074549114
1C
0E
#12074550350
0C
#12074550779
1C
1E
#12074552009
0C
0E
#12074552444
1C
1E
#12074553674
0C
#12074554109
1C
0E
#12074555339
0C
1E
#12074555769
1C
0E
#12074557004
0C
#12074557434
1C
#12074558669
0C
#12074559099
1C
1E
#12074560334
0C
#12074560769
1C
0E
#12074562004
0C
#12074562434
1C
#12074562939
0C
1E
#12074563369
1C
0E
#12074563874
0C
#12074564309
1C
1E
#12074564814
0C
#12074565244
1C
0E
#12074565749
0C
#12074566179
1C
1E
#12074566689
0C
0E
#12074567119
1C
1E
#12074567624
0C
#12074568054
1C
0E
#12074568559
0C
#12074568994
1C
1E
#12074569499
0C
#12074569929
1C
0E
#12074571164
0C
#12074571594
1C
1E
#12074572829
0C
0E
#12074573259
1C
1E
#12074574494
0C
#12074574924
1C
0E
#12074576159
0C
#12074576589
1C
#12074577824
0C
#12074578254
1C
1E
#12074579489
0C
#12074579919
1C
#12074581154
0C
#12074581584
1C
0E
#12074582819
0C
#12074583249
1C
#12074583754
0C
1E
#12074584189
1C
0E
#12074584694
0C
#12074585125
1C
1E
#12074585629
0C
#12074586059
1C
0E
#12074586564
0C
#12074586999
1C
1E
#12074587504
0C
0E
#12074587934
1C
#12074588439
0C
1E
#12074588869
1C
0E
#12074589374
0C
#12074589804
1C
1E
#12074590314
0C
#12074590744
1C
0E
#12074591974
0C
#12074592409
1C
1E
#12074593639
0C
0E
#12074594069
1C
1E
#12074595304
0C
#12074595734
1C
#12074596969
0C
#12074597400
1C
0E
#12074598634
0C
#12074599064
1C
#12074600299
0C
#12074600730
1C
1E
#12074601964
0C
#12074602394
1C
#12074603630
0C
#12074604059
1C
0E
#12074604564
0C
#12074604999
1C
1E
#12074605504
0C
0E
#12074605934
1C
#12074606439
0C
1E
#12074606870
1C
0E
#12074607379
0C
#12074607809
1C
1E
#12074608314
0C
#12074608745
1C
0E
#12074609249
0C
#12074609679
1C
1E
#12074610184
0C
#12074610619
1C
#12074611124
0C
#12074611555
1C
0E
#12074612790
0C
1E
#12074613219
1C
0E
#12074614455
0C
#12074614884
1C
1E
#12074616120
0C
#12074616549
1C
#12074617784
0C
#12074618215
1C
0E
#12074619450
0C
#12074619880
1C
#12074621114
0C
#12074621544
1C
1E
#12074622780
0C
#12074623210
1C
#12074624445
0C
#12074624880
1C
0E
#12074625385
0C
1E
#12074625814
1C
#12074626320
0C
0E
#12074626750
1C
#12074627255
0C
1E
#12074627684
1C
#12074628190
0C
0E
#12074628625
1C
1E
#12074629129
0C
#12074629559
1C
0E
#12074630065
0C
#12074630495
1C
1E
#12074631004
0C
0E
#12074631435
1C
#12074631940
0C
1E
#12074632370
1C
0E
#12074633605
0C
1E
#12074634035
1C
0E
#12074635270
0C
#12074635700
1C
1E
#12074636935
0C
0E
#12074637365
1C
1E
#12074638600
0C
#12074639030
1C
0E
#12074640265
0C
#12074640695
1C
#12074641955
0C
#12074642365
1C
1E
#12074643620
0C
#12074644030
1C
0E
#12074645285
0C
1E
#12074645695
1C
0E
#12074646950
0C
#12074647360
1C
1E
#12074648615
0C
0E
#12074649025
1C
1E
#12074649560
0C
0E
#12074649960
1C
#12074650495
0C
1E
#12074650900
1C
0E
#12074652155
0C
1E
#12074652565
1C
0E
#12074653095
0C
1E
#12074653500
1C
#12074654760
0C
#12074655165
1C
0E
#12074655700
0C
1E
#12074656100
1C
#12074656635
0C
0E
#12074657040
1C
#12074657575
0C
1E
#12074657975
1C
0E
#12074659235
0C
1E
#12074659620
1C
#12074660900
0C
0E
#12074661285
1C
1E
#12074661840
0C
#12074662220
1C
0E
#12074663500
0C
1E
#12074663885
1C
#12074664445
0C
#12074664825
1C
0E
#12074666105
0C
1E
#12074666490
1C
#12074667770
0C
0E
#12074668155
1C
1E
#12074668710
0C
#12074669090
1C
0E
#12074669650
0C
1E
#12074670050
1C
#12074670585
0C
0E
#12074670965
1C
1E
#12074672225
0C
#12074672630
1C
#12074673890
0C
#12074674320
1C
0E
#12074675555
0C
#12074675985
1C
#12074677215
0C
#12074677650
1C
1E
#12074678185
0C
#12074678560
1C
0E
#12074679820
0C
#12074680250
1C
#12074681485
0C
#12074681915
1C
1E
#12074683150
0C
#12074683560
1C
0E
#12074684115
0C
#12074684520
1C
1E
#12074685055
0C
0E
#12074685455
1C
#12074685990
0C
1E
#12074686370
1C
0E
#12074686925
0C
#12074687305
1C
1E
#12074687865
0C
#12074688240
1C
0E
#12074688800
0C
#12074689180
1C
1E
#12074689735
0C
#12074690115
1C
0E
#12074690675
0C
1E
#12074691050
1C
#12074691610
0C
0E
#12074691990
1C
1E
#12074692545
0C
#12074692925
1C
0E
#12074693485
0C
#12074693860
1C
1E
#12074694420
0C
#12074694800
1C
0E
#12074696055
0C
#12074696460
1C
#12074697720
0C
#12074698130
1C
1E
#12074699385
0C
#12074699790
1C
#12074701055
0C
0E
#12074701460
1C
#12074702720
0C
#12074703125
1C
1E
#12074704385
0C
#12074704790
1C
#12074706050
0C
#12074706455
1C
0E
#12074707715
0C
#12074708120
1C
1E
#12074708655
0C
#12074709080
1C
#12074709590
0C
0E
#12074709995
1C
1E
#12074710530
0C
0E
#12074710930
1C
#12074711465
0C
1E
#12074711895
1C
#12074712400
0C
0E
#12074712805
1C
1E
#12074713335
0C
#12074713765
1C
0E
#12074714275
0C
#12074714700
1C
1E
#12074715210
0C
#12074715615
1C
0E
#12074716870
0C
#12074717280
1C
1E
#12074718535
0C
0E
#12074718945
1C
1E
#12074720200
0C
#12074720635
1C
0E
#12074721870
0C
#12074722275
1C
#12074723530
0C
#12074723940
1C
1E
#12074725200
0C
#12074725605
1C
#12074726860
0C
#12074727280
1C
#12074728530
0C
0E
#12074728935
1C
#12074729470
0C
1E
#12074729895
1C
#12074730405
0C
0E
#12074730810
1C
1E
#12074731340
0C
#12074731745
1C
0E
#12074732280
0C
1E
#12074732685
1C
#12074733215
0C
0E
#12074733645
1C
#12074734155
0C
1E
#12074734560
1C
0E
#12074735090
0C
#12074735495
1C
1E
#12074736755
0C
#12074737160
1C
0E
#12074738420
0C
1E
#12074738825
1C
0E
#12074740085
0C
#12074740490
1C
1E
#12074741750
0C
0E
#12074742155
1C
1E
#12074743415
0C
#12074743820
1C
0E
#12074745080
0C
1E
#12074745510
1C
0E
#12074746745
0C
#12074747155
1C
1E
#12074748410
0C
#12074748820
1C
0E
#12074749350
0C
#12074749775
1C
#12074751015
0C
1E
#12074751420
1C
#12074752675
0C
#12074753085
1C
0E
#12074753615
0C
#12074754020
1C
1E
#12074754555
0C
0E
#12074754980
1C
#12074755490
0C
1E
#12074755895
1C
#12074756425
0C
0E
#12074756830
1C
#12074757365
0C
1E
#12074757770
1C
0E
#12074758300
0C
#12074758705
1C
1E
#12074759235
0C
#12074759640
1C
0E
#12074760175
0C
1E
#12074760600
1C
#12074761835
0C
#12074762240
1C
0E
#12074763505
0C
#12074763910
1C
1E
#12074765165
0C
0E
#12074765595
1C
1E
#12074766835
0C
#12074767240
1C
0E
#12074768500
0C
1E
#12074768905
1C
0E
#12074770165
0C
#12074770570
1C
1E
#12074771100
0C
#12074771505
1C
0E
#12074772040
0C
#12074772440
1C
1E
#12074772975
0C
#12074773375
1C
0E
#12074773910
0C
1E
#12074774340
1C
#12074774850
0C
0E
#12074775250
1C
#12074775785
0C
1E
#12074776190
1C
0E
#12074776720
0C
#12074777125
1C
1E
#12074777660
0C
0E
#12074778060
1C
#12074779320
0C
#12074779725
1C
#12074780985
0C
#12074781395
1C
1E
#12074782650
0C
#12074783055
1C
0E
#12074784315
0C
1E
#12074784720
1C
0E
#12074785980
0C
#12074786385
1C
1E
#12074787645
0C
0E
#12074788050
1C
1E
#12074789310
0C
#12074789715
1C
0E
#12074790980
0C
#12074791385
1C
1E
#12074791920
0C
#12074792320
1C
0E
#12074792855
0C
#12074793255
1C
1E
#12074793790
0C
#12074794195
1C
0E
#12074794725
0C
1E
#12074795130
1C
#12074795665
0C
0E
#12074796070
1C
1E
#12074796600
0C
#12074797005
1C
0E
#12074797540
0C
#12074797940
1C
1E
#12074798475
0C
#12074798875
1C
0E
#12074800140
0C
#12074800540
1C
#12074801805
0C
1E
#12074802205
1C
#12074803470
0C
#12074803870
1C
0E
#12074805135
0C
#12074805535
1C
#12074806800
0C
#12074807205
1C
1E
#12074808465
0C
#12074808865
1C
#12074810130
0C
#12074810535
1C
0E
#12074811795
0C
#12074812200
1C
1E
#12074812735
0C
#12074813135
1C
0E
#12074813670
0C
#12074814070
1C
1E
#12074814610
0C
0E
#12074815010
1C
#12074815545
0C
1E
#12074815945
1C
#12074816485
0C
0E
#12074816880
1C
#12074817420
0C
1E
#12074817820
1C
0E
#12074818355
0C
#12074818755
1C
1E
#12074819295
0C
0E
#12074819690
1C
#12074820955
0C
#12074821355
1C
#12074822620
0C
1E
#12074823020
1C
#12074824285
0C
#12074824685
1C
#12074825955
0C
0E
#12074826350
1C
#12074827620
0C
1E
#12074828015
1C
#12074829285
0C
#12074829680
1C
#12074830950
0C
0E
#12074831345
1C
#12074832635
0C
#12074833010
1C
