data/test2.vcd
$date 2021-07-29 18:36:59 $end
$version piscope V1 $end
$timescale 1 us $end
$scope module top $end
$var wire 1 A 0 $end
$var wire 1 B 1 $end
$var wire 1 C 2 $end
$var wire 1 D 3 $end
$var wire 1 E 4 $end
$var wire 1 F 5 $end
$var wire 1 G 6 $end
$var wire 1 H 7 $end
$var wire 1 I 8 $end
$var wire 1 J 9 $end
$var wire 1 K 10 $end
$var wire 1 L 11 $end
$var wire 1 M 12 $end
$var wire 1 N 13 $end
$var wire 1 O 14 $end
$var wire 1 P 15 $end
$var wire 1 Q 16 $end
$var wire 1 R 17 $end
$var wire 1 S 18 $end
$var wire 1 T 19 $end
$var wire 1 U 20 $end
$var wire 1 V 21 $end
$var wire 1 W 22 $end
$var wire 1 X 23 $end
$var wire 1 Y 24 $end
$var wire 1 Z 25 $end
$var wire 1 a 26 $end
$var wire 1 b 27 $end
$var wire 1 c 28 $end
$var wire 1 d 29 $end
$var wire 1 e 30 $end
$var wire 1 f 31 $end
$upscope $end
$enddefinitions $end
#8223642818
1A
1B
0C
0E
1F
1G
1H
1I
0J
0K
0L
0M
0N
0O
1P
0Q
0R
0S
0T
0U
0V
0W
0X
0Y
0Z
0a
0b
1c
0d
0e
0f
#8223646298
1C
0D
#8223648078
0C
1D
#8223648508
1C
0D
#8223649128
0C
1D
1E
#8223649613
1C
0D
0E
#8223650288
0C
1D
#8223650773
1C
0D
1E
#8223651443
0C
1D
#8223651933
1C
0D
#8223652603
0C
1D
0E
#8223653093
1C
0D
1E
#8223653763
0C
1D
0E
#8223654248
1C
0D
1E
#8223654898
0C
1D
0E
#8223655403
1C
0D
#8223656053
0C
1D
#8223656563
1C
0D
1E
#8223657188
0C
1D
0E
#8223657693
1C
0D
#8223658368
0C
1D
#8223658853
1C
0D
1E
#8223659523
0C
1D
0E
#8223660088
1C
0D
#8223660763
0C
1D
#8223661928
1C
0D
#8223662603
0C
1D
#8223663088
1C
0D
#8223663743
0C
1D
#8223664273
1C
0D
1E
#8223664943
0C
1D
#8223665508
1C
0D
0E
#8223666183
0C
1D
#8223666693
1C
0D
#8223667343
0C
1D
#8223667828
1C
0D
1E
#8223668483
0C
1D
0E
#8223669008
1C
0D
#8223669733
0C
1D
1E
#8223670218
1C
0D
0E
#8223670893
0C
1D
#8223671378
1C
0D
#8223672053
0C
1D
#8223672878
1C
0D
#8223673548
0C
1D
1E
#8223674033
1C
0D
0E
#8223674708
0C
1D
#8223675193
1C
0D
#8223675868
0C
1D
#8223676353
1C
0D
1E
#8223676998
0C
1D
0E
#8223677508
1C
0D
#8223678138
0C
1D
#8223678668
1C
0D
1E
#8223679338
0C
1D
#8223679853
1C
0D
#8223680473
0C
1D
0E
#8223680928
1C
0D
#8223681578
0C
1D
#8223682033
1C
0D
#8223682658
0C
1D
#8223683113
1C
0D
#8223683763
0C
1D
#8223684248
1C
0D
1E
#8223684868
0C
1D
0E
#8223685353
1C
0D
1E
#8223685973
0C
1D
0E
#8223686458
1C
0D
1E
#8223687078
0C
1D
0E
#8223687563
1C
0D
1E
#8223688183
0C
1D
0E
#8223688668
1C
0D
1E
#8223689288
0C
1D
0E
#8223689783
1C
0D
1E
#8223690418
0C
1D
0E
#8223690878
1C
0D
#8223691523
0C
1D
#8223691983
1C
0D
#8223692628
0C
1D
1E
#8223693088
1C
0D
0E
#8223693733
0C
1D
1E
#8223694218
1C
0D
0E
#8223694843
0C
1D
#8223695378
1C
0D
#8223696083
0C
1D
#8223696563
1C
0D
1E
#8223697183
0C
1D
0E
#8223697668
1C
0D
1E
#8223698418
0C
1D
0E
#8223698878
1C
0D
#8223699503
0C
1D
#8223700143
1C
0D
1E
#8223700763
0C
1D
0E
#8223701193
1C
0D
#8223701813
0C
1D
#8223702248
1C
0D
1E
#8223702868
0C
1D
0E
#8223703298
1C
0D
#8223703918
0C
1D
#8223704378
1C
0D
#8223704953
0C
1D
#8223705433
1C
0D
1E
#8223706028
0C
1D
0E
#8223706483
1C
0D
#8223707078
0C
1D
#8223707538
1C
0D
1E
#8223708133
0C
1D
0E
#8223708588
1C
0D
#8223709208
0C
1D
#8223709643
1C
0D
1E
#8223710288
0C
1D
0E
#8223710853
1C
0D
1E
#8223711628
0C
1D
#8223712273
1C
0D
#8223712918
0C
1D
0E
#8223713353
1C
0D
1E
#8223713998
0C
1D
0E
#8223714458
1C
0D
1E
#8223715338
0C
1D
#8223715878
1C
0D
0E
#8223716473
0C
1D
#8223716928
1C
0D
#8223717663
0C
1D
#8223718113
1C
0D
#8223718733
0C
1D
1E
#8223719273
1C
0D
#8223719973
0C
1D
0E
#8223720403
1C
0D
#8223721023
0C
1D
#8223721458
1C
0D
1E
#8223722078
0C
1D
0E
#8223722613
1C
0D
#8223723233
0C
1D
1E
#8223723693
1C
0D
0E
#8223724313
0C
1D
#8223724748
1C
0D
1E
#8223725368
0C
1D
0E
#8223725823
1C
0D
#8223726448
0C
1D
#8223726878
1C
0D
#8223727578
0C
1D
#8223728038
1C
0D
1E
#8223728658
0C
1D
0E
#8223729168
1C
0D
1E
#8223729788
0C
1D
0E
#8223730248
1C
0D
1E
#8223730843
0C
1D
0E
#8223731298
1C
0D
#8223731898
0C
1D
#8223732353
1C
0D
1E
#8223732948
0C
1D
0E
#8223733403
1C
0D
#8223734003
0C
1D
#8223734458
1C
0D
1E
#8223735078
0C
1D
0E
#8223735513
1C
0D
1E
#8223736133
0C
1D
0E
#8223736588
1C
0D
#8223737183
0C
1D
#8223737643
1C
0D
1E
#8223738238
0C
1D
0E
#8223738773
1C
0D
1E
#8223739393
0C
1D
0E
#8223739853
1C
0D
1E
#8223740523
0C
1D
0E
#8223740958
1C
0D
1E
#8223741578
0C
1D
0E
#8223742008
1C
0D
#8223742628
0C
1D
1E
#8223743063
1C
0D
#8223743683
0C
1D
0E
#8223744113
1C
0D
#8223744738
0C
1D
#8223745168
1C
0D
1E
#8223745788
0C
1D
0E
#8223746223
1C
0D
1E
#8223746843
0C
1D
0E
#8223747273
1C
0D
1E
#8223747893
0C
1D
0E
#8223748328
1C
0D
1E
#8223748948
0C
1D
0E
#8223749378
1C
0D
#8223749998
0C
1D
#8223750458
1C
0D
1E
#8223751078
0C
1D
0E
#8223751508
1C
0D
#8223752133
0C
1D
#8223752563
1C
0D
1E
#8223753288
0C
1D
0E
#8223753798
1C
0D
#8223754418
0C
1D
#8223754853
1C
0D
1E
#8223755473
0C
1D
0E
#8223755903
1C
0D
#8223756528
0C
1D
#8223756983
1C
0D
#8223757608
0C
1D
#8223758038
1C
0D
1E
#8223758658
0C
1D
0E
#8223759088
1C
0D
#8223759713
0C
1D
#8223760168
1C
0D
1E
#8223760768
0C
1D
0E
#8223761353
1C
0D
1E
#8223761948
0C
1D
0E
#8223762483
1C
0D
#8223763288
0C
1D
#8223763773
1C
0D
1E
#8223764398
0C
1D
0E
#8223764853
1C
0D
1E
#8223765473
0C
1D
0E
#8223766113
1C
0D
#8223766738
0C
1D
#8223767258
1C
0D
1E
#8223767873
0C
1D
0E
#8223768353
1C
0D
1E
#8223768948
0C
1D
0E
#8223769403
1C
0D
#8223770053
0C
1D
#8223770463
1C
0D
1E
#8223771103
0C
1D
0E
#8223771538
1C
0D
1E
#8223772158
0C
1D
0E
#8223772588
1C
0D
#8223773208
0C
1D
#8223773643
1C
0D
1E
#8223774263
0C
1D
0E
#8223774773
1C
0D
1E
#8223775393
0C
1D
0E
#8223775828
1C
0D
1E
#8223776528
0C
1D
0E
#8223776958
1C
0D
1E
#8223777578
0C
1D
0E
#8223777983
1C
0D
#8223778633
0C
1D
#8223779038
1C
0D
1E
#8223779738
0C
1D
0E
#8223780143
1C
0D
1E
#8223780788
0C
1D
0E
#8223781193
1C
0D
#8223781843
0C
1D
#8223782273
1C
0D
1E
#8223782923
0C
1D
0E
#8223783328
1C
0D
1E
#8223783973
0C
1D
0E
#8223784378
1C
0D
#8223785028
0C
1D
#8223785458
1C
0D
1E
#8223786188
0C
1D
0E
#8223787088
1C
0D
#8223787818
0C
1D
#8223788218
1C
0D
#8223788898
0C
1D
#8223789278
1C
0D
1E
#8223789948
0C
1D
0E
#8223790328
1C
0D
1E
#8223791003
0C
1D
0E
#8223791378
1C
0D
#8223792083
0C
1D
#8223792458
1C
0D
1E
#8223793133
0C
1D
0E
#8223793483
1C
0D
#8223794188
0C
1D
#8223794538
1C
0D
1E
#8223795238
0C
1D
0E
#8223795588
1C
0D
#8223796293
0C
1D
#8223796643
1C
0D
1E
#8223797343
0C
1D
0E
#8223797693
1C
0D
#8223798398
0C
1D
#8223798748
1C
0D
1E
#8223799453
0C
1D
0E
#8223799773
1C
0D
1E
#8223800478
0C
1D
0E
#8223800798
1C
0D
#8223801583
0C
1D
#8223801903
1C
0D
#8223802658
0C
1D
#8223803033
1C
0D
#8223803738
0C
1D
#8223804063
1C
0D
1E
#8223804768
0C
1D
0E
#8223805063
1C
0D
1E
#8223805818
0C
1D
0E
#8223806088
1C
0D
#8223806848
0C
1D
#8223807113
1C
0D
#8223807873
0C
1D
#8223808143
1C
0D
1E
#8223808928
0C
1D
0E
#8223809168
1C
0D
1E
