data/test.vcd
$date 2021-07-29 18:36:59 $end
$version piscope V1 $end
$timescale 1 us $end
$scope module top $end
$var wire 1 A 0 $end
$var wire 1 B 1 $end
$var wire 1 C 2 $end
$var wire 1 D 3 $end
$var wire 1 E 4 $end
$var wire 1 F 5 $end
$var wire 1 G 6 $end
$var wire 1 H 7 $end
$var wire 1 I 8 $end
$var wire 1 J 9 $end
$var wire 1 K 10 $end
$var wire 1 L 11 $end
$var wire 1 M 12 $end
$var wire 1 N 13 $end
$var wire 1 O 14 $end
$var wire 1 P 15 $end
$var wire 1 Q 16 $end
$var wire 1 R 17 $end
$var wire 1 S 18 $end
$var wire 1 T 19 $end
$var wire 1 U 20 $end
$var wire 1 V 21 $end
$var wire 1 W 22 $end
$var wire 1 X 23 $end
$var wire 1 Y 24 $end
$var wire 1 Z 25 $end
$var wire 1 a 26 $end
$var wire 1 b 27 $end
$var wire 1 c 28 $end
$var wire 1 d 29 $end
$var wire 1 e 30 $end
$var wire 1 f 31 $end
$upscope $end
$enddefinitions $end
#8225000876
1A
1B
0C
0E
1F
1G
1H
1I
0J
0K
0L
0M
0N
0O
1P
0Q
0R
0S
0T
0U
0V
0W
0X
0Y
0Z
0a
0b
1c
0d
0e
0f
#8225004331
1C
0D
#8225006111
0C
1D
#8225006571
1C
0D
1E
#8225007166
0C
1D
0E
#8225007621
1C
0D
1E
#8225008267
0C
1D
0E
#8225008751
1C
0D
#8225009406
0C
1D
#8225009911
1C
0D
1E
#8225010581
0C
1D
#8225011177
1C
0D
#8225011871
0C
1D
0E
#8225012356
1C
0D
#8225013031
0C
1D
#8225013516
1C
0D
1E
#8225014192
0C
1D
0E
#8225014701
1C
0D
1E
#8225015371
0C
1D
0E
#8225015856
1C
0D
#8225016531
0C
1D
#8225017017
1C
0D
1E
#8225017691
0C
1D
0E
#8225018196
1C
0D
#8225018851
0C
1D
#8225019356
1C
0D
#8225020032
0C
1D
#8225020492
1C
0D
1E
#8225021112
0C
1D
0E
#8225021566
1C
0D
#8225022217
0C
1D
#8225022676
1C
0D
1E
#8225023297
0C
1D
0E
#8225023751
1C
0D
#8225024401
0C
1D
#8225024856
1C
0D
#8225025507
0C
1D
#8225025961
1C
0D
#8225026612
0C
1D
#8225027066
1C
0D
#8225028847
0C
1D
#8225029387
1C
0D
1E
#8225030057
0C
1D
0E
#8225030542
1C
0D
#8225032057
0C
1D
#8225032542
1C
0D
#8225033191
0C
1D
#8225033647
1C
0D
#8225034267
0C
1D
#8225034882
1C
0D
#8225035507
0C
1D
#8225035987
1C
0D
#8225036612
0C
1D
#8225037097
1C
0D
1E
#8225037717
0C
1D
0E
#8225038202
1C
0D
1E
#8225038902
0C
1D
0E
#8225039411
1C
0D
1E
#8225040057
0C
1D
0E
#8225040517
1C
0D
1E
#8225041137
0C
1D
0E
#8225041592
1C
0D
#8225042241
0C
1D
#8225042702
1C
0D
1E
#8225043327
0C
1D
0E
#8225043777
1C
0D
#8225044427
0C
1D
#8225044887
1C
0D
1E
#8225045532
0C
1D
0E
#8225045992
1C
0D
1E
#8225046637
0C
1D
0E
#8225047097
1C
0D
1E
#8225047742
0C
1D
0E
#8225048202
1C
0D
1E
#8225048902
0C
1D
0E
#8225049357
1C
0D
#8225050006
0C
1D
#8225050492
1C
0D
1E
#8225051112
0C
1D
0E
#8225051571
1C
0D
1E
#8225052217
0C
1D
0E
#8225052672
1C
0D
#8225053322
0C
1D
#8225053777
1C
0D
#8225054427
0C
1D
#8225054887
1C
0D
1E
#8225055507
0C
1D
0E
#8225055992
1C
0D
1E
#8225056636
0C
1D
0E
#8225057172
1C
0D
#8225057821
0C
1D
#8225058277
1C
0D
#8225058902
0C
1D
#8225059357
1C
0D
#8225060007
0C
1D
#8225060462
1C
0D
#8225061112
0C
1D
#8225061567
1C
0D
#8225062217
0C
1D
#8225062677
1C
0D
1E
#8225063297
0C
1D
0E
#8225063832
1C
0D
#8225064477
0C
1D
1E
#8225064937
1C
0D
0E
#8225065587
0C
1D
#8225066042
1C
0D
#8225066662
0C
1D
#8225067122
1C
0D
1E
#8225067767
0C
1D
0E
#8225068222
1C
0D
#8225068847
0C
1D
#8225069307
1C
0D
1E
#8225069952
0C
1D
0E
#8225070412
1C
0D
1E
#8225071057
0C
1D
0E
#8225071517
1C
0D
1E
#8225072137
0C
1D
0E
#8225072622
1C
0D
1E
#8225073242
0C
1D
0E
#8225073702
1C
0D
1E
#8225074372
0C
1D
0E
#8225074912
1C
0D
1E
#8225075532
0C
1D
0E
#8225076017
1C
0D
1E
#8225076637
0C
1D
0E
#8225077097
1C
0D
1E
#8225077742
0C
1D
0E
#8225079517
1C
0D
1E
#8225080372
0C
1D
0E
#8225080857
1C
0D
#8225081507
0C
1D
#8225082492
1C
0D
1E
#8225083192
0C
1D
0E
#8225083757
1C
0D
1E
#8225084402
0C
1D
0E
#8225084857
1C
0D
#8225085507
0C
1D
#8225085992
1C
0D
1E
#8225086637
0C
1D
0E
#8225087097
1C
0D
1E
#8225087927
0C
1D
0E
#8225088412
1C
0D
1E
#8225089057
0C
1D
0E
#8225089537
1C
0D
#8225090217
0C
1D
#8225090672
1C
0D
#8225091322
0C
1D
#8225091807
1C
0D
1E
#8225092427
0C
1D
0E
#8225092912
1C
0D
1E
#8225093557
0C
1D
0E
#8225094097
1C
0D
1E
#8225094742
0C
1D
0E
#8225095202
1C
0D
1E
#8225095847
0C
1D
0E
#8225096307
1C
0D
1E
#8225096957
0C
1D
0E
#8225097437
1C
0D
#8225098087
0C
1D
#8225098567
1C
0D
#8225099192
0C
1D
#8225099697
1C
0D
#8225100377
0C
1D
#8225100862
1C
0D
1E
#8225101507
0C
1D
0E
#8225101962
1C
0D
#8225102612
0C
1D
#8225103097
1C
0D
1E
#8225103747
0C
1D
0E
#8225104357
1C
0D
#8225105032
0C
1D
#8225105567
1C
0D
#8225106192
0C
1D
#8225106597
1C
0D
1E
#8225107217
0C
1D
0E
#8225107622
1C
0D
1E
#8225108222
0C
1D
0E
#8225108647
1C
0D
#8225109247
0C
1D
#8225109702
1C
0D
1E
#8225110272
0C
1D
0E
#8225110702
1C
0D
1E
#8225111297
0C
1D
0E
#8225111702
1C
0D
1E
#8225112322
0C
1D
0E
#8225112752
1C
0D
#8225113327
0C
1D
#8225113757
1C
0D
1E
#8225114377
0C
1D
0E
#8225114777
1C
0D
#8225115377
0C
1D
#8225115807
1C
0D
1E
#8225116402
0C
1D
0E
#8225116807
1C
0D
1E
#8225117407
0C
1D
0E
#8225117832
1C
0D
#8225118427
0C
1D
#8225118857
1C
0D
#8225119452
0C
1D
#8225119857
1C
0D
#8225120537
0C
1D
#8225120937
1C
0D
#8225121562
0C
1D
#8225121962
1C
0D
#8225122587
0C
1D
#8225122992
1C
0D
1E
#8225123612
0C
1D
0E
#8225123992
1C
0D
1E
#8225124637
0C
1D
0E
#8225125042
1C
0D
#8225125667
0C
1D
#8225126072
1C
0D
1E
#8225126692
0C
1D
0E
#8225127097
1C
0D
1E
#8225127717
0C
1D
0E
#8225128122
1C
0D
1E
#8225129747
0C
1D
0E
#8225130227
1C
0D
#8225130852
0C
1D
#8225131227
1C
0D
#8225131852
0C
1D
#8225132202
1C
0D
1E
#8225132852
0C
1D
0E
#8225133172
1C
0D
#8225133827
0C
1D
#8225134177
1C
0D
1E
#8225134797
0C
1D
0E
#8225135147
1C
0D
#8225135822
0C
1D
#8225136152
1C
0D
1E
#8225136797
0C
1D
0E
#8225137122
1C
0D
1E
#8225137772
0C
1D
0E
#8225138097
1C
0D
1E
#8225138772
0C
1D
0E
#8225139097
1C
0D
1E
#8225139772
0C
1D
0E
#8225140122
1C
0D
1E
#8225140797
0C
1D
0E
#8225141147
1C
0D
#8225141852
0C
1D
#8225142172
1C
0D
#8225142852
0C
1D
#8225143202
1C
0D
1E
#8225143877
0C
1D
0E
#8225144227
1C
0D
#8225144907
0C
1D
#8225145277
1C
0D
#8225145932
0C
1D
#8225146332
1C
0D
#8225146987
0C
1D
#8225147357
1C
0D
#8225148037
0C
1D
#8225148357
1C
0D
#8225149062
0C
1D
#8225149387
1C
0D
1E
#8225150117
0C
1D
0E
#8225150412
1C
0D
1E
#8225151117
0C
1D
0E
#8225151437
1C
0D
#8225152167
0C
1D
#8225152437
1C
0D
#8225153197
0C
1D
#8225153462
1C
0D
#8225154222
0C
1D
#8225154462
1C
0D
