data/v1.vcd
$date 2021-07-29 18:36:59 $end
$version piscope V1 $end
$timescale 1 us $end
$scope module top $end
$var wire 1 A 0 $end
$var wire 1 B 1 $end
$var wire 1 C 2 $end
$var wire 1 D 3 $end
$var wire 1 E 4 $end
$var wire 1 F 5 $end
$var wire 1 G 6 $end
$var wire 1 H 7 $end
$var wire 1 I 8 $end
$var wire 1 J 9 $end
$var wire 1 K 10 $end
$var wire 1 L 11 $end
$var wire 1 M 12 $end
$var wire 1 N 13 $end
$var wire 1 O 14 $end
$var wire 1 P 15 $end
$var wire 1 Q 16 $end
$var wire 1 R 17 $end
$var wire 1 S 18 $end
$var wire 1 T 19 $end
$var wire 1 U 20 $end
$var wire 1 V 21 $end
$var wire 1 W 22 $end
$var wire 1 X 23 $end
$var wire 1 Y 24 $end
$var wire 1 Z 25 $end
$var wire 1 a 26 $end
$var wire 1 b 27 $end
$var wire 1 c 28 $end
$var wire 1 d 29 $end
$var wire 1 e 30 $end
$var wire 1 f 31 $end
$upscope $end
$enddefinitions $end
#12224326713
1A
1B
0C
0D
0E
1F
1G
1H
1I
0J
0K
0L
0M
0N
0O
1P
0Q
0R
0S
0T
0U
0V
0W
0X
0Y
0Z
0a
0b
1c
0d
0e
0f
#12224330058
1C
#12224330793
0C
#12224331053
1C
#12224331728
0C
1E
#12224332133
1C
0E
#12224332848
0C
#12224333823
1C
1E
#12224334358
0C
#12224334733
1C
0E
#12224335288
0C
#12224335693
1C
1E
#12224336228
0C
#12224336603
1C
0E
#12224337163
0C
#12224337543
1C
1E
#12224338068
0C
#12224338503
1C
0E
#12224339033
0C
#12224339413
1C
1E
#12224339943
0C
0E
#12224340373
1C
#12224340908
0C
1E
#12224341288
1C
0E
#12224341843
0C
#12224342248
1C
1E
#12224342778
0C
#12224343158
1C
0E
#12224343713
0C
#12224344118
1C
1E
#12224345378
0C
#12224345758
1C
0E
#12224346319
0C
#12224346724
1C
1E
#12224347254
0C
#12224347659
1C
0E
#12224348189
0C
#12224348568
1C
1E
#12224349098
0C
#12224349533
1C
0E
#12224350058
0C
#12224350443
1C
#12224350973
0C
#12224351428
1C
#12224351933
0C
1E
#12224352313
1C
0E
#12224352868
0C
#12224353273
1C
1E
#12224353809
0C
#12224354188
1C
0E
#12224354743
0C
#12224355128
1C
#12224355658
0C
#12224356088
1C
1E
#12224356623
0C
#12224356999
1C
0E
#12224357553
0C
#12224357958
1C
1E
#12224358493
0C
#12224358873
1C
0E
#12224359428
0C
#12224359833
1C
1E
#12224360338
0C
0E
#12224360798
1C
1E
#12224361303
0C
#12224361678
1C
#12224362473
0C
0E
#12224362648
1C
1E
#12224362828
0C
#12224363373
1C
0E
#12224363903
0C
1E
#12224364283
1C
#12224365538
0C
#12224365949
1C
0E
#12224366688
0C
#12224367638
1C
#12224368343
0C
#12224369299
1C
1E
#12224370029
0C
0E
#12224370944
1C
#12224372224
0C
1E
#12224372608
1C
0E
#12224373318
0C
#12224374298
1C
1E
#12224374828
0C
#12224375209
1C
0E
#12224375978
0C
#12224376873
1C
#12224377633
0C
#12224378564
1C
1E
#12224379293
0C
0E
#12224380204
1C
1E
#12224381464
0C
#12224381869
1C
0E
#12224382583
0C
#12224383558
1C
#12224384269
0C
#12224385204
1C
1E
#12224386484
0C
#12224386864
1C
0E
#12224387634
0C
#12224388554
1C
#12224389294
0C
#12224390244
1C
#12224390754
0C
1E
#12224391134
1C
0E
#12224391689
0C
#12224392089
1C
1E
#12224392629
0C
0E
#12224393029
1C
#12224393564
0C
1E
#12224393944
1C
0E
#12224394473
0C
#12224394904
1C
1E
#12224395439
0C
#12224395813
1C
0E
#12224396374
0C
#12224396774
1C
1E
#12224397284
0C
#12224397688
1C
0E
#12224398244
0C
#12224398624
1C
1E
#12224399159
0C
0E
#12224399589
1C
1E
#12224400319
0C
0E
#12224401229
1C
1E
#12224402509
0C
#12224402894
1C
0E
#12224403449
0C
#12224403854
1C
1E
#12224404389
0C
#12224404769
1C
0E
#12224405504
0C
#12224406459
1C
1E
#12224407159
0C
0E
#12224408119
1C
1E
#12224409379
0C
#12224409764
1C
0E
#12224410529
0C
#12224411454
1C
#12224411984
0C
1E
#12224412364
1C
0E
#12224412894
0C
#12224413324
1C
1E
#12224414054
0C
0E
#12224414989
1C
1E
#12224415794
0C
0E
#12224415909
1C
1E
#12224416144
0C
#12224416629
1C
0E
#12224417184
0C
#12224417564
1C
1E
#12224418124
0C
#12224418529
1C
0E
#12224419059
0C
#12224419439
1C
1E
#12224420699
0C
#12224421104
1C
0E
#12224421659
0C
#12224422064
1C
1E
#12224422599
0C
#12224422979
1C
0E
#12224423689
0C
#12224424669
1C
1E
#12224425204
0C
#12224425579
1C
0E
#12224426139
0C
#12224426539
1C
1E
#12224427804
0C
#12224428184
1C
0E
#12224428924
0C
#12224429874
1C
#12224430409
0C
1E
#12224430784
1C
#12224431584
0C
0E
#12224432454
1C
#12224433214
0C
#12224434144
1C
1E
#12224434674
0C
#12224435054
1C
0E
#12224435819
0C
#12224436744
1C
#12224437454
0C
#12224438384
1C
1E
#12224438944
0C
0E
#12224439349
1C
#12224440054
0C
#12224441014
1C
1E
#12224441739
0C
0E
#12224442654
1C
#12224443209
0C
#12224443614
1C
1E
#12224444149
0C
#12224444524
1C
0E
#12224445084
0C
#12224445489
1C
1E
#12224445994
0C
#12224446399
1C
0E
#12224447109
0C
#12224448089
1C
1E
#12224448624
0C
#12224449024
1C
0E
#12224449559
0C
#12224449939
1C
1E
#12224450469
0C
0E
#12224450899
1C
#12224451584
0C
#12224452544
1C
1E
#12224453319
0C
0E
#12224454204
1C
1E
#12224455489
0C
#12224455874
1C
0E
#12224456584
0C
#12224457564
1C
1E
#12224458094
0C
#12224458469
1C
0E
#12224459264
0C
#12224459434
1C
1E
#12224459624
0C
#12224460164
1C
0E
#12224460694
0C
1E
#12224461074
1C
0E
#12224461604
0C
#12224462034
1C
#12224462569
0C
1E
#12224462949
1C
0E
#12224463504
0C
#12224463909
1C
1E
#12224464439
0C
#12224464819
1C
0E
#12224465374
0C
#12224465754
1C
1E
#12224467014
0C
#12224467419
1C
0E
#12224467979
0C
#12224468384
1C
1E
#12224469619
0C
#12224470024
1C
0E
#12224470689
0C
#12224470949
1C
#12224471234
0C
#12224471689
1C
#12224472344
0C
#12224472629
1C
#12224472879
0C
1E
#12224473404
1C
#12224474084
0C
0E
#12224474234
1C
#12224474614
0C
1E
#12224475019
1C
#12224476279
0C
#12224476684
1C
0E
#12224477269
0C
#12224477554
1C
#12224477959
0C
1E
#12224478349
1C
0E
#12224478909
0C
1E
#12224479284
1C
#12224479874
0C
0E
#12224480129
1C
#12224480539
0C
1E
#12224480949
1C
0E
#12224481479
0C
#12224481889
1C
1E
#12224482419
0C
0E
#12224482824
1C
1E
#12224483384
0C
#12224483744
1C
0E
#12224484294
0C
#12224484719
1C
1E
#12224485254
0C
#12224485634
1C
0E
#12224486139
0C
#12224486569
1C
1E
#12224487099
0C
#12224487509
1C
#12224488034
0C
0E
#12224488444
1C
#12224489699
0C
1E
#12224490109
1C
0E
#12224490559
0C
#12224490839
1C
#12224491369
0C
#12224491799
1C
1E
#12224492374
0C
0E
#12224492524
1C
#12224493054
0C
#12224493459
1C
1E
#12224494694
0C
#12224495109
1C
0E
#12224495639
0C
#12224495779
1C
1E
#12224496359
0C
#12224496804
1C
#12224497154
0C
0E
#12224497444
1C
#12224498024
0C
#12224498454
1C
#12224499689
0C
#12224500094
1C
1E
#12224501354
0C
#12224501799
1C
#12224502209
0C
0E
#12224502724
1C
1E
#12224503229
0C
#12224503704
1C
#12224504044
0C
#12224504569
1C
#12224505104
0C
0E
#12224505549
1C
#12224506069
0C
1E
#12224506509
1C
#12224506869
0C
0E
#12224507409
1C
1E
#12224507939
0C
#12224508389
1C
#12224508724
0C
#12224509254
1C
#12224510514
0C
#12224510984
1C
#12224512179
0C
#12224512649
1C
#12224513844
0C
0E
#12224514274
1C
1E
#12224515529
0C
0E
#12224515909
1C
1E
#12224517174
0C
#12224517614
1C
#12224518839
0C
0E
#12224519309
1C
1E
#12224520504
0C
0E
#12224520934
1C
1E
#12224522169
0C
#12224522569
1C
#12224523104
0C
0E
#12224523534
1C
#12224524044
0C
1E
#12224524479
1C
0E
#12224525004
0C
#12224525404
1C
1E
#12224525914
0C
#12224526349
1C
0E
#12224526874
0C
#12224527249
1C
1E
#12224527784
0C
#12224528219
1C
#12224528754
0C
#12224529159
1C
0E
#12224529689
0C
#12224530089
1C
1E
#12224531324
0C
0E
#12224531729
1C
1E
#12224532989
0C
#12224533424
1C
0E
#12224534654
0C
#12224535089
1C
1E
#12224536324
0C
0E
#12224536724
1C
1E
#12224537984
0C
#12224538414
1C
#12224539649
0C
#12224540084
1C
0E
#12224541314
0C
#12224541744
1C
#12224542979
0C
#12224543409
1C
1E
#12224543914
0C
#12224544349
1C
0E
#12224544859
0C
1E
#12224545259
1C
0E
#12224545794
0C
#12224546219
1C
1E
#12224546729
0C
#12224547134
1C
0E
#12224547689
0C
#12224548069
1C
1E
#12224548599
0C
#12224549029
1C
0E
#12224549539
0C
1E
#12224549944
1C
0E
#12224550479
0C
#12224550904
1C
1E
#12224552139
0C
0E
#12224552544
1C
1E
#12224553804
0C
#12224554209
1C
0E
#12224555469
0C
#12224555899
1C
#12224557134
0C
#12224557564
1C
1E
#12224558799
0C
#12224559204
1C
#12224560464
0C
#12224560869
1C
0E
#12224562129
0C
#12224562559
1C
#12224563794
0C
#12224564224
1C
1E
#12224564734
0C
0E
#12224565139
1C
#12224565669
0C
1E
#12224566074
1C
0E
#12224566604
0C
#12224567034
1C
#12224567544
0C
1E
#12224567944
1C
0E
#12224568479
0C
#12224568904
1C
1E
#12224569414
0C
#12224569819
1C
0E
#12224570354
0C
1E
#12224570754
1C
#12224571284
0C
#12224571714
1C
0E
#12224572949
0C
#12224573379
1C
1E
#12224574619
0C
#12224575019
1C
#12224576279
0C
#12224576684
1C
0E
#12224577944
0C
#12224578379
1C
1E
#12224579614
0C
#12224580019
1C
#12224581274
0C
#12224581684
1C
0E
#12224582939
0C
1E
#12224583344
1C
0E
#12224584609
0C
#12224585039
1C
1E
#12224586269
0C
0E
#12224586674
1C
1E
#12224587934
0C
#12224588339
1C
0E
#12224588874
0C
#12224589299
1C
1E
#12224589809
0C
#12224590214
1C
0E
#12224591474
0C
#12224591904
1C
1E
#12224592409
0C
#12224592814
1C
0E
#12224594074
0C
#12224594479
1C
#12224595014
0C
1E
#12224595414
1C
#12224595949
0C
0E
#12224596379
1C
1E
#12224596884
0C
#12224597289
1C
0E
#12224598549
0C
#12224598979
1C
#12224600214
0C
#12224600644
1C
1E
#12224601154
0C
0E
#12224601559
1C
#12224602819
0C
#12224603249
1C
1E
#12224603754
0C
#12224604159
1C
0E
#12224605419
0C
#12224605849
1C
#12224607084
0C
#12224607509
1C
1E
#12224608024
0C
0E
#12224608424
1C
#12224608959
0C
1E
#12224609364
1C
0E
#12224609899
0C
#12224610324
1C
#12224611559
0C
#12224611989
1C
1E
#12224613224
0C
#12224613629
1C
0E
#12224614889
0C
1E
#12224615294
1C
0E
#12224616554
0C
#12224616959
1C
1E
#12224617494
0C
#12224617894
1C
0E
#12224619154
0C
#12224619559
1C
#12224620824
0C
1E
#12224621224
1C
#12224622489
0C
#12224622889
1C
#12224623424
0C
0E
#12224623824
1C
1E
#12224624359
0C
#12224624764
1C
0E
#12224625319
0C
#12224625699
1C
1E
#12224626234
0C
0E
#12224626634
1C
#12224627169
0C
1E
#12224627569
1C
#12224628109
0C
0E
#12224628504
1C
#12224629044
0C
1E
#12224629444
1C
0E
#12224630004
0C
#12224630379
1C
1E
#12224630914
0C
#12224631314
1C
0E
#12224631854
0C
1E
#12224632254
1C
#12224632789
0C
0E
#12224633189
1C
#12224633729
0C
1E
#12224634124
1C
#12224635389
0C
#12224635789
1C
0E
#12224637054
0C
#12224637454
1C
#12224638724
0C
1E
#12224639119
1C
#12224640389
0C
#12224640784
1C
#12224642054
0C
0E
#12224642449
1C
#12224643744
0C
#12224644119
1C
1E
#12224645384
0C
#12224645779
1C
#12224647049
0C
0E
#12224647444
1C
#12224648009
0C
1E
#12224648384
1C
#12224648924
0C
0E
#12224649319
1C
#12224649859
0C
1E
#12224650259
1C
0E
#12224650819
0C
#12224651194
1C
1E
#12224651754
0C
#12224652129
1C
0E
#12224652694
0C
1E
#12224653069
1C
#12224653609
0C
0E
#12224654004
1C
#12224654569
0C
1E
#12224654944
1C
0E
#12224656229
0C
1E
#12224656604
1C
0E
#12224657899
0C
#12224658274
1C
1E
#12224659564
0C
#12224659939
1C
#12224661229
0C
#12224661604
1C
0E
#12224662869
0C
#12224663269
1C
#12224664559
0C
#12224664934
1C
1E
#12224666224
0C
#12224666599
1C
#12224667889
0C
#12224668264
1C
0E
#12224668824
0C
1E
#12224669199
1C
#12224669764
0C
0E
#12224670134
1C
#12224670699
0C
1E
#12224671074
1C
0E
#12224671634
0C
#12224672009
1C
1E
#12224672574
0C
0E
#12224672949
1C
#12224673509
0C
1E
#12224673884
1C
#12224674449
0C
0E
#12224674819
1C
#12224676114
0C
1E
#12224676489
1C
#12224677779
0C
#12224678154
1C
0E
#12224679444
0C
#12224679814
1C
#12224681109
0C
#12224681484
1C
1E
#12224682774
0C
#12224683149
1C
#12224684439
0C
#12224684809
1C
#12224686104
0C
0E
#12224686479
1C
#12224687769
0C
#12224688144
1C
1E
#12224688704
0C
#12224689079
1C
0E
#12224690369
0C
#12224690744
1C
#12224692039
0C
1E
#12224692409
1C
#12224692974
0C
0E
#12224693344
1C
#12224693909
0C
1E
#12224694284
1C
#12224694849
0C
0E
#12224695219
1C
1E
#12224695784
0C
#12224696154
1C
0E
#12224696724
0C
1E
#12224697094
1C
#12224697659
0C
0E
#12224698029
1C
#12224698594
0C
1E
#12224698964
1C
#12224699529
0C
0E
#12224699899
1C
#12224701194
0C
1E
#12224701564
1C
#12224702859
0C
#12224703229
1C
#12224704524
0C
0E
#12224704894
1C
#12224706189
0C
#12224706559
1C
#12224707854
0C
1E
#12224708224
1C
#12224709519
0C
#12224709889
1C
#12224710459
0C
#12224710829
1C
#12224711394
0C
0E
#12224711764
1C
#12224712329
0C
1E
#12224712699
1C
#12224713270
0C
0E
#12224713634
1C
#12224714204
0C
1E
#12224714574
1C
0E
#12224715139
0C
#12224715509
1C
1E
#12224716079
0C
0E
#12224716444
1C
#12224717014
0C
1E
#12224717384
1C
#12224718679
0C
#12224719049
1C
0E
#12224720344
0C
#12224720714
1C
#12224722009
0C
1E
#12224722374
1C
0E
#12224723674
0C
1E
#12224724044
1C
#12224725339
0C
0E
#12224725709
1C
#12224727004
0C
#12224727374
1C
#12224728670
0C
1E
#12224729039
1C
#12224730334
0C
#12224730699
1C
#12224731274
0C
#12224731629
1C
0E
#12224732209
0C
#12224732554
1C
#12224733144
0C
1E
#12224733509
1C
#12224734084
0C
0E
#12224734424
1C
#12224735020
0C
1E
#12224735364
1C
0E
#12224735954
0C
#12224736299
1C
1E
#12224736894
0C
0E
#12224737239
1C
#12224737830
0C
1E
#12224738174
1C
#12224739494
0C
#12224739839
1C
0E
#12224741160
0C
#12224741504
1C
#12224742829
0C
1E
#12224743169
1C
#12224744494
0C
#12224744835
1C
#12224746159
0C
0E
#12224746499
1C
#12224747824
0C
#12224748164
1C
#12224749489
0C
1E
#12224749829
1C
#12224751154
0C
0E
#12224751494
1C
1E
#12224752094
0C
#12224752435
1C
#12224753030
0C
0E
#12224753370
1C
#12224753965
0C
1E
#12224754304
1C
#12224754904
0C
#12224755240
1C
0E
#12224755839
0C
#12224756180
1C
1E
#12224756780
0C
#12224757115
1C
#12224757715
0C
0E
#12224758055
1C
#12224758674
0C
1E
#12224759009
1C
#12224760314
0C
0E
#12224760654
1C
#12224761979
0C
#12224762315
1C
#12224763644
0C
1E
#12224763984
1C
#12224765310
0C
#12224765650
1C
#12224766974
0C
0E
#12224767314
1C
#12224768665
0C
#12224768979
1C
#12224770330
0C
1E
#12224770645
1C
#12224771994
0C
#12224772309
1C
