data/v4.vcd
$date 2021-07-29 18:36:59 $end
$version piscope V1 $end
$timescale 1 us $end
$scope module top $end
$var wire 1 A 0 $end
$var wire 1 B 1 $end
$var wire 1 C 2 $end
$var wire 1 D 3 $end
$var wire 1 E 4 $end
$var wire 1 F 5 $end
$var wire 1 G 6 $end
$var wire 1 H 7 $end
$var wire 1 I 8 $end
$var wire 1 J 9 $end
$var wire 1 K 10 $end
$var wire 1 L 11 $end
$var wire 1 M 12 $end
$var wire 1 N 13 $end
$var wire 1 O 14 $end
$var wire 1 P 15 $end
$var wire 1 Q 16 $end
$var wire 1 R 17 $end
$var wire 1 S 18 $end
$var wire 1 T 19 $end
$var wire 1 U 20 $end
$var wire 1 V 21 $end
$var wire 1 W 22 $end
$var wire 1 X 23 $end
$var wire 1 Y 24 $end
$var wire 1 Z 25 $end
$var wire 1 a 26 $end
$var wire 1 b 27 $end
$var wire 1 c 28 $end
$var wire 1 d 29 $end
$var wire 1 e 30 $end
$var wire 1 f 31 $end
$upscope $end
$enddefinitions $end
#12227800837
1A
1B
0C
0D
1F
1G
1H
1I
0J
0K
0L
0M
0N
0O
1P
0Q
0R
0S
0T
0U
0V
0W
0X
0Y
0Z
0a
0b
1c
0d
0e
0f
#12227804182
1C
#12227805852
0C
0E
#12227806282
1C
1E
#12227806937
0C
0E
#12227807217
1C
#12227807412
0C
1E
#12227807922
1C
#12227808452
0C
0E
#12227808882
1C
#12227809417
0C
1E
#12227809792
1C
#12227810352
0C
0E
#12227810757
1C
1E
#12227811287
0C
#12227811667
1C
0E
#12227812222
0C
#12227812627
1C
1E
#12227813132
0C
#12227813537
1C
0E
#12227814092
0C
#12227814477
1C
#12227815007
0C
#12227815437
1C
#12227815972
0C
1E
#12227816347
1C
0E
#12227816907
0C
#12227817307
1C
1E
#12227817842
0C
#12227818217
1C
0E
#12227818882
0C
#12227819167
1C
#12227819402
0C
#12227819912
1C
1E
#12227820442
0C
#12227820817
1C
#12227821377
0C
0E
#12227821782
1C
1E
#12227822317
0C
#12227822692
1C
0E
#12227823252
0C
#12227823652
1C
1E
#12227824162
0C
0E
#12227824567
1C
#12227825122
0C
1E
#12227825502
1C
#12227826032
0C
0E
#12227826467
1C
1E
#12227826997
0C
#12227827377
1C
0E
#12227827932
0C
#12227828337
1C
1E
#12227828872
0C
0E
#12227829247
1C
#12227829807
0C
1E
#12227830187
1C
#12227830717
0C
0E
#12227831172
1C
#12227831682
0C
1E
#12227832057
1C
0E
#12227832617
0C
#12227833017
1C
1E
#12227833557
0C
0E
#12227833932
1C
#12227834487
0C
#12227834872
1C
#12227835402
0C
#12227835832
1C
#12227836487
0C
#12227836747
1C
#12227836997
0C
1E
#12227837472
1C
#12227838002
0C
#12227838432
1C
0E
#12227839042
0C
#12227839322
1C
#12227839632
0C
1E
#12227840097
1C
#12227840772
0C
0E
#12227841032
1C
#12227841232
0C
1E
#12227841737
1C
#12227842997
0C
#12227843402
1C
0E
#12227844062
0C
#12227844347
1C
#12227844587
0C
#12227845097
1C
1E
#12227845772
0C
0E
#12227846032
1C
#12227846222
0C
#12227846757
1C
1E
#12227848017
0C
#12227848397
1C
#12227848957
0C
0E
#12227849362
1C
1E
#12227850037
0C
0E
#12227850297
1C
#12227850497
0C
1E
#12227851002
1C
#12227852262
0C
#12227852667
1C
0E
#12227853327
0C
#12227853612
1C
#12227853852
0C
#12227854387
1C
1E
#12227855037
0C
0E
#12227855297
1C
#12227855492
0C
1E
#12227856002
1C
#12227857257
0C
#12227857662
1C
0E
#12227858352
0C
#12227858612
1C
#12227858842
0C
1E
#12227859357
1C
0E
#12227859987
0C
#12227860272
1C
#12227860517
0C
1E
#12227861017
1C
#12227861697
0C
0E
#12227861952
1C
#12227862157
0C
1E
#12227862662
1C
0E
#12227863917
0C
1E
#12227864322
1C
0E
#12227864882
0C
#12227865262
1C
1E
#12227865792
0C
#12227866222
1C
0E
#12227866757
0C
1E
#12227867132
1C
#12227867692
0C
0E
#12227868097
1C
1E
#12227868632
0C
#12227869007
1C
0E
#12227869567
0C
#12227869947
1C
1E
#12227870477
0C
0E
#12227870882
1C
#12227871437
0C
#12227871822
1C
#12227872347
0C
#12227872782
1C
1E
#12227873312
0C
#12227873692
1C
0E
#12227874358
0C
#12227874637
1C
#12227874872
0C
#12227875382
1C
#12227876012
0C
#12227876297
1C
#12227876547
0C
1E
#12227877047
1C
#12227877582
0C
#12227877957
1C
0E
#12227878512
0C
#12227878892
1C
1E
#12227880152
0C
#12227880558
1C
0E
#12227881222
0C
#12227881482
1C
#12227881772
0C
#12227882247
1C
#12227882882
0C
#12227883167
1C
#12227883417
0C
1E
#12227883918
1C
#12227884617
0C
0E
#12227885552
1C
1E
#12227886112
0C
0E
#12227886517
1C
1E
#12227887047
0C
#12227887427
1C
0E
#12227888117
0C
#12227888377
1C
#12227888602
0C
1E
#12227889092
1C
0E
#12227889753
0C
#12227890033
1C
#12227890278
0C
#12227890783
1C
1E
#12227891312
0C
#12227891692
1C
0E
#12227892252
0C
#12227892633
1C
1E
#12227893157
0C
#12227893592
1C
0E
#12227894222
0C
#12227894508
1C
#12227894752
0C
#12227895257
1C
1E
#12227895787
0C
#12227896167
1C
0E
#12227896722
0C
#12227897102
1C
1E
#12227898362
0C
#12227898767
1C
0E
#12227899328
0C
#12227899732
1C
1E
#12227900262
0C
#12227900637
1C
0E
#12227901302
0C
#12227901587
1C
#12227901822
0C
#12227902333
1C
#12227903012
0C
#12227903272
1C
#12227903463
0C
#12227903973
1C
1E
#12227904503
0C
#12227904908
1C
0E
#12227905563
0C
#12227905847
1C
#12227906097
0C
1E
#12227906602
1C
#12227907277
0C
0E
#12227907533
1C
#12227907732
0C
1E
#12227908238
1C
#12227908768
0C
0E
#12227909202
1C
1E
#12227909802
0C
0E
#12227910087
1C
#12227910402
0C
#12227910842
1C
1E
#12227912102
0C
#12227912502
1C
#12227913062
0C
0E
#12227913467
1C
1E
#12227914142
0C
0E
#12227914403
1C
#12227914603
0C
1E
#12227915107
1C
#12227916367
0C
#12227916772
1C
0E
#12227917327
0C
#12227917708
1C
1E
#12227918237
0C
#12227918647
1C
0E
#12227919202
0C
1E
#12227919582
1C
#12227920142
0C
0E
#12227920543
1C
#12227921222
0C
#12227921482
1C
#12227921672
0C
#12227922182
1C
1E
#12227922717
0C
0E
#12227923147
1C
#12227923683
0C
1E
#12227924058
1C
0E
#12227924617
0C
#12227925017
1C
1E
#12227925697
0C
0E
#12227925952
1C
#12227926157
0C
1E
#12227926662
1C
0E
#12227927917
0C
1E
#12227928322
1C
0E
#12227928987
0C
#12227929272
1C
#12227929507
0C
#12227930043
1C
#12227930672
0C
#12227930952
1C
#12227931148
0C
#12227931657
1C
1E
#12227932188
0C
#12227932618
1C
0E
#12227933223
0C
#12227933508
1C
#12227933817
0C
1E
#12227934282
1C
#12227934817
0C
#12227935192
1C
0E
#12227935752
0C
#12227936133
1C
1E
#12227936657
0C
#12227937067
1C
0E
#12227937623
0C
1E
#12227938002
1C
#12227938532
0C
0E
#12227938962
1C
#12227939498
0C
1E
#12227939872
1C
0E
1d
#12227940488
0C
#12227940773
1C
#12227941127
0C
1E
#12227941543
1C
0E
#12227942098
0C
1E
#12227942478
1C
0E
#12227943738
0C
1E
#12227944143
1C
0E
#12227944698
0C
#12227944983
1C
#12227945428
0C
#12227945833
1C
#12227947088
0C
#12227947473
1C
1E
#12227948733
0C
#12227949112
1C
0E
#12227949673
0C
#12227949958
1C
#12227950398
0C
1E
#12227950803
1C
0E
#12227951303
0C
#12227951588
1C
#12227952088
0C
#12227952493
1C
1E
0d
#12227953028
0C
#12227953408
1C
0E
#12227953853
0C
#12227954138
1C
#12227954693
0C
#12227955073
1C
1E
#12227955633
0C
#12227956018
1C
#12227956463
0C
0E
#12227956968
1C
1E
#12227957478
0C
0E
#12227957918
1C
1E
#12227958318
0C
#12227958823
1C
0E
#12227959378
0C
#12227959783
1C
1E
#12227960313
0C
#12227960728
1C
#12227961088
0C
0E
#12227961628
1C
1E
#12227962188
0C
#12227962628
1C
#12227962973
0C
#12227963273
1C
0E
#12227963823
0C
#12227964253
1C
#12227965513
0C
#12227965918
1C
1E
#12227967153
0C
#12227967598
1C
#12227968008
0C
0E
#12227968248
1C
#12227968818
0C
1E
#12227969298
1C
0E
#12227969623
0C
1E
#12227969903
1C
0E
#12227970483
0C
#12227970913
1C
1E
#12227972168
0C
0E
#12227972558
1C
#12227973813
0C
1E
#12227974288
1C
#12227975478
0C
0E
#12227975953
1C
#12227976338
0C
1E
#12227976858
1C
0E
#12227977378
0C
#12227977783
1C
1E
#12227978288
0C
#12227978763
1C
#12227979253
0C
0E
#12227979628
1C
1E
#12227980163
0C
0E
#12227980633
1C
1E
#12227981123
0C
#12227981538
1C
0E
#12227982063
0C
#12227982468
1C
1E
#12227982973
0C
#12227983413
1C
#12227984638
0C
0E
#12227985103
1C
1E
#12227986303
0C
0E
#12227986733
1C
1E
#12227987968
0C
#12227988403
1C
0E
#12227989633
0C
1E
#12227990073
1C
#12227991298
0C
0E
#12227991728
1C
1E
#12227992963
0C
0E
#12227993363
1C
1E
#12227994628
0C
#12227995063
1C
0E
#12227996293
0C
1E
#12227996728
1C
#12227997258
0C
#12227997633
1C
#12227998168
0C
0E
#12227998598
1C
1E
#12227999103
0C
#12227999513
1C
0E
#12228000063
0C
#12228000468
1C
1E
#12228000973
0C
#12228001408
1C
0E
#12228001938
0C
#12228002313
1C
1E
#12228002848
0C
0E
#12228003283
1C
1E
#12228003788
0C
#12228004193
1C
0E
#12228005448
0C
1E
#12228005883
1C
0E
#12228007118
0C
#12228007548
1C
1E
#12228008778
0C
0E
#12228009183
1C
1E
#12228010443
0C
#12228010853
1C
0E
#12228012108
0C
1E
#12228012543
1C
0E
#12228013773
0C
#12228014203
1C
1E
#12228015438
0C
0E
#12228015843
1C
1E
#12228017103
0C
#12228017538
1C
0E
#12228018048
0C
1E
#12228018448
1C
#12228018983
0C
0E
#12228019413
1C
1E
#12228019918
0C
#12228020323
1C
0E
#12228020853
0C
#12228021258
1C
1E
#12228021793
0C
#12228022198
1C
0E
#12228022728
0C
1E
#12228023133
1C
#12228023663
0C
0E
#12228024093
1C
#12228024598
0C
1E
#12228025003
1C
#12228026268
0C
0E
#12228026698
1C
#12228027928
0C
#12228028363
1C
1E
#12228029598
0C
#12228030003
1C
#12228031263
0C
#12228031668
1C
0E
#12228032928
0C
#12228033358
1C
#12228034593
0C
#12228035013
1C
#12228036258
0C
1E
#12228036663
1C
0E
#12228037923
0C
1E
#12228038333
1C
0E
#12228038863
0C
1E
#12228039268
1C
0E
#12228039798
0C
#12228040228
1C
1E
#12228040733
0C
#12228041138
1C
0E
#12228041673
0C
#12228042098
1C
1E
#12228042608
0C
#12228043013
1C
0E
#12228043548
0C
1E
#12228043948
1C
#12228044483
0C
0E
#12228044913
1C
1E
#12228045418
0C
#12228045823
1C
0E
#12228047083
0C
1E
#12228047488
1C
0E
#12228048748
0C
#12228049178
1C
1E
#12228050413
0C
#12228050818
1C
#12228052078
0C
#12228052483
1C
0E
#12228053743
0C
#12228054173
1C
#12228055408
0C
#12228055838
1C
1E
#12228057073
0C
#12228057478
1C
0E
#12228058738
0C
1E
#12228059143
1C
0E
#12228060403
0C
#12228060833
1C
#12228062068
0C
#12228062473
1C
1E
#12228063008
0C
0E
#12228063413
1C
1E
#12228063943
0C
#12228064348
1C
0E
#12228065608
0C
1E
#12228066013
1C
0E
#12228066548
0C
1E
#12228066948
1C
#12228068208
0C
#12228068613
1C
0E
#12228069148
0C
#12228069573
1C
1E
#12228070083
0C
#12228070488
1C
0E
#12228071023
0C
1E
#12228071423
1C
#12228072688
0C
#12228073088
1C
0E
#12228074353
0C
#12228074778
1C
#12228075288
0C
1E
#12228075693
1C
0E
#12228076953
0C
#12228077358
1C
#12228077888
0C
1E
#12228078293
1C
#12228079553
0C
#12228079958
1C
0E
#12228081223
0C
#12228081623
1C
1E
#12228082158
0C
#12228082563
1C
0E
#12228083118
0C
#12228083503
1C
1E
#12228084033
0C
0E
#12228084433
1C
#12228085698
0C
#12228086098
1C
1E
#12228087363
0C
#12228087763
1C
#12228089028
0C
#12228089428
1C
0E
#12228090693
0C
#12228091093
1C
#12228091633
0C
1E
#12228092033
1C
0E
#12228093293
0C
1E
#12228093693
1C
0E
#12228094958
0C
#12228095358
1C
#12228096628
0C
1E
#12228097023
1C
#12228097563
0C
0E
#12228097958
1C
#12228098498
0C
1E
#12228098898
1C
#12228099458
0C
0E
#12228099833
1C
#12228100373
0C
#12228100773
1C
#12228101333
0C
#12228101708
1C
1E
#12228102268
0C
0E
#12228102643
1C
#12228103183
0C
1E
#12228103583
1C
#12228104143
0C
0E
#12228104518
1C
1E
#12228105058
0C
0E
#12228105453
1C
#12228106013
0C
#12228106388
1C
1E
#12228106953
0C
0E
#12228107328
1C
#12228107868
0C
1E
#12228108263
1C
#12228109533
0C
0E
#12228109928
1C
#12228111223
0C
#12228111598
1C
1E
#12228112863
0C
#12228113263
1C
#12228114533
0C
0E
#12228114928
1C
#12228116198
0C
#12228116593
1C
#12228117863
0C
1E
#12228118263
1C
#12228119528
0C
#12228119923
1C
#12228121213
0C
#12228121588
1C
0E
#12228122153
0C
1E
#12228122528
1C
#12228123088
0C
0E
#12228123463
1C
#12228124028
0C
1E
#12228124398
1C
#12228124963
0C
0E
#12228125338
1C
1E
#12228125898
0C
#12228126273
1C
0E
#12228126838
0C
1E
#12228127213
1C
#12228127773
0C
0E
#12228128143
1C
#12228128708
0C
1E
#12228129083
1C
#12228130373
0C
0E
#12228130748
1C
#12228132038
0C
#12228132413
1C
1E
#12228133703
0C
#12228134078
1C
#12228135368
0C
#12228135743
1C
0E
#12228137033
0C
#12228137408
1C
#12228138698
0C
#12228139073
1C
1E
#12228140363
0C
#12228140738
1C
#12228142028
0C
#12228142403
1C
0E
#12228142968
0C
1E
#12228143338
1C
#12228143903
0C
0E
#12228144278
1C
#12228144843
0C
1E
#12228145213
1C
#12228145778
0C
0E
#12228146148
1C
#12228146713
0C
1E
#12228147083
1C
#12228147648
0C
0E
#12228148023
1C
1E
#12228148588
0C
0E
#12228148958
1C
#12228150253
0C
#12228150623
1C
1E
#12228151913
0C
#12228152288
1C
#12228153583
0C
#12228153953
1C
0E
#12228155248
0C
#12228155618
1C
#12228156913
0C
1E
#12228157283
1C
#12228158578
0C
#12228158948
1C
#12228160243
0C
0E
#12228160613
1C
#12228161908
0C
#12228162278
1C
#12228162843
0C
1E
#12228163213
1C
#12228164508
0C
0E
#12228164878
1C
#12228166173
0C
#12228166543
1C
#12228167113
0C
#12228167483
1C
#12228168048
0C
1E
#12228168418
1C
#12228168983
0C
0E
#12228169353
1C
#12228169923
0C
1E
#12228170293
1C
#12228170858
0C
0E
#12228171228
1C
1E
#12228171793
0C
#12228172163
1C
0E
#12228172733
0C
1E
#12228173098
1C
#12228173668
0C
0E
#12228174038
1C
#12228175333
0C
#12228175703
1C
1E
#12228176998
0C
#12228177368
1C
#12228178663
0C
0E
#12228179033
1C
#12228180328
0C
#12228180698
1C
#12228181993
0C
1E
#12228182363
1C
#12228183658
0C
#12228184028
1C
#12228184598
0C
#12228184963
1C
0E
#12228185533
0C
#12228185903
1C
#12228186473
0C
1E
#12228186838
1C
#12228187408
0C
0E
#12228187773
1C
#12228188343
0C
1E
#12228188713
1C
#12228189283
0C
#12228189648
1C
0E
#12228190218
0C
#12228190583
1C
1E
#12228191153
0C
#12228191523
1C
#12228192818
0C
#12228193188
1C
#12228194483
0C
0E
#12228194828
1C
#12228196153
0C
1E
#12228196508
1C
0E
#12228197818
0C
1E
#12228198158
1C
#12228199478
0C
0E
#12228199823
1C
#12228201148
0C
#12228201488
1C
#12228202813
0C
1E
#12228203153
1C
#12228204478
0C
0E
#12228204818
1C
1E
#12228205418
0C
#12228205758
1C
#12228206353
0C
0E
#12228206693
1C
#12228207288
0C
1E
#12228207628
1C
#12228208223
0C
0E
#12228208563
1C
#12228209158
0C
1E
#12228209503
1C
#12228210098
0C
#12228210438
1C
0E
#12228211033
0C
#12228211373
1C
#12228211973
0C
1E
#12228212308
1C
#12228213633
0C
#12228213973
1C
#12228215298
0C
0E
#12228215638
1C
#12228216968
0C
1E
#12228217308
1C
#12228218628
0C
#12228218968
1C
#12228220298
0C
0E
#12228220638
1C
#12228221958
0C
#12228222303
1C
#12228223628
0C
1E
#12228223968
1C
#12228225293
0C
#12228225653
1C
#12228226253
0C
0E
#12228226568
1C
#12228227168
0C
#12228227503
1C
1E
#12228228128
0C
#12228228443
1C
#12228229038
0C
0E
#12228229378
1C
#12228229978
0C
#12228230318
1C
1E
#12228230938
0C
0E
#12228231253
1C
#12228231853
0C
#12228232188
1C
1E
#12228232788
0C
#12228233123
1C
#12228234478
0C
0E
#12228234793
1C
1E
#12228236118
0C
0E
#12228236458
1C
#12228237813
0C
1E
#12228238123
1C
#12228239473
0C
#12228239788
1C
#12228241118
0C
0E
#12228241453
1C
#12228242808
0C
1E
#12228243118
1C
0E
#12228244473
0C
1E
#12228244783
1C
#12228246138
0C
0E
#12228246454
1C
