data/v6.vcd
$date 2021-07-29 18:36:59 $end
$version piscope V1 $end
$timescale 1 us $end
$scope module top $end
$var wire 1 A 0 $end
$var wire 1 B 1 $end
$var wire 1 C 2 $end
$var wire 1 D 3 $end
$var wire 1 E 4 $end
$var wire 1 F 5 $end
$var wire 1 G 6 $end
$var wire 1 H 7 $end
$var wire 1 I 8 $end
$var wire 1 J 9 $end
$var wire 1 K 10 $end
$var wire 1 L 11 $end
$var wire 1 M 12 $end
$var wire 1 N 13 $end
$var wire 1 O 14 $end
$var wire 1 P 15 $end
$var wire 1 Q 16 $end
$var wire 1 R 17 $end
$var wire 1 S 18 $end
$var wire 1 T 19 $end
$var wire 1 U 20 $end
$var wire 1 V 21 $end
$var wire 1 W 22 $end
$var wire 1 X 23 $end
$var wire 1 Y 24 $end
$var wire 1 Z 25 $end
$var wire 1 a 26 $end
$var wire 1 b 27 $end
$var wire 1 c 28 $end
$var wire 1 d 29 $end
$var wire 1 e 30 $end
$var wire 1 f 31 $end
$upscope $end
$enddefinitions $end
#11286211329
1A
1B
0C
0D
0E
1F
1G
1H
1I
0J
0K
0L
0M
0N
0O
1P
0Q
0R
0S
0T
0U
0V
0W
0X
0Y
0Z
0a
0b
1c
0d
0e
0f
#11286214684
1C
1E
#11286216339
0C
#11286216779
1C
0E
#11286218024
0C
1E
#11286218444
1C
#11286218939
0C
0E
#11286219384
1C
#11286219874
0C
1E
#11286220319
1C
#11286220809
0C
0E
#11286221259
1C
1E
#11286221749
0C
0E
#11286222194
1C
#11286222684
0C
1E
#11286223129
1C
#11286223619
0C
0E
#11286224064
1C
#11286224559
0C
1E
#11286225004
1C
#11286225494
0C
0E
#11286225939
1C
#11286226429
0C
1E
#11286226874
1C
#11286227364
0C
#11286227809
1C
0E
#11286228304
0C
#11286228749
1C
#11286229964
0C
#11286230409
1C
#11286230904
0C
#11286231349
1C
1E
#11286231839
0C
#11286232284
1C
0E
#11286232774
0C
#11286233219
1C
#11286233714
0C
1E
#11286234154
1C
#11286234649
0C
0E
#11286235094
1C
#11286235584
0C
1E
#11286236029
1C
#11286236519
0C
0E
#11286236964
1C
#11286237454
0C
1E
#11286237899
1C
#11286238394
0C
#11286238839
1C
#11286239329
0C
0E
#11286239774
1C
#11286240264
0C
1E
#11286240709
1C
#11286241204
0C
0E
#11286241644
1C
#11286242139
0C
1E
#11286242584
1C
#11286243074
0C
0E
#11286243524
1C
1E
#11286244009
0C
0E
#11286244454
1C
1E
#11286244949
0C
#11286245394
1C
#11286245884
0C
0E
#11286246329
1C
#11286247554
0C
1E
#11286247994
1C
0E
#11286248484
0C
#11286248929
1C
1E
#11286250149
0C
0E
#11286250594
1C
#11286251819
0C
1E
#11286252254
1C
0E
#11286253504
0C
1E
#11286253919
1C
#11286255144
0C
0E
#11286255589
1C
#11286256809
0C
#11286257254
1C
#11286258474
0C
1E
#11286258914
1C
0E
#11286259409
0C
#11286259854
1C
#11286261074
0C
1E
#11286261514
1C
0E
#11286262764
0C
1E
#11286263184
1C
#11286264429
0C
#11286264849
1C
#11286266069
0C
0E
#11286266514
1C
#11286267759
0C
1E
#11286268179
1C
0E
#11286269424
0C
1E
#11286269844
1C
#11286271064
0C
0E
#11286271504
1C
1E
#11286272729
0C
0E
#11286273174
1C
#11286274399
0C
1E
#11286274839
1C
#11286275329
0C
0E
#11286275774
1C
#11286276269
0C
1E
#11286276714
1C
#11286277204
0C
0E
#11286277649
1C
#11286278139
0C
1E
#11286278584
1C
#11286279079
0C
#11286279519
1C
0E
#11286280014
0C
#11286280459
1C
#11286280949
0C
1E
#11286281394
1C
#11286281884
0C
0E
#11286282334
1C
#11286282824
0C
#11286283269
1C
1E
#11286283759
0C
#11286284204
1C
0E
#11286285449
0C
1E
#11286285869
1C
#11286287114
0C
0E
#11286287534
1C
1E
#11286288024
0C
#11286288469
1C
#11286288959
0C
0E
#11286289404
1C
#11286290629
0C
1E
#11286291069
1C
0E
#11286292314
0C
1E
#11286292734
1C
#11286293984
0C
0E
#11286294399
1C
1E
#11286295624
0C
0E
#11286296064
1C
#11286296559
0C
1E
#11286297004
1C
#11286297494
0C
0E
#11286297939
1C
#11286299184
0C
1E
#11286299599
1C
0E
#11286300849
0C
1E
#11286301269
1C
#11286301759
0C
#11286302204
1C
0E
#11286302695
0C
#11286303139
1C
1E
#11286303634
0C
#11286304079
1C
#11286305324
0C
#11286305744
1C
#11286306234
0C
#11286306679
1C
0E
#11286307169
0C
#11286307614
1C
#11286308834
0C
#11286309279
1C
#11286309769
0C
1E
#11286310214
1C
#11286310709
0C
#11286311154
1C
#11286312394
0C
#11286312814
1C
#11286314064
0C
0E
#11286314479
1C
1E
#11286314974
0C
#11286315419
1C
#11286316659
0C
#11286317079
1C
#11286318330
0C
0E
#11286318744
1C
1E
#11286319239
0C
#11286319684
1C
#11286320929
0C
#11286321349
1C
#11286322569
0C
0E
#11286323014
1C
#11286323504
0C
1E
#11286323954
1C
#11286325194
0C
0E
#11286325614
1C
#11286326839
0C
1E
#11286327279
1C
0E
#11286327774
0C
#11286328219
1C
#11286328709
0C
1E
#11286329159
1C
#11286329644
0C
0E
#11286330094
1C
#11286330584
0C
1E
#11286331029
1C
#11286332269
0C
#11286332689
1C
#11286333184
0C
#11286333624
1C
0E
#11286334119
0C
#11286334564
1C
#11286335059
0C
1E
#11286335499
1C
#11286336744
0C
#11286337164
1C
#11286338409
0C
0E
#11286338829
1C
#11286340074
0C
#11286340494
1C
#11286341739
0C
1E
#11286342159
1C
#11286342654
0C
#11286343100
1C
0E
#11286344344
0C
1E
#11286344759
1C
#11286345254
0C
0E
#11286345699
1C
#11286346189
0C
1E
#11286346634
1C
#11286347129
0C
#11286347574
1C
0E
#11286348064
0C
#11286348509
1C
#11286349000
0C
1E
#11286349449
1C
#11286349934
0C
0E
#11286350384
1C
#11286351624
0C
#11286352044
1C
#11286352539
0C
#11286352984
1C
#11286354229
0C
#11286354649
1C
#11286355894
0C
1E
#11286356309
1C
0E
#11286357559
0C
1E
#11286357980
1C
#11286359224
0C
0E
#11286359644
1C
#11286360889
0C
#11286361310
1C
#11286362554
0C
1E
#11286362974
1C
#11286363464
0C
0E
#11286363939
1C
#11286365159
0C
1E
#11286365574
1C
0E
#11286366074
0C
#11286366514
1C
#11286367034
0C
1E
#11286367450
1C
#11286367944
0C
#11286368415
1C
0E
#11286368910
0C
#11286369324
1C
1E
#11286369819
0C
#11286370285
1C
0E
#11286370780
0C
#11286371194
1C
#11286371714
0C
1E
#11286372129
1C
#11286372624
0C
0E
#11286373079
1C
1E
#11286373715
0C
#11286373839
1C
#11286374314
0C
#11286374759
1C
#11286375974
0C
#11286376395
1C
#11286377639
0C
#11286378059
1C
#11286378449
0C
#11286378669
1C
0E
#11286379284
0C
#11286379730
1C
#11286380189
0C
1E
#11286380374
1C
#11286380974
0C
#11286381414
1C
0E
#11286382639
0C
1E
#11286383035
1C
#11286383374
0C
#11286383614
1C
0E
#11286384279
0C
#11286384699
1C
#11286385134
0C
1E
#11286385329
1C
0E
#11286385950
0C
1E
#11286386419
1C
#11286386909
0C
0E
#11286387299
1C
#11286387664
0C
1E
#11286388284
1C
0E
#11286388785
0C
#11286389200
1C
#11286389580
0C
1E
#11286390129
1C
#11286390629
0C
#11286391074
1C
0E
#11286391594
0C
#11286391985
1C
#11286392320
0C
1E
#11286392969
1C
#11286393464
0C
0E
#11286393855
1C
#11286394189
0C
1E
#11286394404
1C
0E
#11286395105
0C
1E
#11286395574
1C
0E
#11286396789
0C
1E
#11286397209
1C
#11286398440
0C
0E
#11286398849
1C
1E
#11286399149
0C
0E
#11286399350
1C
1E
#11286400095
0C
0E
#11286400540
1C
#11286400830
0C
#11286401010
1C
#11286401765
0C
1E
#11286402230
1C
0E
#11286403449
0C
1E
#11286403869
1C
#11286405095
0C
0E
#11286405510
1C
#11286405805
0C
#11286405980
1C
1E
#11286406760
0C
#11286407200
1C
0E
#11286407520
0C
#11286408110
1C
1E
#11286408635
0C
#11286409100
1C
0E
#11286409595
0C
#11286409985
1C
#11286410225
0C
#11286410945
1C
1E
#11286411465
0C
0E
#11286411880
1C
#11286412115
0C
#11286412815
1C
1E
#11286413315
0C
#11286413755
1C
0E
#11286413975
0C
1E
#11286414665
1C
#11286415915
0C
0E
#11286416360
1C
#11286417585
0C
1E
#11286418020
1C
0E
#11286419270
0C
1E
#11286419685
1C
#11286420915
0C
0E
#11286421330
1C
#11286422580
0C
1E
#11286423020
1C
0E
#11286424245
0C
1E
#11286424685
1C
#11286425910
0C
0E
#11286426325
1C
1E
#11286427575
0C
#11286428020
1C
0E
#11286428540
0C
#11286428925
1C
1E
#11286429450
0C
#11286429890
1C
0E
#11286430385
0C
#11286430805
1C
#11286431345
0C
1E
#11286431760
1C
#11286432260
0C
#11286432705
1C
0E
#11286433200
0C
#11286433615
1C
#11286434135
0C
1E
#11286434575
1C
#11286435070
0C
0E
#11286435515
1C
#11286436735
0C
1E
#11286437180
1C
0E
#11286438400
0C
1E
#11286438840
1C
#11286440065
0C
0E
#11286440480
1C
1E
#11286441730
0C
0E
#11286442175
1C
#11286443395
0C
1E
#11286443840
1C
#11286445060
0C
#11286445500
1C
#11286446725
0C
0E
#11286447140
1C
1E
#11286448390
0C
0E
#11286448835
1C
#11286449330
0C
#11286449745
1C
1E
#11286450265
0C
#11286450705
1C
0E
#11286451200
0C
#11286451640
1C
1E
#11286452135
0C
#11286452575
1C
#11286453075
0C
#11286453515
1C
0E
#11286454010
0C
#11286454425
1C
1E
#11286454945
0C
#11286455390
1C
0E
#11286455880
0C
#11286456300
1C
#11286457550
0C
1E
#11286457990
1C
0E
#11286459215
0C
1E
#11286459655
1C
#11286460880
0C
0E
#11286461295
1C
1E
#11286462545
0C
0E
#11286462960
1C
#11286464210
0C
1E
#11286464650
1C
0E
#11286465875
0C
1E
#11286466315
1C
#11286467540
0C
0E
#11286467955
1C
1E
#11286469205
0C
0E
#11286469645
1C
#11286470870
0C
1E
#11286471310
1C
0E
#11286472540
0C
#11286472950
1C
1E
#11286473475
0C
#11286473915
1C
0E
#11286474410
0C
#11286474825
1C
#11286476075
0C
1E
#11286476515
1C
0E
#11286477015
0C
#11286477430
1C
1E
#11286478680
0C
0E
#11286479115
1C
#11286479615
0C
#11286480055
1C
1E
#11286480550
0C
#11286480990
1C
0E
#11286481490
0C
#11286481900
1C
1E
#11286483150
0C
0E
#11286483590
1C
#11286484820
0C
1E
#11286485260
1C
#11286485755
0C
0E
#11286486195
1C
#11286487420
0C
1E
#11286487860
1C
0E
#11286488355
0C
#11286488770
1C
1E
#11286490020
0C
0E
#11286490460
1C
#11286491685
0C
1E
#11286492125
1C
0E
#11286492625
0C
#11286493035
1C
1E
#11286493560
0C
#11286494000
1C
#11286494495
0C
0E
#11286494935
1C
#11286496160
0C
1E
#11286496600
1C
0E
#11286497830
0C
#11286498265
1C
1E
#11286499495
0C
0E
#11286499905
1C
#11286501160
0C
1E
#11286501590
1C
0E
#11286502095
0C
#11286502510
1C
#11286503765
0C
1E
#11286504200
1C
0E
#11286505425
0C
1E
#11286505865
1C
#11286507090
0C
0E
#11286507505
1C
1E
#11286508030
0C
#11286508440
1C
0E
#11286508965
0C
#11286509380
1C
#11286509905
0C
#11286510340
1C
1E
#11286510840
0C
#11286511255
1C
0E
#11286511780
0C
#11286512190
1C
1E
#11286512715
0C
#11286513125
1C
0E
#11286513650
0C
#11286514065
1C
#11286514590
0C
#11286515020
1C
#11286515525
0C
1E
#11286515935
1C
0E
#11286516460
0C
#11286516875
1C
1E
#11286517400
0C
#11286517810
1C
0E
#11286518335
0C
#11286518745
1C
1E
#11286520000
0C
#11286520410
1C
0E
#11286521665
0C
1E
#11286522075
1C
#11286523330
0C
0E
#11286523740
1C
1E
#11286524995
0C
0E
#11286525405
1C
#11286526665
0C
1E
#11286527075
1C
0E
#11286528330
0C
#11286528740
1C
1E
#11286529995
0C
0E
#11286530405
1C
#11286531660
0C
1E
#11286532070
1C
0E
#11286532595
0C
#11286533005
1C
1E
#11286533535
0C
#11286533940
1C
0E
#11286534470
0C
1E
#11286534880
1C
0E
#11286535410
0C
#11286535815
1C
1E
#11286536345
0C
#11286536750
1C
0E
#11286537280
0C
#11286537690
1C
1E
#11286538215
0C
#11286538630
1C
#11286539155
0C
#11286539565
1C
0E
#11286540820
0C
1E
#11286541225
1C
0E
#11286542505
0C
1E
#11286542890
1C
0E
#11286544170
0C
#11286544555
1C
1E
#11286545835
0C
0E
#11286546220
1C
#11286547480
0C
1E
#11286547885
1C
0E
#11286549165
0C
1E
#11286549550
1C
#11286550830
0C
0E
#11286551215
1C
1E
#11286552495
0C
0E
#11286552880
1C
#11286553410
0C
#11286553815
1C
1E
#11286554345
0C
#11286554750
1C
0E
#11286555280
0C
#11286555690
1C
1E
#11286556220
0C
0E
#11286556630
1C
1E
#11286557155
0C
#11286557565
1C
0E
#11286558115
0C
#11286558500
1C
1E
#11286559030
0C
#11286559435
1C
0E
#11286560715
0C
1E
#11286561100
1C
0E
#11286562380
0C
#11286562765
1C
1E
#11286564045
0C
0E
#11286564430
1C
1E
#11286565715
0C
#11286566095
1C
0E
#11286567375
0C
1E
#11286567760
1C
#11286569045
0C
0E
#11286569425
1C
1E
#11286570705
0C
0E
#11286571090
1C
#11286572370
0C
1E
#11286572755
1C
0E
#11286573310
0C
#11286573690
1C
1E
#11286574975
0C
#11286575360
1C
0E
#11286576640
0C
1E
#11286577020
1C
0E
#11286577575
0C
#11286577960
1C
#11286578515
0C
#11286578895
1C
1E
#11286579450
0C
#11286579830
1C
0E
#11286580385
0C
#11286580770
1C
1E
#11286581325
0C
#11286581705
1C
0E
#11286582260
0C
1E
#11286582645
1C
0E
#11286583200
0C
#11286583580
1C
1E
#11286584135
0C
#11286584515
1C
0E
#11286585800
0C
#11286586180
1C
#11286587465
0C
#11286587845
1C
1E
#11286589130
0C
#11286589510
1C
0E
#11286590795
0C
1E
#11286591175
1C
0E
#11286592460
0C
#11286592840
1C
1E
#11286594125
0C
0E
#11286594505
1C
1E
#11286595060
0C
#11286595440
1C
0E
#11286595995
0C
#11286596380
1C
#11286596935
0C
#11286597315
1C
1E
#11286597870
0C
#11286598250
1C
0E
#11286598805
0C
#11286599185
1C
1E
#11286599745
0C
#11286600125
1C
0E
#11286600680
0C
#11286601060
1C
1E
#11286601615
0C
0E
#11286601995
1C
#11286603280
0C
#11286603660
1C
1E
#11286604950
0C
#11286605330
1C
0E
#11286606615
0C
#11286606995
1C
#11286608280
0C
#11286608660
1C
1E
#11286609945
0C
#11286610320
1C
#11286611610
0C
#11286611990
1C
0E
#11286613275
0C
#11286613655
1C
1E
#11286614940
0C
0E
#11286615320
1C
1E
#11286615875
0C
#11286616255
1C
0E
#11286616815
0C
1E
#11286617190
1C
#11286617750
0C
0E
#11286618130
1C
1E
#11286618685
0C
#11286619065
1C
0E
#11286619625
0C
#11286620000
1C
1E
#11286620560
0C
#11286620935
1C
0E
#11286621495
0C
#11286621875
1C
1E
#11286622435
0C
0E
#11286622810
1C
#11286624095
0C
#11286624475
1C
1E
#11286625765
0C
#11286626140
1C
#11286627430
0C
#11286627805
1C
0E
#11286629095
0C
#11286629470
1C
1E
#11286630760
0C
#11286631135
1C
#11286632425
0C
#11286632800
1C
0E
#11286634090
0C
#11286634465
1C
#11286635755
0C
#11286636130
1C
1E
#11286636690
0C
#11286637070
1C
0E
#11286637630
0C
1E
#11286638005
1C
#11286638565
0C
0E
#11286638945
1C
1E
#11286639505
0C
#11286639875
1C
#11286640440
0C
0E
#11286640815
1C
1E
#11286641375
0C
#11286641750
1C
0E
#11286642315
0C
1E
#11286642690
1C
#11286643275
0C
0E
#11286643625
1C
#11286644940
0C
#11286645290
1C
1E
#11286646605
0C
#11286646955
1C
#11286648265
0C
#11286648620
1C
0E
#11286649935
0C
#11286650285
1C
#11286651600
0C
#11286651950
1C
1E
#11286653265
0C
#11286653610
1C
#11286654930
0C
#11286655255
1C
0E
#11286656595
0C
#11286656920
1C
1E
