data/x1.vcd
$date 2021-07-29 18:36:59 $end
$version piscope V1 $end
$timescale 1 us $end
$scope module top $end
$var wire 1 A 0 $end
$var wire 1 B 1 $end
$var wire 1 C 2 $end
$var wire 1 D 3 $end
$var wire 1 E 4 $end
$var wire 1 F 5 $end
$var wire 1 G 6 $end
$var wire 1 H 7 $end
$var wire 1 I 8 $end
$var wire 1 J 9 $end
$var wire 1 K 10 $end
$var wire 1 L 11 $end
$var wire 1 M 12 $end
$var wire 1 N 13 $end
$var wire 1 O 14 $end
$var wire 1 P 15 $end
$var wire 1 Q 16 $end
$var wire 1 R 17 $end
$var wire 1 S 18 $end
$var wire 1 T 19 $end
$var wire 1 U 20 $end
$var wire 1 V 21 $end
$var wire 1 W 22 $end
$var wire 1 X 23 $end
$var wire 1 Y 24 $end
$var wire 1 Z 25 $end
$var wire 1 a 26 $end
$var wire 1 b 27 $end
$var wire 1 c 28 $end
$var wire 1 d 29 $end
$var wire 1 e 30 $end
$var wire 1 f 31 $end
$upscope $end
$enddefinitions $end
#13461126469
1A
1B
0C
0D
1F
1G
1H
1I
0J
0K
0L
0M
0N
0O
1P
0Q
0R
0S
0T
0U
0V
0W
0X
0Y
0Z
0a
0b
1c
0d
0e
0f
#13461130054
1C
0E
#13461131979
0C
1E
#13461132544
1C
0E
#13461133344
0C
#13461133914
1C
#13461134854
0C
#13461135394
1C
#13461136379
0C
1E
#13461136914
1C
0E
#13461137754
0C
#13461138239
1C
#13461139289
0C
1E
#13461139824
1C
0E
#13461140809
0C
1E
#13461141289
1C
0E
#13461142194
0C
1E
#13461142729
1C
0E
#13461143724
0C
#13461144264
1C
#13461145164
0C
1E
#13461145699
1C
0E
#13461146539
0C
1E
#13461147129
1C
0E
#13461147999
0C
1E
#13461148549
1C
0E
#13461149429
0C
1E
#13461149934
1C
0E
#13461150804
0C
#13461151399
1C
#13461152244
0C
#13461152784
1C
#13461153634
0C
#13461154149
1C
#13461154954
0C
1E
#13461155494
1C
0E
#13461156359
0C
1E
#13461156874
1C
0E
#13461157744
0C
#13461158284
1C
#13461159064
0C
1E
#13461159604
1C
0E
#13461160464
0C
#13461161059
1C
#13461161894
0C
1E
#13461162404
1C
0E
#13461163209
0C
1E
#13461163724
1C
0E
#13461164614
0C
1E
#13461165154
1C
0E
#13461166004
0C
1E
#13461166544
1C
0E
#13461167319
0C
1E
#13461167834
1C
0E
#13461168719
0C
#13461169264
1C
#13461170114
0C
1E
#13461170654
1C
0E
#13461171434
0C
1E
#13461171889
1C
0E
#13461172849
0C
1E
#13461173364
1C
0E
#13461174254
0C
1E
#13461174789
1C
0E
#13461175609
0C
1E
#13461176149
1C
0E
#13461177079
0C
1E
#13461177649
1C
0E
#13461178459
0C
1E
#13461178999
1C
0E
#13461179794
0C
1E
#13461180329
1C
0E
#13461181269
0C
1E
#13461181724
1C
0E
#13461182614
0C
1E
#13461183129
1C
0E
#13461183929
0C
#13461184469
1C
#13461185339
0C
1E
#13461185879
1C
0E
#13461186729
0C
1E
#13461187269
1C
0E
#13461188044
0C
1E
#13461188584
1C
0E
#13461189444
0C
#13461189984
1C
#13461190834
0C
1E
#13461191429
1C
0E
#13461192194
0C
1E
#13461192709
1C
0E
#13461193599
0C
1E
#13461194139
1C
0E
#13461194959
0C
1E
#13461195499
1C
0E
#13461196274
0C
1E
#13461196814
1C
0E
#13461197679
0C
1E
#13461198219
1C
0E
#13461199109
0C
#13461199649
1C
#13461200429
0C
1E
#13461200959
1C
0E
#13461201869
0C
1E
#13461202384
1C
0E
#13461203224
0C
1E
#13461203764
1C
0E
#13461204544
0C
1E
#13461205084
1C
0E
#13461205949
0C
1E
#13461206459
1C
0E
#13461207334
0C
#13461207874
1C
#13461208654
0C
1E
#13461209169
1C
0E
#13461210054
0C
#13461210599
1C
#13461211459
0C
1E
#13461211914
1C
0E
#13461212784
0C
1E
#13461213324
1C
0E
#13461214189
0C
1E
#13461214729
1C
0E
#13461215574
0C
#13461216299
1C
#13461217069
0C
1E
#13461217664
1C
0E
#13461218409
0C
1E
#13461218819
1C
0E
#13461219479
0C
#13461219914
1C
#13461220549
0C
1E
#13461220929
1C
0E
#13461221674
0C
1E
#13461222054
1C
0E
#13461222749
0C
1E
#13461223124
1C
0E
#13461223834
0C
#13461224249
1C
#13461224929
0C
1E
#13461225364
1C
0E
#13461226009
0C
1E
#13461226444
1C
0E
#13461227064
0C
#13461227444
1C
#13461228104
0C
#13461228459
1C
#13461229144
0C
#13461229524
1C
#13461230184
0C
1E
#13461230539
1C
0E
#13461231234
0C
1E
#13461231579
1C
0E
#13461232284
0C
1E
#13461232604
1C
0E
#13461233329
0C
#13461233794
1C
#13461234419
0C
1E
#13461234799
1C
0E
#13461235459
0C
#13461235819
1C
#13461236464
0C
1E
#13461236784
1C
0E
#13461237509
0C
1E
#13461237834
1C
0E
#13461238554
0C
1E
#13461238879
1C
0E
#13461239599
0C
1E
#13461239924
1C
0E
#13461240649
0C
1E
#13461241054
1C
0E
#13461241699
0C
#13461242024
1C
#13461242749
0C
1E
#13461243069
1C
0E
#13461243794
0C
1E
#13461244114
1C
0E
#13461244839
0C
1E
#13461245159
1C
0E
#13461245884
0C
1E
#13461246209
1C
0E
#13461246929
0C
1E
#13461247254
1C
0E
#13461247979
0C
1E
#13461248299
1C
0E
#13461249024
0C
1E
#13461249344
1C
0E
#13461250069
0C
1E
#13461250389
1C
0E
#13461251129
0C
#13461251534
1C
#13461252184
0C
1E
#13461252504
1C
0E
#13461253229
0C
1E
#13461253554
1C
0E
#13461254274
0C
1E
#13461254599
1C
0E
#13461255319
0C
1E
#13461255644
1C
0E
#13461256364
0C
1E
#13461256689
1C
0E
#13461257409
0C
#13461257734
1C
#13461258459
0C
1E
#13461258779
1C
0E
#13461259504
0C
1E
#13461259824
1C
0E
#13461260549
0C
1E
#13461260874
1C
0E
#13461261614
0C
1E
#13461261934
1C
0E
#13461262659
0C
1E
#13461262979
1C
0E
#13461263704
0C
1E
#13461264024
1C
0E
#13461264749
0C
1E
#13461265074
1C
0E
#13461265794
0C
#13461266119
1C
#13461266844
0C
1E
#13461267164
1C
0E
#13461267889
0C
1E
#13461268209
1C
0E
#13461268934
0C
1E
#13461269259
1C
0E
#13461269979
0C
1E
#13461270304
1C
0E
#13461271024
0C
#13461271429
1C
#13461272079
0C
1E
#13461272399
1C
0E
#13461273124
0C
1E
#13461273444
1C
0E
#13461274169
0C
1E
#13461274539
1C
0E
#13461275239
0C
1E
#13461275649
1C
0E
#13461276324
0C
1E
#13461276759
1C
0E
#13461277409
0C
1E
#13461277844
1C
0E
#13461278469
0C
1E
#13461278789
1C
0E
#13461279514
0C
1E
#13461279894
1C
0E
#13461280554
0C
1E
#13461280879
1C
0E
#13461281634
0C
1E
#13461282014
1C
0E
#13461282674
0C
1E
#13461283079
1C
0E
#13461283714
0C
1E
#13461284039
1C
0E
#13461284764
0C
1E
#13461285139
1C
0E
#13461285799
0C
#13461286209
1C
#13461286844
0C
1E
#13461287224
1C
0E
#13461287884
0C
1E
#13461288204
1C
0E
#13461288929
0C
1E
#13461289309
1C
0E
#13461289969
0C
1E
#13461290294
1C
0E
#13461291019
0C
1E
#13461291339
1C
0E
#13461292064
0C
1E
#13461292444
1C
0E
#13461293104
0C
1E
#13461293489
1C
0E
#13461294144
0C
1E
#13461294469
1C
0E
#13461295189
0C
#13461295574
1C
#13461296234
0C
1E
#13461296554
1C
0E
#13461297279
0C
1E
#13461297684
1C
0E
#13461298319
0C
1E
#13461298644
1C
0E
#13461299364
0C
1E
#13461299749
1C
0E
#13461300404
0C
#13461300729
1C
#13461301454
0C
1E
#13461301779
1C
0E
#13461302504
0C
1E
#13461302884
1C
0E
#13461303544
0C
1E
#13461303924
1C
0E
#13461304584
0C
#13461304969
1C
#13461305629
0C
1E
#13461306009
1C
0E
#13461306669
0C
1E
#13461306989
1C
0E
#13461307714
0C
1E
#13461308094
1C
0E
#13461308754
0C
1E
#13461309079
1C
0E
#13461309799
0C
#13461310184
1C
#13461310844
0C
1E
#13461311164
1C
0E
#13461311889
0C
1E
#13461312269
1C
0E
#13461312929
0C
#13461313254
1C
#13461313979
0C
1E
#13461314359
1C
0E
#13461315019
0C
1E
#13461315399
1C
0E
#13461316064
0C
1E
#13461316384
1C
0E
#13461317109
0C
1E
#13461317494
1C
0E
#13461318149
0C
1E
#13461318534
1C
0E
#13461319189
0C
1E
#13461319569
1C
0E
#13461320234
0C
#13461320619
1C
#13461321279
0C
1E
#13461321629
1C
0E
#13461322319
0C
1E
#13461322709
1C
0E
#13461323354
0C
1E
#13461323734
1C
0E
#13461324389
0C
1E
#13461324769
1C
0E
#13461325424
0C
1E
#13461325804
1C
0E
#13461326504
0C
1E
#13461326914
1C
0E
#13461327579
0C
1E
#13461328014
1C
0E
#13461328659
0C
1E
#13461329029
1C
0E
#13461329704
0C
1E
#13461330079
1C
0E
#13461330744
0C
1E
#13461331069
1C
0E
#13461331794
0C
1E
#13461332174
1C
0E
#13461332834
0C
1E
#13461333159
1C
0E
#13461333879
0C
1E
#13461334289
1C
0E
#13461334924
0C
1E
#13461335329
1C
0E
#13461335964
0C
1E
#13461336344
1C
0E
#13461337014
0C
1E
#13461337419
1C
0E
#13461338054
0C
1E
#13461338459
1C
0E
#13461339099
0C
1E
#13461339474
1C
0E
#13461340144
0C
1E
#13461340529
1C
0E
#13461341189
0C
1E
#13461341569
1C
0E
#13461342234
0C
1E
#13461342614
1C
0E
#13461343279
0C
1E
#13461343689
1C
0E
#13461344324
0C
1E
#13461344699
1C
0E
#13461345369
0C
1E
#13461345774
1C
0E
#13461346414
0C
1E
#13461346819
1C
0E
#13461347454
0C
1E
#13461347829
1C
0E
#13461348499
0C
1E
#13461348904
1C
0E
#13461349539
0C
1E
#13461349919
1C
0E
#13461350589
0C
1E
#13461350934
1C
0E
#13461351669
0C
1E
#13461351989
1C
0E
#13461352714
0C
1E
#13461353089
1C
0E
#13461353759
0C
1E
#13461354139
1C
0E
#13461354804
0C
1E
#13461355214
1C
0E
#13461355844
0C
1E
#13461356219
1C
0E
#13461356889
0C
1E
#13461357274
1C
0E
#13461357934
0C
1E
#13461358314
1C
0E
#13461358979
0C
1E
#13461359349
1C
0E
#13461360019
0C
1E
#13461360399
1C
0E
#13461361064
0C
1E
#13461361439
1C
0E
#13461362109
0C
1E
#13461362489
1C
0E
#13461363159
0C
1E
#13461363534
1C
0E
#13461364204
0C
1E
#13461364584
1C
0E
#13461365249
0C
1E
#13461365619
1C
0E
#13461366289
0C
1E
#13461366674
1C
0E
#13461367339
0C
1E
#13461367709
1C
0E
#13461368379
0C
1E
#13461368759
1C
0E
#13461369424
0C
1E
#13461369794
1C
0E
#13461370469
0C
1E
#13461370844
1C
0E
#13461371514
0C
1E
#13461371884
1C
0E
#13461372559
0C
1E
#13461372939
1C
0E
#13461373604
0C
1E
#13461374014
1C
0E
#13461374644
0C
1E
#13461375014
1C
0E
#13461375694
0C
1E
#13461376064
1C
0E
#13461376799
0C
1E
#13461377244
1C
0E
#13461377899
0C
1E
#13461378334
1C
0E
#13461378979
0C
1E
#13461379344
1C
0E
#13461380029
0C
1E
#13461380394
1C
0E
#13461381084
0C
1E
#13461381449
1C
0E
#13461382144
0C
#13461382504
1C
#13461383174
0C
1E
#13461383544
1C
0E
#13461384219
0C
1E
#13461384594
1C
0E
#13461385259
0C
1E
#13461385639
1C
0E
#13461386324
0C
1E
#13461386674
1C
0E
#13461387349
0C
1E
#13461387754
1C
0E
#13461388414
0C
1E
#13461388804
1C
0E
#13461389454
0C
1E
#13461389799
1C
0E
#13461390479
0C
1E
#13461390854
1C
0E
#13461391519
0C
1E
#13461391889
1C
0E
#13461392564
0C
1E
#13461392934
1C
0E
#13461393634
0C
1E
#13461393979
1C
0E
#13461394679
0C
1E
#13461395034
1C
0E
#13461395719
0C
1E
#13461396074
1C
0E
#13461396759
0C
1E
#13461397104
1C
0E
#13461397809
0C
1E
#13461398194
1C
0E
#13461398849
0C
1E
#13461399194
1C
0E
#13461399894
0C
1E
#13461400284
1C
0E
#13461400934
0C
1E
#13461401279
1C
0E
#13461401984
0C
1E
#13461402339
1C
0E
#13461403004
0C
1E
#13461403369
1C
0E
#13461404074
0C
1E
#13461404464
1C
0E
#13461405114
0C
1E
#13461405459
1C
0E
#13461406159
0C
1E
#13461406514
1C
0E
#13461407199
0C
1E
#13461407524
1C
0E
#13461408249
0C
1E
#13461408634
1C
0E
#13461409289
0C
1E
#13461409614
1C
0E
#13461410334
0C
1E
#13461410724
1C
0E
#13461411379
0C
1E
#13461411704
1C
0E
#13461412399
0C
1E
#13461412744
1C
0E
#13461413459
0C
#13461413824
1C
#13461414509
0C
1E
#13461414834
1C
0E
#13461415554
0C
1E
#13461415909
1C
0E
#13461416574
0C
1E
#13461416919
1C
0E
#13461417619
0C
1E
#13461418059
1C
0E
#13461418684
0C
1E
#13461419004
1C
0E
#13461419724
0C
1E
#13461420084
1C
0E
#13461420744
0C
1E
#13461421109
1C
0E
#13461421819
0C
1E
#13461422199
1C
0E
#13461422839
0C
1E
#13461423184
1C
0E
#13461423884
0C
1E
#13461424294
1C
0E
#13461424924
0C
1E
#13461425269
1C
0E
#13461425969
0C
1E
#13461426349
1C
0E
#13461427014
0C
1E
#13461427439
1C
0E
#13461428159
0C
1E
#13461428599
1C
0E
#13461429269
0C
1E
#13461429684
1C
0E
#13461430314
0C
1E
#13461430654
1C
0E
#13461431359
0C
1E
#13461431724
1C
0E
#13461432409
0C
1E
#13461432754
1C
0E
#13461433454
0C
1E
#13461433799
1C
0E
#13461434499
0C
1E
#13461434909
1C
0E
#13461435539
0C
1E
#13461435889
1C
0E
#13461436589
0C
1E
#13461436989
1C
0E
#13461437624
0C
1E
#13461437974
1C
0E
#13461438669
0C
1E
#13461439054
1C
0E
#13461439714
0C
1E
#13461440064
1C
0E
#13461440759
0C
1E
#13461441079
1C
0E
#13461441809
0C
1E
#13461442219
1C
0E
#13461442849
0C
1E
#13461443199
1C
0E
#13461443894
0C
1E
#13461444279
1C
0E
#13461444939
0C
1E
#13461445289
1C
0E
#13461445984
0C
1E
#13461446394
1C
0E
#13461447024
0C
1E
#13461447374
1C
0E
#13461448069
0C
1E
#13461448454
1C
0E
#13461449109
0C
#13461449459
1C
#13461450159
0C
1E
#13461450544
1C
0E
#13461451204
0C
1E
#13461451524
1C
0E
#13461452249
0C
1E
#13461452634
1C
0E
#13461453294
0C
1E
#13461453704
1C
0E
#13461454334
0C
1E
#13461454709
1C
0E
#13461455374
0C
1E
#13461455789
1C
0E
#13461456419
0C
1E
#13461456794
1C
0E
#13461457459
0C
#13461457874
1C
#13461458499
0C
1E
#13461458879
1C
0E
#13461459544
0C
1E
#13461459955
1C
0E
#13461460584
0C
1E
#13461461049
1C
0E
#13461461674
0C
1E
#13461462049
1C
0E
#13461462719
0C
1E
#13461463094
1C
0E
#13461463759
0C
#13461464174
1C
#13461464804
0C
1E
#13461465179
1C
0E
#13461465849
0C
1E
#13461466254
1C
0E
#13461466889
0C
1E
#13461467239
1C
0E
#13461467934
0C
1E
#13461468314
1C
0E
#13461468974
0C
1E
#13461469349
1C
0E
#13461470019
0C
1E
#13461470399
1C
0E
#13461471059
0C
1E
#13461471409
1C
0E
#13461472105
0C
1E
#13461472479
1C
0E
#13461473149
0C
1E
#13461473554
1C
0E
#13461474189
0C
1E
#13461474569
1C
0E
#13461475234
0C
1E
#13461475639
1C
0E
#13461476274
0C
1E
#13461476624
1C
0E
#13461477319
0C
1E
#13461477724
1C
0E
#13461478370
0C
1E
#13461478739
1C
0E
#13461479464
0C
1E
#13461479894
1C
0E
#13461480544
0C
1E
#13461480950
1C
0E
#13461481639
0C
1E
#13461482044
1C
0E
#13461482679
0C
1E
#13461483059
1C
0E
#13461483719
0C
1E
#13461484070
1C
0E
#13461484764
0C
1E
#13461485144
1C
0E
#13461485804
0C
1E
#13461486159
1C
0E
#13461486849
0C
1E
#13461487235
1C
0E
#13461487889
0C
1E
#13461488264
1C
0E
#13461488934
0C
1E
#13461489339
1C
0E
#13461489974
0C
1E
#13461490350
1C
0E
#13461491024
0C
1E
#13461491374
1C
0E
#13461492069
0C
1E
#13461492444
1C
0E
#13461493109
0C
1E
#13461493515
1C
0E
#13461494149
0C
1E
#13461494524
1C
0E
#13461495464
0C
1E
#13461495864
1C
0E
#13461496515
0C
1E
#13461496859
1C
0E
#13461497554
0C
1E
#13461497929
1C
0E
#13461498594
0C
1E
#13461498969
1C
0E
#13461499635
0C
1E
#13461500009
1C
0E
#13461500675
0C
1E
#13461500994
1C
0E
#13461501724
0C
1E
#13461502049
1C
0E
#13461502770
0C
#13461503169
1C
#13461503864
0C
1E
#13461504324
1C
0E
#13461504950
0C
1E
#13461505330
1C
0E
#13461506029
0C
1E
#13461506349
1C
0E
#13461507074
0C
1E
#13461507425
1C
0E
#13461508120
0C
1E
#13461508445
1C
0E
#13461509165
0C
#13461509534
1C
#13461510209
0C
#13461510534
1C
#13461511309
0C
1E
#13461511629
1C
0E
#13461512379
0C
1E
#13461512729
1C
0E
#13461513465
0C
1E
#13461513785
1C
0E
#13461514509
0C
1E
#13461514855
1C
0E
