data/x2.vcd
$date 2021-07-29 18:36:59 $end
$version piscope V1 $end
$timescale 1 us $end
$scope module top $end
$var wire 1 A 0 $end
$var wire 1 B 1 $end
$var wire 1 C 2 $end
$var wire 1 D 3 $end
$var wire 1 E 4 $end
$var wire 1 F 5 $end
$var wire 1 G 6 $end
$var wire 1 H 7 $end
$var wire 1 I 8 $end
$var wire 1 J 9 $end
$var wire 1 K 10 $end
$var wire 1 L 11 $end
$var wire 1 M 12 $end
$var wire 1 N 13 $end
$var wire 1 O 14 $end
$var wire 1 P 15 $end
$var wire 1 Q 16 $end
$var wire 1 R 17 $end
$var wire 1 S 18 $end
$var wire 1 T 19 $end
$var wire 1 U 20 $end
$var wire 1 V 21 $end
$var wire 1 W 22 $end
$var wire 1 X 23 $end
$var wire 1 Y 24 $end
$var wire 1 Z 25 $end
$var wire 1 a 26 $end
$var wire 1 b 27 $end
$var wire 1 c 28 $end
$var wire 1 d 29 $end
$var wire 1 e 30 $end
$var wire 1 f 31 $end
$upscope $end
$enddefinitions $end
#13462160886
1A
1B
0C
0D
1F
1G
1H
1I
0J
0K
0L
0M
0N
0O
1P
0Q
0R
0S
0T
0U
0V
0W
0X
0Y
0Z
0a
0b
1c
0d
0e
0f
#13462164531
1C
0E
#13462166361
0C
1E
#13462166861
1C
0E
#13462167696
0C
#13462168151
1C
#13462169036
0C
1E
#13462169601
1C
0E
#13462170386
0C
1E
#13462170951
1C
0E
#13462171796
0C
1E
#13462172336
1C
0E
#13462173146
0C
1E
#13462173686
1C
0E
#13462174496
0C
1E
#13462175036
1C
0E
#13462175841
0C
1E
#13462176406
1C
0E
#13462177191
0C
1E
#13462177756
1C
0E
#13462178536
0C
1E
#13462179101
1C
0E
#13462179881
0C
1E
#13462180446
1C
0E
#13462181261
0C
#13462181801
1C
#13462182551
0C
1E
#13462183091
1C
0E
#13462183841
0C
1E
#13462184381
1C
0E
#13462185131
0C
1E
#13462185646
1C
0E
#13462186416
0C
#13462186931
1C
#13462187707
0C
#13462188276
1C
#13462189066
0C
1E
#13462189596
1C
0E
#13462190391
0C
1E
#13462190876
1C
0E
#13462191841
0C
#13462192381
1C
#13462193146
0C
1E
#13462193661
1C
0E
#13462194441
0C
1E
#13462194981
1C
0E
#13462195731
0C
1E
#13462196271
1C
0E
#13462197021
0C
1E
#13462197536
1C
0E
#13462198311
0C
1E
#13462198826
1C
0E
#13462199601
0C
1E
#13462200116
1C
0E
#13462200891
0C
#13462201451
1C
#13462202236
0C
#13462202776
1C
#13462203526
0C
#13462204071
1C
#13462204821
0C
1E
#13462205361
1C
0E
#13462206111
0C
#13462206626
1C
#13462207401
0C
1E
#13462207941
1C
0E
#13462208691
0C
1E
#13462209231
1C
0E
#13462209981
0C
1E
#13462210521
1C
0E
#13462211261
0C
1E
#13462211801
1C
0E
#13462212556
0C
1E
#13462213071
1C
0E
#13462213846
0C
1E
#13462214361
1C
0E
#13462215137
0C
1E
#13462215652
1C
0E
#13462216426
0C
1E
#13462216966
1C
0E
#13462217716
0C
#13462218236
1C
#13462219011
0C
1E
#13462219526
1C
0E
#13462220301
0C
1E
#13462220816
1C
0E
#13462221596
0C
1E
#13462222136
1C
0E
#13462223056
0C
#13462223597
1C
#13462224341
0C
#13462224831
1C
#13462225531
0C
1E
#13462225996
1C
0E
#13462226721
0C
1E
#13462227206
1C
0E
#13462227907
0C
1E
#13462228366
1C
0E
#13462229091
0C
1E
#13462229551
1C
0E
#13462230276
0C
1E
#13462230742
1C
0E
#13462231466
0C
1E
#13462231926
1C
0E
#13462232656
0C
1E
#13462233121
1C
0E
#13462233841
0C
1E
#13462234331
1C
0E
#13462235031
0C
1E
#13462235516
1C
0E
#13462236216
0C
1E
#13462236676
1C
0E
#13462237401
0C
1E
#13462237886
1C
0E
#13462238627
0C
1E
#13462239141
1C
0E
#13462239877
0C
1E
#13462240356
1C
0E
#13462241197
0C
1E
#13462241711
1C
0E
#13462242421
0C
1E
#13462242907
1C
0E
#13462243621
0C
1E
#13462244086
1C
0E
#13462244821
0C
1E
#13462245306
1C
0E
#13462246022
0C
1E
#13462246486
1C
0E
#13462247221
0C
1E
#13462247682
1C
0E
#13462248422
0C
1E
#13462248907
1C
0E
#13462249616
0C
1E
#13462250081
1C
0E
#13462250816
0C
1E
#13462251306
1C
0E
#13462252031
0C
1E
#13462252522
1C
0E
#13462253231
0C
1E
#13462253716
1C
0E
#13462254426
0C
1E
#13462254891
1C
0E
#13462255626
0C
1E
#13462256116
1C
0E
#13462256826
0C
1E
#13462257291
1C
0E
#13462258026
0C
1E
#13462258512
1C
0E
#13462259221
0C
#13462259706
1C
#13462260422
0C
#13462260887
1C
#13462261672
0C
#13462262131
1C
#13462262876
0C
1E
#13462263366
1C
0E
#13462264076
0C
1E
#13462264567
1C
0E
#13462265276
0C
1E
#13462265761
1C
0E
#13462266476
0C
1E
#13462266936
1C
0E
#13462267672
0C
1E
#13462268132
1C
0E
#13462268872
0C
1E
#13462269357
1C
0E
#13462270072
0C
1E
#13462270532
1C
0E
#13462271277
0C
#13462271767
1C
#13462272482
0C
1E
#13462272942
1C
0E
#13462273682
0C
1E
#13462274142
1C
0E
#13462274876
0C
1E
#13462275366
1C
0E
#13462276077
0C
1E
#13462276561
1C
0E
#13462277276
0C
1E
#13462277767
1C
0E
#13462278477
0C
1E
#13462278942
1C
0E
#13462279677
0C
1E
#13462280162
1C
0E
#13462280872
0C
#13462281387
1C
#13462282102
0C
1E
#13462282562
1C
0E
#13462283302
0C
1E
#13462283761
1C
0E
#13462284496
0C
#13462284962
1C
#13462285697
0C
#13462286187
1C
#13462286897
0C
#13462287387
1C
#13462288097
0C
1E
#13462288562
1C
0E
#13462289302
0C
1E
#13462289817
1C
0E
#13462290562
0C
1E
#13462290987
1C
0E
#13462291812
0C
1E
#13462292327
1C
0E
#13462293032
0C
#13462293522
1C
#13462294232
0C
#13462294697
1C
#13462295432
0C
#13462295922
1C
#13462296632
0C
1E
#13462297097
1C
0E
#13462297832
0C
1E
#13462298322
1C
0E
#13462299032
0C
1E
#13462299492
1C
0E
#13462300232
0C
1E
#13462300717
1C
0E
#13462301447
0C
1E
#13462301932
1C
0E
#13462302647
0C
#13462303112
1C
#13462303847
0C
1E
#13462304337
1C
0E
#13462305047
0C
1E
#13462305532
1C
0E
#13462306247
0C
1E
#13462306707
1C
0E
#13462307442
0C
#13462307907
1C
#13462308642
0C
1E
#13462309132
1C
0E
#13462309842
0C
1E
#13462310302
1C
0E
#13462311037
0C
1E
#13462311492
1C
0E
#13462312247
0C
1E
#13462312707
1C
0E
#13462313442
0C
1E
#13462313907
1C
0E
#13462314642
0C
1E
#13462315102
1C
0E
#13462315837
0C
#13462316327
1C
#13462317037
0C
#13462317527
1C
#13462318237
0C
1E
#13462318697
1C
0E
#13462319437
0C
1E
#13462319897
1C
0E
#13462320632
0C
1E
#13462321092
1C
0E
#13462321842
0C
1E
#13462322332
1C
0E
#13462323042
0C
1E
#13462323527
1C
0E
#13462324242
0C
1E
#13462324702
1C
0E
#13462325437
0C
#13462325902
1C
#13462326637
0C
1E
#13462327122
1C
0E
#13462327832
0C
#13462328297
1C
#13462329032
0C
1E
#13462329502
1C
0E
#13462330232
0C
1E
#13462330717
1C
0E
#13462331432
0C
1E
#13462331887
1C
0E
#13462332632
0C
#13462333097
1C
#13462333837
0C
1E
#13462334297
1C
0E
#13462335037
0C
1E
#13462335497
1C
0E
#13462336232
0C
1E
#13462336697
1C
0E
#13462337432
0C
1E
#13462337892
1C
0E
#13462338632
0C
1E
#13462339092
1C
0E
#13462339867
0C
1E
#13462340377
1C
0E
#13462341182
0C
1E
#13462341692
1C
0E
#13462342422
0C
1E
#13462342797
1C
0E
#13462343582
0C
#13462344017
1C
#13462344737
0C
#13462345177
1C
#13462345892
0C
1E
#13462346352
1C
0E
#13462347042
0C
#13462347502
1C
#13462348197
0C
1E
#13462348652
1C
0E
#13462349347
0C
1E
#13462349782
1C
0E
#13462350502
0C
1E
#13462350937
1C
0E
#13462351707
0C
1E
#13462352142
1C
0E
#13462352847
0C
1E
#13462353287
1C
0E
#13462353992
0C
1E
#13462354427
1C
0E
#13462355132
0C
1E
#13462355567
1C
0E
#13462356272
0C
1E
#13462356707
1C
0E
#13462357412
0C
1E
#13462357847
1C
0E
#13462358552
0C
1E
#13462359012
1C
0E
#13462359692
0C
1E
#13462360127
1C
0E
#13462360832
0C
1E
#13462361207
1C
0E
#13462361992
0C
1E
#13462362422
1C
0E
#13462363147
0C
1E
#13462363577
1C
0E
#13462364297
0C
#13462364757
1C
#13462365452
0C
1E
#13462365887
1C
0E
#13462366607
0C
1E
#13462367042
1C
0E
#13462367757
0C
1E
#13462368217
1C
0E
#13462368912
0C
1E
#13462369372
1C
0E
#13462370062
0C
1E
#13462370502
1C
0E
#13462371222
0C
1E
#13462371652
1C
0E
#13462372372
0C
1E
#13462372832
1C
0E
#13462373527
0C
1E
#13462373957
1C
0E
#13462374682
0C
1E
#13462375112
1C
0E
#13462375832
0C
1E
#13462376267
1C
0E
#13462376987
0C
1E
#13462377427
1C
0E
#13462378142
0C
1E
#13462378602
1C
0E
#13462379292
0C
1E
#13462379722
1C
0E
#13462380447
0C
1E
#13462380907
1C
0E
#13462381607
0C
1E
#13462382032
1C
0E
#13462382762
0C
1E
#13462383192
1C
0E
#13462383912
0C
1E
#13462384347
1C
0E
#13462385067
0C
1E
#13462385502
1C
0E
#13462386217
0C
1E
#13462386652
1C
0E
#13462387372
0C
1E
#13462387807
1C
0E
#13462388527
0C
1E
#13462388987
1C
0E
#13462389687
0C
1E
#13462390177
1C
0E
#13462390907
0C
1E
#13462391452
1C
0E
#13462392152
0C
1E
#13462392637
1C
0E
#13462393322
0C
1E
#13462393747
1C
0E
#13462394472
0C
1E
#13462394902
1C
0E
#13462395622
0C
1E
#13462396052
1C
0E
#13462396782
0C
1E
#13462397212
1C
0E
#13462397932
0C
1E
#13462398362
1C
0E
#13462399082
0C
1E
#13462399547
1C
0E
#13462400242
0C
1E
#13462400672
1C
0E
#13462401407
0C
1E
#13462401832
1C
0E
#13462402567
0C
1E
#13462402997
1C
0E
#13462403717
0C
1E
#13462404142
1C
0E
#13462404872
0C
1E
#13462405297
1C
0E
#13462406022
0C
1E
#13462406447
1C
0E
#13462407177
0C
1E
#13462407602
1C
0E
#13462408332
0C
1E
#13462408762
1C
0E
#13462409482
0C
1E
#13462409947
1C
0E
#13462410657
0C
1E
#13462411057
1C
0E
#13462411797
0C
1E
#13462412222
1C
0E
#13462412947
0C
1E
#13462413417
1C
0E
#13462414122
0C
1E
#13462414532
1C
0E
#13462415277
0C
1E
#13462415677
1C
0E
#13462416407
0C
1E
#13462416832
1C
0E
#13462417557
0C
1E
#13462417982
1C
0E
#13462418712
0C
1E
#13462419112
1C
0E
#13462419867
0C
1E
#13462420292
1C
0E
#13462421022
0C
1E
#13462421437
1C
0E
#13462422202
0C
1E
#13462422612
1C
0E
#13462423332
0C
1E
#13462423802
1C
0E
#13462424507
0C
1E
#13462424917
1C
0E
#13462425642
0C
1E
#13462426132
1C
0E
#13462426812
0C
1E
#13462427217
1C
0E
#13462427942
0C
1E
#13462428347
1C
0E
#13462429097
0C
1E
#13462429502
1C
0E
#13462430252
0C
1E
#13462430652
1C
0E
#13462431407
0C
1E
#13462431807
1C
0E
#13462432587
0C
1E
#13462432997
1C
0E
#13462433717
0C
1E
#13462434177
1C
0E
#13462434872
0C
1E
#13462435342
1C
0E
#13462436047
0C
1E
#13462436497
1C
0E
#13462437197
0C
1E
#13462437637
1C
0E
#13462438352
0C
1E
#13462438757
1C
0E
#13462439477
0C
1E
#13462439962
1C
0E
#13462440692
0C
1E
#13462441217
1C
0E
#13462441902
0C
1E
#13462442372
1C
0E
#13462443062
0C
1E
#13462443477
1C
0E
#13462444232
0C
1E
#13462444602
1C
0E
#13462445402
0C
1E
#13462445772
1C
0E
#13462446572
0C
1E
#13462446987
1C
0E
#13462447742
0C
1E
#13462448187
1C
0E
#13462448912
0C
1E
#13462449352
1C
0E
#13462450082
0C
1E
#13462450522
1C
0E
#13462451267
0C
1E
#13462451752
1C
0E
#13462452462
0C
1E
#13462452947
1C
0E
#13462453642
0C
1E
#13462454012
1C
0E
#13462454807
0C
1E
#13462455177
1C
0E
#13462455972
0C
1E
#13462456347
1C
0E
#13462457142
0C
1E
#13462457567
1C
0E
#13462458312
0C
1E
#13462458737
1C
0E
#13462459482
0C
1E
#13462459902
1C
0E
#13462460652
0C
1E
#13462461147
1C
0E
#13462461842
0C
1E
#13462462217
1C
0E
#13462463012
0C
1E
#13462463382
1C
0E
#13462464177
0C
1E
#13462464552
1C
0E
#13462465347
0C
1E
#13462465722
1C
0E
#13462466517
0C
1E
#13462466892
1C
0E
#13462467687
0C
1E
#13462468112
1C
0E
#13462468857
0C
1E
#13462469282
1C
0E
#13462470027
0C
1E
#13462470447
1C
0E
#13462471227
0C
1E
#13462471712
1C
0E
#13462472402
0C
1E
#13462472777
1C
0E
#13462473572
0C
1E
#13462473947
1C
0E
#13462474737
0C
1E
#13462475112
1C
0E
#13462475907
0C
1E
#13462476282
1C
0E
#13462477077
0C
1E
#13462477502
1C
0E
#13462478247
0C
1E
#13462478672
1C
0E
#13462479417
0C
1E
#13462479837
1C
0E
#13462480587
0C
1E
#13462481072
1C
0E
#13462481767
0C
1E
#13462482142
1C
0E
#13462482937
0C
1E
#13462483312
1C
0E
#13462484107
0C
1E
#13462484482
1C
0E
#13462485277
0C
1E
#13462485652
1C
0E
#13462486442
0C
#13462486822
1C
#13462487612
0C
1E
#13462488012
1C
0E
#13462488782
0C
1E
#13462489202
1C
0E
#13462489952
0C
1E
#13462490377
1C
0E
#13462491132
0C
1E
#13462491642
1C
0E
#13462492362
0C
1E
#13462492847
1C
0E
#13462493562
0C
#13462494047
1C
#13462494752
0C
1E
#13462495207
1C
0E
#13462495927
0C
1E
#13462496302
1C
0E
#13462497752
0C
1E
#13462498237
1C
0E
#13462498932
0C
1E
#13462499307
1C
0E
#13462500102
0C
1E
#13462500527
1C
0E
#13462501287
0C
1E
#13462501747
1C
0E
#13462502462
0C
1E
#13462502887
1C
0E
#13462503632
0C
1E
#13462504057
1C
0E
#13462504807
0C
1E
#13462505182
1C
0E
#13462505977
0C
1E
#13462506352
1C
0E
#13462507147
0C
1E
#13462507522
1C
0E
#13462508317
0C
1E
#13462508692
1C
0E
#13462509487
0C
1E
#13462509857
1C
0E
#13462510657
0C
1E
#13462511137
1C
0E
#13462511832
0C
1E
#13462512257
1C
0E
#13462513002
0C
1E
#13462513422
1C
0E
#13462514172
0C
1E
#13462514572
1C
0E
#13462515342
0C
1E
#13462515737
1C
0E
#13462516512
0C
1E
#13462516887
1C
0E
#13462517682
0C
1E
#13462518057
1C
0E
#13462518852
0C
1E
#13462519227
1C
0E
#13462520022
0C
#13462520447
1C
#13462521242
0C
#13462521647
1C
#13462522402
0C
1E
#13462522852
1C
0E
#13462523582
0C
1E
#13462524037
1C
0E
#13462524727
0C
1E
#13462525182
1C
0E
#13462525872
0C
1E
#13462526327
1C
0E
#13462527017
0C
1E
#13462527472
1C
0E
#13462528157
0C
1E
#13462528612
1C
0E
#13462529302
0C
1E
#13462529732
1C
0E
#13462530442
0C
1E
#13462530897
1C
0E
#13462531592
0C
1E
#13462532022
1C
0E
#13462532737
0C
1E
#13462533177
1C
0E
#13462533882
0C
1E
#13462534332
1C
0E
#13462535022
0C
1E
#13462535477
1C
0E
#13462536167
0C
1E
#13462536597
1C
0E
#13462537307
0C
1E
#13462537762
1C
0E
#13462538447
0C
#13462538877
1C
#13462539592
0C
1E
#13462540022
1C
0E
#13462540737
0C
1E
#13462541162
1C
0E
#13462542762
0C
1E
#13462543212
1C
0E
#13462543987
0C
1E
#13462544412
1C
0E
#13462545272
0C
1E
#13462545697
1C
0E
#13462546432
0C
#13462546892
1C
#13462547597
0C
1E
#13462548027
1C
0E
#13462548737
0C
#13462549167
1C
#13462549937
0C
#13462550367
1C
#13462551172
0C
1E
#13462551602
1C
0E
#13462552317
0C
1E
#13462552747
1C
0E
#13462553457
0C
#13462553887
1C
#13462554597
0C
1E
#13462555052
1C
0E
#13462555767
0C
#13462556197
1C
#13462556912
0C
1E
#13462557337
1C
0E
#13462558112
0C
1E
#13462558542
1C
0E
#13462559307
0C
1E
#13462559732
1C
0E
#13462560447
0C
1E
#13462560872
1C
0E
#13462561587
0C
1E
#13462562012
1C
0E
#13462562717
0C
#13462563172
1C
#13462563922
0C
1E
#13462564347
1C
0E
#13462565057
0C
1E
#13462565482
1C
0E
#13462566247
0C
1E
#13462566672
1C
0E
#13462567432
0C
#13462567862
1C
#13462568567
0C
1E
#13462568992
1C
0E
#13462569697
0C
1E
#13462570122
1C
0E
#13462570832
0C
1E
#13462571307
1C
0E
#13462572047
0C
1E
#13462572472
1C
0E
#13462573187
0C
1E
#13462573612
1C
0E
#13462574387
0C
1E
#13462574812
1C
0E
#13462575577
0C
1E
#13462576007
1C
0E
#13462576717
0C
1E
#13462577147
1C
0E
#13462577857
0C
1E
#13462578282
1C
0E
#13462578997
0C
1E
#13462579447
1C
0E
